COUNT,noiseFreqency,noiseStrength,noiseType,haltOneThread,timeoutTampering,sharedVarNoise,shared,nonVarNoise,testdimension,FITNESS,testDuration,CTexception,SBinterrupt,SHVARPAIR,SHVARPAIRF,SHVARPAIRT,DUPAIR,DUPAIRF,DUPAIRT,HBPAIR,HBPAIRF,HBPAIRT,AVIOTRIP,AVIOTRIPF,AVIOTRIPT,GOODLOCK,GOODLOCKF,GOODLOCKT,ERASER,ERASERF,ERASERT,GOLDILOCK,GOLDILOCKF,GOLDILOCKT,GOLDILOCKSC,GOLDILOCKSCT,CUMULCOUNT,CUMULBOT
1,191,7,2,0,1,0,0,1,0,0.0,2054,0,0,0,1,22,0,1,22,0,3,22,0,0,0,0,16,18,0,1,74,23,22,23,21,23,1,0
2,205,69,2,1,0,0,1,1,0,0.0,4008,0,0,0,1,18,0,1,18,0,3,17,0,0,0,0,12,12,0,1,62,19,19,19,19,19,1,0
3,686,51,0,0,1,0,0,0,0,0.0,1007,0,0,0,1,17,0,1,29,0,3,30,0,1,1,0,24,33,0,1,79,29,28,29,27,29,1,0
4,50,91,4,1,0,1,1,1,0,0.0,1516,0,0,0,1,21,0,1,30,0,3,29,0,1,1,0,21,33,0,1,79,31,28,31,28,30,1,0
5,588,53,0,0,0,1,1,0,0,0.0,1008,0,0,0,1,21,0,1,30,0,3,28,0,1,1,0,21,33,0,1,79,31,28,31,28,30,1,0
6,669,30,5,0,1,0,1,0,0,0.0,2506,0,0,0,1,22,0,1,19,0,3,20,0,0,0,0,15,15,0,1,67,22,21,22,20,22,1,0
7,884,76,4,1,1,0,0,0,0,0.0,1006,0,0,0,1,32,0,1,31,0,3,35,0,1,1,0,24,34,0,1,81,32,30,32,27,32,1,0
8,226,16,4,1,0,0,0,1,0,0.0,1006,0,0,0,1,24,0,1,32,0,3,33,0,1,1,0,21,34,0,1,81,34,30,34,28,33,1,0
9,341,44,2,1,0,0,0,1,0,0.0,4507,0,0,0,1,22,0,1,20,0,3,19,0,0,0,0,12,13,0,1,64,22,21,22,20,22,1,0
10,623,56,0,0,0,1,1,0,0,0.0,1006,0,0,0,1,21,0,1,30,0,3,28,0,1,1,0,21,33,0,1,79,32,29,32,29,31,1,0
11,148,30,5,0,1,0,1,1,0,0.0,2005,0,0,0,1,18,0,1,22,0,3,21,0,0,0,0,17,20,0,1,74,23,22,23,21,23,1,0
12,372,42,1,0,1,0,1,1,0,0.0,3507,0,0,0,1,18,0,1,15,0,2,12,0,0,0,0,10,10,0,1,59,17,17,17,17,17,1,0
13,416,73,1,0,1,1,0,0,0,0.0,1008,0,0,0,1,18,0,1,29,0,3,29,0,1,1,0,24,33,0,1,79,29,28,29,27,29,1,0
14,657,26,0,0,1,0,1,1,0,0.0,1005,0,0,0,1,41,0,1,37,0,4,47,0,1,2,0,28,50,0,1,90,41,40,41,34,40,1,0
15,759,75,5,0,0,1,0,0,0,0.0,1505,0,0,0,1,21,0,1,30,0,3,29,0,1,1,0,21,33,0,1,79,31,28,31,28,30,1,0
16,987,39,4,1,1,1,1,1,0,0.0,1004,0,0,0,1,21,0,1,21,0,3,29,0,0,0,0,24,34,0,1,78,29,28,29,27,29,1,0
17,76,56,3,1,0,0,0,0,0,0.0,2011,0,0,0,1,21,0,1,20,0,3,20,0,0,0,0,13,15,0,1,64,21,20,21,18,20,1,0
18,168,43,4,0,0,0,0,0,0,0.0,1507,0,0,0,1,24,0,1,32,0,3,33,0,1,1,0,21,34,0,1,81,33,29,33,28,32,1,0
19,738,88,4,1,0,1,1,1,0,0.0,1012,0,0,0,1,21,0,1,30,0,3,29,0,1,1,0,21,33,0,1,79,31,28,31,28,30,1,0
20,224,37,5,1,0,1,0,0,0,0.0,2506,0,0,0,1,26,0,1,22,0,3,23,0,0,0,0,14,19,0,1,78,24,21,24,18,23,1,0
21,260,71,0,0,1,1,1,1,0,0.0,1009,0,0,0,1,35,0,1,29,0,3,31,0,1,1,0,24,33,0,1,79,29,28,29,27,29,1,0
22,970,61,3,1,0,0,1,1,0,0.0,2015,0,0,0,1,21,0,1,20,0,3,19,0,0,0,0,13,14,0,1,64,20,19,20,18,20,1,0
23,948,78,2,0,1,0,0,0,0,0.0,16510,0,0,0,1,17,0,1,15,0,2,12,0,0,0,0,10,10,0,1,58,16,16,16,16,16,1,0
24,639,61,4,1,1,0,0,1,0,0.0,1006,0,0,0,1,34,0,1,31,0,3,33,0,1,1,0,24,34,0,1,81,32,30,32,28,32,1,0
25,506,95,2,0,1,1,0,1,0,0.0,11527,0,0,0,1,18,0,1,15,0,2,12,0,0,0,0,10,10,0,1,59,17,17,17,17,17,1,0
26,728,47,2,0,1,0,0,1,0,0.0,8007,0,0,0,1,18,0,1,15,0,2,11,0,0,0,0,10,10,0,1,59,19,19,19,19,19,1,0
27,276,81,3,1,0,1,0,1,0,0.0,2505,0,0,0,1,20,0,1,20,0,3,20,0,0,0,0,13,15,0,1,64,21,20,21,19,20,1,0
28,796,34,0,0,0,0,0,1,0,0.0,1005,0,0,0,1,21,0,1,30,0,3,29,0,1,1,0,21,33,0,1,79,31,28,31,28,30,1,0
29,337,44,0,0,0,1,0,0,0,0.0,1005,0,0,0,1,21,0,1,30,0,3,29,0,1,1,0,21,33,0,1,79,31,28,31,28,30,1,0
30,442,65,3,0,0,1,1,0,0,0.0,3006,0,0,0,1,20,0,1,29,0,3,29,0,1,1,0,22,34,0,1,78,31,30,31,28,30,1,0
31,505,13,4,0,0,0,1,1,0,0.0,1004,0,0,0,1,25,0,1,22,0,3,24,0,0,0,0,20,33,0,1,81,26,24,26,22,29,1,0
32,587,38,5,1,0,0,1,1,0,0.0,3004,0,0,0,1,24,0,1,20,0,3,19,0,0,0,0,12,13,0,1,64,24,21,24,19,23,1,0
33,672,14,0,0,0,0,1,1,0,0.0,2008,0,0,0,1,22,0,1,30,0,3,28,0,1,1,0,21,33,0,1,79,31,28,31,28,30,1,0
34,406,53,5,1,1,0,1,0,0,0.0,2504,0,0,0,1,18,0,1,16,0,3,16,0,0,0,0,11,11,0,1,59,18,18,18,18,18,1,0
35,554,5,3,0,1,1,0,1,0,0.0,1004,0,0,0,1,18,0,1,29,0,3,29,0,1,1,0,24,33,0,1,79,29,28,29,27,29,1,0
36,509,70,1,1,1,1,0,1,0,0.0,5505,0,0,0,1,18,0,1,15,0,2,11,0,0,0,0,10,10,0,1,59,17,17,17,17,17,1,0
37,110,7,2,0,0,0,0,1,0,0.0,2005,0,0,0,1,20,0,1,20,0,3,19,0,0,0,0,13,15,0,1,64,21,20,21,19,21,1,0
38,970,78,0,0,1,0,1,0,0,0.0,1005,0,0,0,1,22,0,1,16,0,1,16,0,0,0,0,3,4,0,1,51,20,18,20,15,19,1,0
39,156,33,3,0,0,1,0,1,0,0.0,2008,0,0,0,1,20,0,1,21,0,3,21,0,0,0,0,14,18,0,1,75,23,22,23,21,24,1,0
40,772,54,0,0,1,1,1,1,0,0.0,1006,0,0,0,1,18,0,1,21,0,3,23,0,0,0,0,24,34,0,1,78,28,27,28,27,29,1,0
41,479,85,0,1,1,1,1,0,0,0.0,1006,0,0,0,1,18,0,1,18,0,3,21,0,0,0,0,24,32,0,1,79,26,25,26,27,29,1,0
42,355,55,2,0,1,0,1,1,0,0.0,5505,0,0,0,1,18,0,1,15,0,2,12,0,0,0,0,10,10,0,1,59,17,17,17,17,17,1,0
43,64,49,1,1,1,1,0,0,0,0.0,1007,0,0,0,1,18,0,1,29,0,3,30,0,1,1,0,24,33,0,1,79,30,28,30,27,29,1,0
44,195,69,4,0,0,0,1,1,0,0.0,1004,0,0,0,1,21,0,1,29,0,3,28,0,1,1,0,24,32,0,1,79,29,28,29,27,29,1,0
45,869,69,3,1,0,0,0,0,0,0.0,2514,0,0,0,1,21,0,1,20,0,3,20,0,0,0,0,13,14,0,1,64,21,20,21,19,21,1,0
46,148,86,1,1,0,0,0,0,0,0.0,4005,0,0,0,1,22,0,1,20,0,3,19,0,0,0,0,12,13,0,1,64,20,19,20,18,20,1,0
47,748,65,5,1,0,0,1,1,0,0.0,4505,0,0,0,1,21,0,1,18,0,3,19,0,0,0,0,12,13,0,1,61,19,18,19,17,19,1,0
48,519,5,3,0,0,0,0,1,0,0.0,2031,0,0,0,1,21,0,1,20,0,3,20,0,0,0,0,13,15,0,1,66,20,19,20,18,20,1,0
49,326,85,5,1,1,1,1,1,0,0.0,3007,0,0,0,1,18,0,1,18,0,3,17,0,0,0,0,12,12,0,1,63,18,18,18,18,18,1,0
50,234,94,1,0,1,1,1,0,0,0.0,2513,0,0,0,1,18,0,1,18,0,3,19,0,0,0,0,13,13,0,1,62,18,18,18,18,18,1,0
51,848,13,0,0,0,1,1,0,0,0.0,1007,0,0,0,1,21,0,1,30,0,3,29,0,1,1,0,21,33,0,1,79,31,28,31,28,30,1,0
52,965,45,5,0,0,1,0,0,0,0.0,1505,0,0,0,1,21,0,1,30,0,3,29,0,1,1,0,21,33,0,1,79,31,28,31,28,30,1,0
53,858,29,5,0,1,1,1,1,0,0.0,2512,0,0,0,1,22,0,1,19,0,3,18,0,0,0,0,12,12,0,1,67,21,20,21,19,20,1,0
54,129,87,3,0,0,0,0,1,0,0.0,2505,0,0,0,1,20,0,1,20,0,3,20,0,0,0,0,13,15,0,1,64,20,19,20,18,20,1,0
55,190,55,5,1,0,1,1,1,0,0.0,3005,0,0,0,1,20,0,1,18,0,3,18,0,0,0,0,12,14,0,1,64,20,19,20,18,20,1,0
56,933,57,3,0,0,0,1,0,0,0.0,2505,0,0,0,1,20,0,1,20,0,3,19,0,0,0,0,13,15,0,1,64,20,19,20,18,20,1,0
57,21,13,0,1,1,0,0,0,0,0.0,1003,0,0,0,1,21,0,1,28,0,3,30,0,1,1,0,24,34,0,1,78,29,28,29,27,29,1,0
58,939,6,1,0,1,1,0,1,0,0.0,2005,0,0,0,1,19,0,1,22,0,3,21,0,0,0,0,16,16,0,1,70,24,22,24,21,23,1,0
59,789,35,1,1,1,0,0,0,0,0.0,5018,0,0,0,1,18,0,1,15,0,2,12,0,0,0,0,10,10,0,1,59,18,18,18,18,18,1,0
60,171,44,0,0,0,0,0,0,0,0.0,1004,0,0,0,1,21,0,1,30,0,3,28,0,1,1,0,21,33,0,1,79,33,30,33,28,31,1,0
61,147,97,5,0,1,0,1,0,0,0.0,2005,0,0,0,1,17,0,1,18,0,3,21,0,0,0,0,17,17,0,1,70,24,23,24,22,24,1,0
62,265,18,0,0,0,1,0,0,0,0.0,1504,0,0,0,1,21,0,1,30,0,3,28,0,1,1,0,21,33,0,1,79,31,28,31,28,30,1,0
63,418,35,5,0,1,1,0,0,0,0.0,1004,0,0,0,1,18,0,1,29,0,3,29,0,1,1,0,24,33,0,1,79,29,28,29,28,29,1,0
64,591,66,3,0,0,0,0,0,0,0.0,2005,0,0,0,1,21,0,1,20,0,3,21,0,0,0,0,13,14,0,1,64,20,19,20,19,20,1,0
65,790,93,3,1,0,1,0,1,0,0.0,3004,0,0,0,1,21,0,1,20,0,3,19,0,0,0,0,12,13,0,1,64,21,20,21,18,20,1,0
66,682,33,0,0,1,0,1,0,0,0.0,1004,0,0,0,1,28,0,1,31,0,3,34,0,1,1,0,24,34,0,1,81,33,30,33,27,32,1,0
67,362,90,2,0,0,1,0,0,0,0.0,3029,0,0,0,1,22,0,1,20,0,3,21,0,0,0,0,16,20,0,1,76,20,19,20,19,24,1,0
68,374,89,4,1,1,1,1,0,0,0.0,1004,0,0,0,1,18,0,1,28,0,3,29,0,1,1,0,24,34,0,1,78,29,28,29,27,29,1,0
69,161,11,3,0,1,0,1,0,0,0.0,1004,0,0,0,1,18,0,1,29,0,3,31,0,1,1,0,24,33,0,1,79,29,28,29,27,29,1,0
70,144,36,3,1,1,0,0,1,0,0.0,2008,0,0,0,1,18,0,1,18,0,3,17,0,0,0,0,16,16,0,1,70,19,19,19,19,23,1,0
71,572,5,0,1,0,1,0,1,0,0.0,3005,0,0,0,1,21,0,1,20,0,3,20,0,0,0,0,14,18,0,1,76,20,19,20,18,23,1,0
72,684,60,0,1,0,1,0,0,0,0.0,2509,0,0,0,1,21,0,1,20,0,3,21,0,0,0,0,14,18,0,1,79,20,19,20,19,22,1,0
73,444,91,3,1,1,1,0,0,0,0.0,2004,0,0,0,1,18,0,1,18,0,3,19,0,0,0,0,13,13,0,1,63,18,18,18,18,18,1,0
74,671,84,5,1,1,0,1,1,0,0.0,5538,0,0,0,1,17,0,1,15,0,2,12,0,0,0,0,10,10,0,1,58,15,15,15,15,15,1,0
75,51,10,3,1,0,1,0,1,0,0.0,1006,0,0,0,1,21,0,1,23,0,3,22,0,0,0,0,21,33,0,1,79,28,25,28,25,27,1,0
76,970,66,4,0,1,1,1,0,0,0.0,1004,0,0,0,1,24,0,1,29,0,3,29,0,1,1,0,24,33,0,1,79,29,28,29,27,29,1,0
77,448,98,5,1,1,1,0,0,0,0.0,1004,0,0,0,1,13,0,1,13,0,1,12,0,0,0,0,2,2,0,1,49,12,12,12,12,12,1,0
78,950,87,3,0,1,0,1,0,0,0.0,2004,0,0,0,1,18,0,1,16,0,3,16,0,0,0,0,12,12,0,1,62,17,17,17,17,18,1,0
79,607,96,4,1,1,0,0,0,0,0.0,1004,0,0,0,1,18,0,1,29,0,3,30,0,1,1,0,24,33,0,1,79,29,28,29,27,29,1,0
80,849,61,5,0,0,0,1,1,0,0.0,3504,0,0,0,1,18,0,1,16,0,3,16,0,0,0,0,12,12,0,1,59,19,19,19,19,19,1,0
81,194,29,4,0,0,0,1,0,0,0.0,2505,0,0,0,1,21,0,1,20,0,3,20,0,0,0,0,14,18,0,1,76,21,20,21,18,21,1,0
82,230,5,4,0,1,1,1,0,0,0.0,1003,0,0,0,1,18,0,1,29,0,3,30,0,1,1,0,24,33,0,1,79,29,28,29,27,29,1,0
83,497,23,1,1,0,1,1,0,0,0.0,3005,0,0,0,1,24,0,1,22,0,3,23,0,0,0,0,13,16,0,1,66,24,22,24,18,23,1,0
84,19,13,5,1,0,1,0,1,0,0.0,1504,0,0,0,1,20,0,1,19,0,3,20,0,0,0,0,12,13,0,1,72,19,19,19,19,19,1,0
85,212,28,3,1,1,0,1,0,0,0.0,1004,0,0,0,1,18,0,1,28,0,3,29,0,1,1,0,24,33,0,1,78,30,29,30,27,29,1,0
86,951,76,4,0,0,1,0,0,0,0.0,1504,0,0,0,1,21,0,1,30,0,3,29,0,1,1,0,21,33,0,1,79,31,28,31,28,30,1,0
87,604,66,0,0,0,0,1,1,0,0.0,2005,0,0,0,1,21,0,1,30,0,3,29,0,1,1,0,21,33,0,1,79,31,28,31,28,30,1,0
88,41,46,4,1,0,0,0,0,0,0.0,1504,0,0,0,1,21,0,1,30,0,3,29,0,1,1,0,21,33,0,1,79,31,28,31,28,30,1,0
89,347,87,1,1,0,1,0,1,0,0.0,5506,0,0,0,1,23,0,1,20,0,3,19,0,0,0,0,13,14,0,1,64,21,20,21,19,21,1,0
90,505,57,1,1,1,0,0,1,0,0.0,5005,0,0,0,1,18,0,1,16,0,3,16,0,0,0,0,11,11,0,1,59,18,18,18,18,18,1,0
91,729,2,4,1,0,1,0,0,0,0.0,1005,0,0,0,1,21,0,1,30,0,3,28,0,1,1,0,21,33,0,1,79,31,28,31,28,30,1,0
92,497,96,2,0,1,1,0,0,0,0.0,1039,0,0,0,1,37,0,1,29,0,3,31,0,1,1,0,24,35,0,1,80,33,31,33,27,32,1,0
93,457,9,0,1,1,0,1,0,0,0.0,1503,0,0,0,1,18,0,1,15,0,3,20,0,0,0,0,20,23,0,1,77,23,22,23,22,24,1,0
94,687,63,3,1,0,1,0,0,0,0.0,3004,0,0,0,1,21,0,1,20,0,3,19,0,0,0,0,13,15,0,1,75,20,19,20,18,20,1,0
95,11,49,3,0,1,1,1,1,0,0.0,1004,0,0,0,1,23,0,1,30,0,3,31,0,1,1,0,24,35,0,1,80,33,31,33,27,32,1,0
96,713,31,3,1,1,1,0,1,0,0.0,2004,0,0,0,1,18,0,1,24,0,3,26,0,0,0,0,23,32,0,1,78,26,25,26,24,26,1,0
97,861,84,5,1,0,1,0,1,0,0.0,6505,0,0,0,1,17,0,1,15,0,2,11,0,0,0,0,9,9,0,1,58,16,16,16,16,16,1,0
98,527,16,1,1,1,0,1,1,0,0.0,2504,0,0,0,1,18,0,1,18,0,3,17,0,0,0,0,12,12,0,1,62,18,18,18,18,18,1,0
99,961,8,1,0,1,1,1,1,0,0.0,2504,0,0,0,1,18,0,1,16,0,3,15,0,0,0,0,12,12,0,1,61,17,17,17,18,18,1,0
100,588,67,3,0,0,0,0,0,0,0.0,2027,0,0,0,1,24,0,1,20,0,3,17,0,0,0,0,12,12,0,1,64,21,20,21,19,21,1,0
101,552,80,3,0,0,0,0,0,0,0.0,2008,0,0,0,1,21,0,1,20,0,3,22,0,0,0,0,13,14,0,1,64,20,19,20,19,20,1,0
102,42,63,4,1,1,1,0,1,0,0.0,1005,0,0,0,1,37,0,1,29,0,3,31,0,1,1,0,24,35,0,1,80,32,30,32,27,32,1,0
103,449,50,1,0,0,1,1,0,0,0.0,2506,0,0,0,1,21,0,1,19,0,3,18,0,0,0,0,12,14,0,1,62,20,19,20,18,20,1,0
104,934,82,5,0,1,0,1,1,0,0.0,5538,0,0,0,1,17,0,1,15,0,2,12,0,0,0,0,10,10,0,1,59,16,16,16,17,17,1,0
105,710,2,4,0,0,0,0,1,0,0.0,1505,0,0,0,1,24,0,1,32,0,3,32,0,1,1,0,21,34,0,1,81,35,31,35,28,33,1,0
106,458,94,3,0,1,1,0,0,0,0.0,1005,0,0,0,1,21,0,1,30,0,3,30,0,1,1,0,21,33,0,1,79,31,30,31,28,30,1,0
107,591,13,4,0,1,0,1,0,0,0.0,1004,0,0,0,1,28,0,1,30,0,3,32,0,1,1,0,24,35,0,1,80,33,31,33,27,32,1,0
108,707,53,3,1,0,0,0,1,0,0.0,3006,0,0,0,1,20,0,1,20,0,3,20,0,0,0,0,13,15,0,1,64,21,20,21,18,20,1,0
109,345,43,5,0,0,0,0,0,0,0.0,2520,0,0,0,1,27,0,1,22,0,3,21,0,0,0,0,13,14,0,1,66,26,23,26,19,25,1,0
110,253,94,3,1,1,0,1,0,0,0.0,2003,0,0,0,1,16,0,1,14,0,1,9,0,0,0,0,3,3,0,1,49,15,15,15,15,15,1,0
111,174,58,3,1,1,0,0,0,0,0.0,2017,0,0,0,1,17,0,1,28,0,3,28,0,1,1,0,24,33,0,1,78,31,30,31,29,31,1,0
112,126,41,0,0,0,1,1,1,0,0.0,1504,0,0,0,1,21,0,1,30,0,3,29,0,1,1,0,21,33,0,1,79,31,28,31,28,30,1,0
113,800,6,1,1,1,1,0,1,0,0.0,2004,0,0,0,1,19,0,1,18,0,3,18,0,0,0,0,13,13,0,1,67,18,18,18,18,18,1,0
114,372,59,4,0,0,0,1,0,0,0.0,1519,0,0,0,1,24,0,1,25,0,3,27,0,0,0,0,21,34,0,1,81,30,26,30,25,30,1,0
115,843,72,1,0,0,0,1,0,0,0.0,8506,0,0,0,1,23,0,1,20,0,3,17,0,0,0,0,12,12,0,1,64,20,19,20,18,20,1,0
116,865,74,5,0,1,0,1,1,0,0.0,4505,0,0,0,1,18,0,1,15,0,2,12,0,0,0,0,10,10,0,1,59,18,18,18,18,18,1,0
117,316,70,1,0,0,1,1,1,0,0.0,5005,0,0,0,1,18,0,1,15,0,2,12,0,0,0,0,10,10,0,1,59,17,17,17,17,17,1,0
118,157,72,5,0,1,0,1,1,0,0.0,2004,0,0,0,1,18,0,1,18,0,3,17,0,0,0,0,12,12,0,1,63,19,19,19,19,19,1,0
119,139,37,5,1,0,0,1,1,0,0.0,2504,0,0,0,1,21,0,1,20,0,3,19,0,0,0,0,13,15,0,1,64,20,19,20,18,20,1,0
120,860,79,3,0,1,1,1,1,0,0.0,2005,0,0,0,1,18,0,1,18,0,3,18,0,0,0,0,13,13,0,1,67,20,20,20,19,21,1,0
121,515,74,2,1,1,0,0,0,0,0.0,10007,0,0,0,1,18,0,1,15,0,2,11,0,0,0,0,10,10,0,1,59,17,17,17,17,17,1,0
122,367,20,3,1,0,1,1,0,0,0.0,1505,0,0,0,1,24,0,1,29,0,3,30,0,0,0,0,21,34,0,1,81,32,28,32,28,33,1,0
123,76,31,3,0,0,0,1,1,0,0.0,2004,0,0,0,1,21,0,1,20,0,3,18,0,0,0,0,13,15,0,1,64,20,19,20,18,20,1,0
124,611,21,3,0,0,0,1,1,0,0.0,2004,0,0,0,1,21,0,1,20,0,3,22,0,0,0,0,13,14,0,1,67,20,19,20,18,20,1,0
125,907,11,4,1,0,0,0,0,0,0.0,2504,0,0,0,1,24,0,1,32,0,3,33,0,1,1,0,21,34,0,1,81,37,31,37,28,34,1,0
126,769,36,2,1,1,0,0,1,0,0.0,6505,0,0,0,1,18,0,1,15,0,2,12,0,0,0,0,11,11,0,1,59,19,19,19,19,19,1,0
127,290,29,1,1,0,0,0,0,0,0.0,2505,0,0,0,1,21,0,1,18,0,3,19,0,0,0,0,12,13,0,1,61,20,19,20,17,19,1,0
128,717,28,1,0,0,0,1,1,0,0.0,4005,0,0,0,1,21,0,1,18,0,3,18,0,0,0,0,12,13,0,1,61,19,18,19,17,19,1,0
129,354,45,4,1,0,0,1,0,0,0.0,1504,0,0,0,1,21,0,1,30,0,3,29,0,1,1,0,21,33,0,1,79,31,28,31,28,30,1,0
130,350,61,5,0,1,1,0,0,0,0.0,1004,0,0,0,1,24,0,1,30,0,3,35,0,1,1,0,24,35,0,1,80,33,31,33,27,32,1,0
131,193,0,3,0,1,0,1,1,0,0.0,1003,0,0,0,1,18,0,1,29,0,3,30,0,1,1,0,24,33,0,1,79,29,28,29,27,29,1,0
132,221,79,4,1,0,0,0,1,0,0.0,1004,0,0,0,1,21,0,1,30,0,3,29,0,1,1,0,21,33,0,1,79,31,28,31,28,30,1,0
133,471,34,4,0,1,0,0,0,0,0.0,1003,0,0,0,1,18,0,1,29,0,3,29,0,1,1,0,24,33,0,1,79,29,28,29,27,29,1,0
134,396,47,2,1,0,1,1,0,0,0.0,3005,0,0,0,1,21,0,1,19,0,3,17,0,0,0,0,12,14,0,1,62,20,19,20,18,20,1,0
135,590,84,0,0,1,0,1,1,0,0.0,1004,0,0,0,1,24,0,1,28,0,3,30,0,1,1,0,24,34,0,1,78,29,28,29,27,29,1,0
136,759,85,0,1,0,0,1,0,0,0.0,2505,0,0,0,1,21,0,1,30,0,3,28,0,1,1,0,21,33,0,1,79,31,28,31,28,30,1,0
137,22,72,0,0,1,0,1,0,0,0.0,1003,0,0,0,1,18,0,1,28,0,3,29,0,1,1,0,24,34,0,1,78,29,28,29,27,29,1,0
138,604,83,2,0,1,0,0,1,0,0.0,11007,0,0,0,1,18,0,1,15,0,2,12,0,0,0,0,10,10,0,1,59,17,17,17,17,17,1,0
139,822,76,2,0,1,1,0,1,0,0.0,13509,0,0,0,1,18,0,1,15,0,2,12,0,0,0,0,10,10,0,1,59,17,17,17,17,17,1,0
140,787,66,0,1,1,1,0,1,0,0.0,1004,0,0,0,1,18,0,1,21,0,3,22,0,0,0,0,24,33,0,1,78,25,24,25,27,29,1,0
141,310,69,1,1,0,1,0,0,0,0.0,1035,0,0,0,1,21,0,1,30,0,3,29,0,1,1,0,21,33,0,1,79,31,28,31,28,30,1,0
142,605,27,4,1,0,0,0,1,0,0.0,1007,0,0,0,1,26,0,1,32,0,3,32,0,1,1,0,21,34,0,1,81,37,31,37,28,34,1,0
143,725,67,5,0,0,0,0,1,0,0.0,5005,0,0,0,1,21,0,1,22,0,3,20,0,0,0,0,13,14,0,1,70,25,24,25,23,25,1,0
144,768,33,4,1,1,1,0,1,0,0.0,1004,0,0,0,1,18,0,1,28,0,3,29,0,1,1,0,24,34,0,1,78,29,28,29,27,29,1,0
145,600,40,5,0,1,0,1,1,0,0.0,2505,0,0,0,1,22,0,1,22,0,3,23,0,0,0,0,23,27,0,1,74,24,23,24,24,26,1,0
146,262,89,2,1,1,1,0,0,0,0.0,1022,0,0,0,1,21,0,1,30,0,3,29,0,1,1,0,21,33,0,1,79,31,28,31,28,30,1,0
147,210,18,1,1,1,1,0,1,0,0.0,2004,0,0,0,1,22,0,1,18,0,3,18,0,0,0,0,24,33,0,1,78,19,18,19,24,29,1,0
148,582,22,3,1,1,0,1,0,0,0.0,2004,0,0,0,1,17,0,1,28,0,3,29,0,1,1,0,24,33,0,1,78,29,28,29,27,29,1,0
149,91,91,2,1,1,0,0,1,0,0.0,2504,0,0,0,1,16,0,1,22,0,3,22,0,0,0,0,16,16,0,1,70,25,24,25,23,25,1,0
150,24,74,1,1,0,0,1,1,0,0.0,2004,0,0,0,1,21,0,1,18,0,3,19,0,0,0,0,12,13,0,1,61,19,18,19,17,19,1,0
151,511,34,3,0,1,0,1,0,0,0.0,2039,0,0,0,1,22,0,1,28,0,3,29,0,1,1,0,24,33,0,1,78,29,28,29,27,29,1,0
152,129,10,5,1,1,0,0,0,0,0.0,2004,0,0,0,1,21,0,1,24,0,3,25,0,0,0,0,23,27,0,1,74,26,25,26,24,26,1,0
153,586,50,3,0,0,1,0,1,0,0.0,2027,0,0,0,1,21,0,1,20,0,3,21,0,0,0,0,13,14,0,1,64,21,19,21,18,20,1,0
154,411,90,0,1,0,0,0,1,0,0.0,1005,0,0,0,1,21,0,1,30,0,3,29,0,1,1,0,21,33,0,1,79,31,28,31,28,30,1,0
155,891,81,3,0,0,0,1,1,0,0.0,3006,0,0,0,1,21,0,1,20,0,3,19,0,0,0,0,12,13,0,1,64,20,19,20,18,20,1,0
156,653,91,4,1,1,0,0,1,0,0.0,1003,0,0,0,1,18,0,1,28,0,3,28,0,1,1,0,24,34,0,1,78,29,28,29,27,29,1,0
157,208,95,2,0,0,0,0,1,0,0.0,7012,0,0,0,1,21,0,1,18,0,3,18,0,0,0,0,12,13,0,1,61,19,18,19,17,19,1,0
158,893,51,5,1,0,1,0,0,0,0.0,1504,0,0,0,1,27,0,1,34,0,3,34,0,1,1,0,21,35,0,1,83,35,31,35,28,34,1,0
159,165,64,2,0,0,1,1,1,0,0.0,4005,0,0,0,1,26,0,1,22,0,3,20,0,0,0,0,13,14,0,1,66,24,22,24,18,23,1,0
160,376,59,0,0,0,0,1,1,0,0.0,1005,0,0,0,1,21,0,1,30,0,3,29,0,1,1,0,21,33,0,1,79,31,28,31,28,30,1,0
161,694,85,5,0,1,1,0,1,0,0.0,5506,0,0,0,1,25,0,1,20,0,3,16,0,0,0,0,11,11,0,1,64,22,21,22,20,22,1,0
162,509,47,4,1,1,0,1,0,0,0.0,1003,0,0,0,1,18,0,1,22,0,3,26,0,0,0,0,24,33,0,1,79,26,25,26,25,29,1,0
163,674,13,3,1,1,0,0,0,0,0.0,1004,0,0,0,1,18,0,1,28,0,3,30,0,1,1,0,24,34,0,1,78,29,28,29,27,29,1,0
164,798,85,5,1,1,1,0,1,0,0.0,5504,0,0,0,1,18,0,1,15,0,2,12,0,0,0,0,10,10,0,1,59,17,17,17,17,17,1,0
165,194,2,3,1,1,1,1,0,0,0.0,1004,0,0,0,1,18,0,1,19,0,3,20,0,0,0,0,23,32,0,1,79,23,22,23,22,24,1,0
166,23,12,3,0,1,0,1,0,0,0.0,1003,0,0,0,1,18,0,1,29,0,3,29,0,1,1,0,24,33,0,1,79,29,28,29,27,29,1,0
167,38,92,5,0,1,0,1,0,0,0.0,12007,0,0,0,1,23,0,1,29,0,3,30,0,1,1,0,24,33,0,1,79,29,28,29,27,29,1,0
168,675,95,5,1,0,0,1,0,0,0.0,5005,0,0,0,1,21,0,1,20,0,3,19,0,0,0,0,12,13,0,1,64,21,20,21,20,21,1,0
169,382,85,3,1,0,1,1,1,0,0.0,2004,0,0,0,1,21,0,1,20,0,3,20,0,0,0,0,13,14,0,1,64,21,19,21,18,20,1,0
170,774,95,4,0,0,1,0,0,0,0.0,1504,0,0,0,1,21,0,1,30,0,3,28,0,1,1,0,21,33,0,1,79,31,28,31,28,30,1,0
171,271,90,0,0,0,1,0,1,0,0.0,2005,0,0,0,1,21,0,1,20,0,3,20,0,0,0,0,13,15,0,1,72,20,19,20,18,20,1,0
172,576,36,0,1,0,1,0,1,0,0.0,1004,0,0,0,1,21,0,1,30,0,3,28,0,1,1,0,21,33,0,1,79,31,28,31,28,30,1,0
173,948,41,4,0,0,0,0,1,0,0.0,1504,0,0,0,1,20,0,1,30,0,3,29,0,1,1,0,21,33,0,1,79,31,28,31,28,30,1,0
174,362,58,0,0,0,1,1,1,0,0.0,1004,0,0,0,1,21,0,1,30,0,3,28,0,1,1,0,21,33,0,1,79,31,28,31,28,30,1,0
175,754,75,0,1,1,1,0,0,0,0.0,1003,0,0,0,1,21,0,1,31,0,3,36,0,1,1,0,24,34,0,1,81,34,31,34,27,33,1,0
176,684,56,2,1,1,1,1,0,0,0.0,3504,0,0,0,1,17,0,1,13,0,1,9,0,0,0,0,2,2,0,1,47,15,15,15,15,15,1,0
177,973,31,3,0,1,1,0,0,0,0.0,1003,0,0,0,1,27,0,1,31,0,3,35,0,1,1,0,24,33,0,1,81,37,33,37,28,35,1,0
178,492,46,4,1,1,1,0,1,0,0.0,1004,0,0,0,1,20,0,1,16,0,1,15,0,0,0,0,3,4,0,1,51,19,18,19,15,18,1,0
179,174,77,1,0,1,0,1,1,0,0.0,3004,0,0,0,1,23,0,1,20,0,3,18,0,0,0,0,12,12,0,1,64,20,19,20,18,20,1,0
180,139,31,4,1,0,1,1,0,0,0.0,2504,0,0,0,1,24,0,1,30,0,3,32,0,0,0,0,21,34,0,1,81,34,30,34,28,33,1,0
181,160,45,4,1,1,0,1,1,0,0.0,504,0,0,0,1,18,0,1,28,0,3,29,0,1,1,0,24,34,0,1,78,29,28,29,27,29,1,0
182,955,8,1,1,0,0,0,1,0,0.0,2505,0,0,0,1,21,0,1,18,0,3,18,0,0,0,0,12,12,0,1,61,19,18,19,17,19,1,0
183,681,18,5,0,0,1,1,0,0,0.0,2004,0,0,0,1,21,0,1,20,0,3,18,0,0,0,0,12,14,0,1,63,20,19,20,18,20,1,0
184,452,82,0,0,0,0,1,0,0,0.0,1004,0,0,0,1,29,0,1,34,0,3,38,0,1,1,0,21,35,0,1,83,35,30,35,28,34,1,0
185,470,11,2,1,0,1,0,1,0,0.0,3005,0,0,0,1,21,0,1,20,0,3,19,0,0,0,0,12,13,0,1,64,21,19,21,18,20,1,0
186,774,39,5,1,0,0,0,1,0,0.0,3004,0,0,0,1,21,0,1,18,0,3,18,0,0,0,0,12,13,0,1,61,20,18,20,17,19,1,0
187,68,2,2,0,1,0,0,0,0,0.0,1004,0,0,0,1,25,0,1,27,0,3,29,0,1,1,0,20,28,0,1,78,30,29,30,27,29,1,0
188,984,34,1,0,1,1,0,1,0,0.0,5506,0,0,0,1,18,0,1,16,0,3,16,0,0,0,0,11,11,0,1,59,17,17,17,17,17,1,0
189,145,75,5,1,1,0,0,1,0,0.0,2507,0,0,0,1,19,0,1,22,0,3,22,0,0,0,0,16,16,0,1,70,23,22,23,21,23,1,0
190,341,57,3,1,1,0,1,0,0,0.0,2004,0,0,0,1,24,0,1,24,0,3,27,0,0,0,0,24,33,0,1,78,26,25,26,28,29,1,0
191,818,72,5,1,1,1,1,1,0,0.0,5005,0,0,0,1,20,0,1,18,0,3,17,0,0,0,0,13,13,0,1,62,19,19,19,19,19,1,0
192,323,69,1,0,0,0,0,0,0,0.0,4007,0,0,0,1,22,0,1,20,0,3,19,0,0,0,0,13,14,0,1,64,21,19,21,18,20,1,0
193,951,91,1,0,1,1,0,0,0,0.0,1008,0,0,0,1,21,0,1,30,0,3,29,0,1,1,0,21,33,0,1,79,31,28,31,28,30,1,0
194,472,30,2,1,1,1,0,1,0,0.0,4004,0,0,0,1,18,0,1,15,0,2,12,0,0,0,0,10,10,0,1,59,18,18,18,18,18,1,0
195,61,34,0,1,1,0,0,1,0,0.0,1003,0,0,0,1,27,0,1,29,0,3,32,0,1,1,0,24,33,0,1,79,29,28,29,27,29,1,0
196,418,47,4,0,0,0,1,0,0,0.0,2007,0,0,0,1,21,0,1,30,0,3,29,0,1,1,0,21,33,0,1,79,31,28,31,28,30,1,0
197,117,58,2,1,1,0,0,0,0,0.0,2504,0,0,0,1,19,0,1,22,0,3,21,0,0,0,0,16,16,0,1,70,24,23,24,22,24,1,0
198,812,95,3,0,0,1,0,0,0,0.0,1503,0,0,0,1,21,0,1,30,0,3,29,0,1,1,0,21,33,0,1,79,31,28,31,28,30,1,0
199,879,0,1,1,0,0,0,0,0,0.0,1005,0,0,0,1,21,0,1,30,0,3,29,0,1,1,0,21,33,0,1,79,31,28,31,28,30,1,0
200,750,66,1,0,1,1,0,1,0,0.0,7505,0,0,0,1,18,0,1,15,0,2,12,0,0,0,0,10,10,0,1,59,17,17,17,17,17,1,0
201,391,23,1,0,0,1,1,1,0,0.0,4004,0,0,0,1,21,0,1,18,0,3,19,0,0,0,0,12,13,0,1,61,20,19,20,17,19,1,0
202,175,90,1,0,0,0,0,1,0,0.0,4006,0,0,0,1,22,0,1,22,0,3,20,0,0,0,0,13,14,0,1,70,23,22,23,22,23,1,0
203,594,89,0,1,0,0,1,0,0,0.0,1505,0,0,0,1,21,0,1,30,0,3,28,0,1,1,0,21,33,0,1,79,31,28,31,28,30,1,0
204,336,23,4,0,1,1,1,1,0,0.0,1005,0,0,0,1,18,0,1,29,0,3,29,0,1,1,0,24,33,0,1,79,29,28,29,27,29,1,0
205,886,40,2,1,0,0,0,0,0,0.0,7527,0,0,0,1,19,0,1,16,0,3,15,0,0,0,0,11,11,0,1,59,18,18,18,18,18,1,0
206,244,40,5,1,1,1,1,1,0,0.0,2004,0,0,0,1,18,0,1,22,0,3,21,0,0,0,0,15,15,0,1,70,23,22,23,21,23,1,0
207,755,11,0,1,0,1,0,0,0,0.0,2505,0,0,0,1,21,0,1,30,0,3,28,0,1,1,0,21,33,0,1,79,32,28,32,28,30,1,0
208,770,11,4,1,1,0,1,1,0,0.0,1004,0,0,0,1,18,0,1,29,0,3,30,0,1,1,0,24,33,0,1,79,29,28,29,27,29,1,0
209,489,29,3,0,1,0,1,0,0,0.0,2004,0,0,0,1,17,0,1,15,0,2,12,0,0,0,0,17,17,0,1,71,17,17,17,21,23,1,0
210,376,52,5,1,0,0,0,1,0,0.0,2505,0,0,0,1,21,0,1,18,0,3,18,0,0,0,0,12,12,0,1,61,20,19,20,17,19,1,0
211,802,80,0,0,0,1,0,1,0,0.0,1004,0,0,0,1,21,0,1,30,0,3,29,0,1,1,0,21,33,0,1,79,31,28,31,28,30,1,0
212,601,0,2,1,0,0,1,1,0,0.0,2004,0,0,0,1,21,0,1,20,0,3,21,0,0,0,0,13,14,0,1,64,21,20,21,18,20,1,0
213,848,73,0,0,0,1,1,0,0,0.0,1504,0,0,0,1,21,0,1,20,0,3,20,0,0,0,0,19,25,0,1,76,21,19,21,22,24,1,0
214,25,77,1,1,0,0,1,1,0,0.0,2510,0,0,0,1,21,0,1,20,0,3,21,0,0,0,0,13,15,0,1,64,20,19,20,18,20,1,0
215,436,55,1,0,1,0,0,0,0,0.0,4005,0,0,0,1,22,0,1,18,0,3,16,0,0,0,0,11,11,0,1,61,20,19,20,17,19,1,0
216,582,80,3,1,0,1,1,1,0,0.0,2504,0,0,0,1,21,0,1,20,0,3,19,0,0,0,0,12,13,0,1,64,20,19,20,18,20,1,0
217,21,14,3,1,0,0,1,0,0,0.0,2504,0,0,0,1,20,0,1,20,0,3,21,0,0,0,0,20,32,0,1,77,20,19,20,18,20,1,0
218,612,55,0,1,0,0,1,1,0,0.0,2540,0,0,0,1,21,0,1,20,0,3,19,0,0,0,0,13,15,0,1,66,20,19,20,18,20,1,0
219,126,60,0,0,0,0,1,1,0,0.0,2505,0,0,0,1,20,0,1,18,0,3,17,0,0,0,0,12,14,0,1,64,19,18,19,17,19,1,0
220,747,64,3,0,1,0,1,1,0,0.0,2004,0,0,0,1,17,0,1,18,0,3,19,0,0,0,0,13,13,0,1,68,22,22,22,21,23,1,0
221,960,26,2,0,0,1,0,1,0,0.0,6505,0,0,0,1,21,0,1,18,0,3,19,0,0,0,0,12,13,0,1,61,20,19,20,18,19,1,0
222,72,19,5,0,1,1,1,1,0,0.0,2005,0,0,0,1,18,0,1,24,0,3,25,0,0,0,0,23,32,0,1,75,26,25,26,24,26,1,0
223,8,15,4,1,1,0,0,1,0,0.0,1004,0,0,0,1,18,0,1,18,0,2,16,0,0,0,0,13,13,0,1,76,18,18,18,18,18,1,0
224,181,98,3,0,0,1,0,1,0,0.0,2504,0,0,0,1,26,0,1,22,0,3,19,0,0,0,0,13,15,0,1,66,25,23,25,18,23,1,0
225,908,36,4,0,1,0,1,0,0,0.0,1004,0,0,0,1,18,0,1,29,0,3,29,0,1,1,0,24,33,0,1,79,29,28,29,27,29,1,0
226,822,83,0,0,0,0,0,0,0,0.0,1504,0,0,0,1,21,0,1,30,0,3,28,0,1,1,0,21,33,0,1,79,31,28,31,28,30,1,0
227,977,31,2,0,0,0,0,1,0,0.0,7505,0,0,0,1,18,0,1,15,0,2,11,0,0,0,0,10,10,0,1,59,18,18,18,18,18,1,0
228,188,48,4,0,0,0,0,1,0,0.0,2005,0,0,0,1,25,0,1,22,0,3,23,0,0,0,0,16,21,0,1,77,24,22,24,21,27,1,0
229,625,96,2,0,1,0,1,0,0,0.0,13044,0,0,0,1,19,0,1,16,0,3,16,0,0,0,0,11,11,0,1,59,19,19,19,19,19,1,0
230,716,94,0,1,1,1,1,1,0,0.0,1004,0,0,0,1,18,0,1,28,0,3,29,0,1,1,0,24,34,0,1,78,29,28,29,27,29,1,0
231,103,50,5,0,0,1,0,0,0,0.0,2005,0,0,0,1,23,0,1,32,0,3,33,0,1,1,0,21,34,0,1,81,34,30,34,28,33,1,0
232,480,57,5,0,0,0,0,1,0,0.0,4039,0,0,0,1,22,0,1,20,0,3,21,0,0,0,0,13,14,0,1,64,21,19,21,18,20,1,0
233,439,64,2,0,0,0,0,0,0,0.0,6506,0,0,0,1,19,0,1,16,0,3,15,0,0,0,0,11,11,0,1,59,18,18,18,18,18,1,0
234,651,73,2,0,1,0,0,0,0,0.0,10510,0,0,0,1,18,0,1,15,0,2,11,0,0,0,0,10,10,0,1,59,18,18,18,18,18,1,0
235,54,39,4,0,1,1,0,0,0,0.0,1005,0,0,0,1,18,0,1,29,0,3,29,0,1,1,0,24,33,0,1,79,29,28,29,27,29,1,0
236,633,81,5,1,0,0,1,0,0,0.0,5506,0,0,0,1,21,0,1,18,0,3,19,0,0,0,0,12,13,0,1,61,19,19,19,19,19,1,0
237,41,22,0,0,0,1,0,1,0,0.0,3006,0,0,0,1,21,0,1,20,0,3,20,0,0,0,0,16,20,0,1,76,20,19,20,18,20,1,0
238,899,31,3,1,0,1,0,1,0,0.0,2005,0,0,0,1,26,0,1,22,0,3,22,0,0,0,0,13,16,0,1,66,25,22,25,19,24,1,0
239,719,70,0,1,1,1,0,1,0,0.0,1004,0,0,0,1,18,0,1,29,0,3,30,0,1,1,0,24,33,0,1,79,29,28,29,27,29,1,0
240,586,83,0,1,1,0,1,1,0,0.0,503,0,0,0,1,18,0,1,29,0,3,31,0,1,1,0,24,33,0,1,79,29,28,29,27,29,1,0
241,860,27,2,0,1,0,1,0,0,0.0,6006,0,0,0,1,18,0,1,15,0,2,12,0,0,0,0,10,10,0,1,59,18,18,18,18,18,1,0
242,390,52,5,0,0,0,0,1,0,0.0,3005,0,0,0,1,21,0,1,18,0,3,19,0,0,0,0,12,13,0,1,61,20,19,20,18,20,1,0
243,389,65,0,0,0,0,1,0,0,0.0,1504,0,0,0,1,22,0,1,27,0,3,27,0,0,0,0,21,33,0,1,79,29,26,29,28,30,1,0
244,985,55,2,0,0,1,1,1,0,0.0,14547,0,0,0,1,18,0,1,15,0,2,11,0,0,0,0,10,10,0,1,59,17,17,17,17,17,1,0
245,208,52,1,1,1,1,0,1,0,0.0,2004,0,0,0,1,18,0,1,18,0,3,17,0,0,0,0,12,12,0,1,62,18,18,18,18,18,1,0
246,158,68,0,1,1,1,0,0,0,0.0,1003,0,0,0,1,18,0,1,29,0,3,28,0,1,1,0,24,32,0,1,79,29,28,29,27,29,1,0
247,171,56,2,0,0,0,0,0,0,0.0,3504,0,0,0,1,22,0,1,18,0,3,17,0,0,0,0,11,11,0,1,61,20,19,20,18,20,1,0
248,803,75,3,0,1,0,0,0,0,0.0,2004,0,0,0,1,19,0,1,18,0,3,18,0,0,0,0,12,12,0,1,67,19,19,19,19,19,1,0
249,137,34,2,1,0,1,0,1,0,0.0,3009,0,0,0,1,21,0,1,18,0,3,19,0,0,0,0,12,13,0,1,61,20,19,20,18,20,1,0
250,342,77,3,0,0,1,0,1,0,0.0,3004,0,0,0,1,20,0,1,20,0,3,19,0,0,0,0,13,15,0,1,64,22,20,22,18,21,1,0
251,283,45,3,1,0,0,0,0,0,0.0,2505,0,0,0,1,20,0,1,20,0,3,20,0,0,0,0,13,15,0,1,64,21,20,21,19,21,1,0
252,732,11,0,0,1,1,1,1,0,0.0,1009,0,0,0,1,33,0,1,27,0,3,28,0,1,1,0,20,28,0,1,78,29,28,29,27,29,1,0
253,654,0,4,0,0,0,0,0,0,0.0,1504,0,0,0,1,20,0,1,30,0,3,29,0,1,1,0,21,33,0,1,79,31,28,31,28,30,1,0
254,905,4,1,0,0,1,1,0,0,0.0,3015,0,0,0,1,21,0,1,20,0,3,20,0,0,0,0,13,15,0,1,64,20,19,20,18,20,1,0
255,908,74,4,1,0,1,0,0,0,0.0,1005,0,0,0,1,21,0,1,30,0,3,28,0,1,1,0,21,33,0,1,79,31,28,31,28,30,1,0
256,787,33,1,0,1,1,1,1,0,0.0,6005,0,0,0,1,18,0,1,15,0,2,12,0,0,0,0,10,10,0,1,59,17,17,17,17,17,1,0
257,658,93,2,0,0,1,0,1,0,0.0,13507,0,0,0,1,18,0,1,15,0,2,11,0,0,0,0,10,10,0,1,59,18,18,18,18,18,1,0
258,959,6,5,1,0,1,1,0,0,0.0,2504,0,0,0,1,21,0,1,20,0,3,20,0,0,0,0,13,15,0,1,64,20,19,20,18,20,1,0
259,189,56,1,1,0,1,0,0,0,0.0,2505,0,0,0,1,21,0,1,20,0,3,21,0,0,0,0,14,16,0,1,74,20,19,20,18,20,1,0
260,28,71,2,1,1,0,0,0,0,0.0,1007,0,0,0,1,22,0,1,16,0,1,16,0,0,0,0,3,4,0,1,51,20,18,20,15,19,1,0
261,257,33,1,1,1,0,0,1,0,0.0,2504,0,0,0,1,23,0,1,22,0,3,21,0,0,0,0,16,18,0,1,70,23,22,23,21,23,1,0
262,182,64,1,1,1,0,1,0,0,0.0,2504,0,0,0,1,18,0,1,15,0,2,12,0,0,0,0,10,10,0,1,59,18,18,18,18,18,1,0
263,99,58,3,0,0,0,1,1,0,0.0,2504,0,0,0,1,21,0,1,20,0,3,20,0,0,0,0,14,18,0,1,71,20,19,20,18,20,1,0
264,935,67,5,0,0,1,0,0,0,0.0,1004,0,0,0,1,21,0,1,30,0,3,28,0,1,1,0,21,33,0,1,79,32,29,32,28,30,1,0
265,78,73,0,1,1,0,1,0,0,0.0,1003,0,0,0,1,18,0,1,29,0,3,30,0,1,1,0,24,33,0,1,79,29,28,29,27,29,1,0
266,510,4,4,1,0,1,1,1,0,0.0,1507,0,0,0,1,21,0,1,30,0,3,29,0,1,1,0,21,33,0,1,79,31,28,31,28,30,1,0
267,974,97,3,1,0,1,0,0,0,0.0,1504,0,0,0,1,24,0,1,32,0,3,32,0,1,1,0,21,34,0,1,81,35,31,35,28,33,1,0
268,31,86,5,1,1,0,0,0,0,0.0,2004,0,0,0,1,22,0,1,18,0,3,17,0,0,0,0,11,11,0,1,61,19,18,19,17,19,1,0
269,597,89,0,0,1,1,0,0,0,0.0,1003,0,0,0,1,18,0,1,28,0,3,29,0,1,1,0,24,34,0,1,78,29,28,29,27,29,1,0
270,324,43,1,1,1,0,0,1,0,0.0,3505,0,0,0,1,17,0,1,15,0,2,12,0,0,0,0,10,10,0,1,59,17,17,17,17,17,1,0
271,496,22,4,1,0,1,0,1,0,0.0,1004,0,0,0,1,22,0,1,30,0,3,28,0,1,1,0,21,33,0,1,79,31,28,31,28,30,1,0
272,866,82,1,0,0,1,1,0,0,0.0,5505,0,0,0,1,21,0,1,19,0,3,18,0,0,0,0,12,14,0,1,62,20,19,20,18,20,1,0
273,946,29,4,0,1,0,0,0,0,0.0,1003,0,0,0,1,18,0,1,22,0,3,21,0,0,0,0,24,33,0,1,79,23,22,23,23,29,1,0
274,191,99,0,1,1,1,0,0,0,0.0,1005,0,0,0,1,22,0,1,27,0,3,29,0,1,1,0,24,34,0,1,78,29,28,29,27,29,1,0
275,561,44,3,1,0,1,1,0,0,0.0,3005,0,0,0,1,21,0,1,20,0,3,20,0,0,0,0,13,15,0,1,64,20,19,20,18,20,1,0
276,556,97,4,0,1,1,0,1,0,0.0,1004,0,0,0,1,24,0,1,29,0,3,32,0,1,1,0,24,33,0,1,79,29,28,29,27,29,1,0
277,239,88,3,0,0,0,0,0,0,0.0,2511,0,0,0,1,21,0,1,20,0,3,20,0,0,0,0,13,14,0,1,64,21,20,21,19,21,1,0
278,721,70,0,1,0,0,0,0,0,0.0,1004,0,0,0,1,21,0,1,30,0,3,29,0,1,1,0,21,33,0,1,79,31,28,31,28,30,1,0
279,997,86,1,0,1,0,0,1,0,0.0,12007,0,0,0,1,18,0,1,15,0,2,12,0,0,0,0,10,10,0,1,59,17,17,17,17,17,1,0
280,163,13,5,1,0,1,0,1,0,0.0,2508,0,0,0,1,21,0,1,20,0,3,21,0,0,0,0,13,15,0,1,64,20,19,20,18,20,1,0
281,611,34,3,1,1,1,0,1,0,0.0,2004,0,0,0,1,18,0,1,28,0,3,29,0,1,1,0,24,33,0,1,78,29,28,29,28,29,1,0
282,427,55,1,1,1,1,0,0,0,0.0,1004,0,0,0,1,16,0,1,14,0,1,12,0,0,0,0,3,4,0,1,49,15,15,15,15,15,1,0
283,575,17,4,0,0,1,0,1,0,0.0,2504,0,0,0,1,21,0,1,20,0,3,20,0,0,0,0,13,15,0,1,69,20,19,20,18,20,1,0
284,133,28,3,1,0,0,1,1,0,0.0,3013,0,0,0,1,26,0,1,22,0,3,24,0,0,0,0,13,16,0,1,67,22,20,22,18,22,1,0
285,461,35,3,0,1,1,0,0,0,0.0,1003,0,0,0,1,21,0,1,29,0,3,31,0,1,1,0,24,33,0,1,79,29,28,29,27,29,1,0
286,364,96,1,1,0,1,1,0,0,0.0,7507,0,0,0,1,58,0,1,49,0,6,69,0,1,11,0,35,63,0,1,96,76,66,76,44,54,1,0
287,319,83,2,0,1,1,0,1,0,0.0,6005,0,0,0,1,18,0,1,15,0,2,11,0,0,0,0,10,10,0,1,59,18,18,18,18,18,1,0
288,872,94,1,1,1,0,0,0,0,0.0,12514,0,0,0,1,17,0,1,15,0,2,12,0,0,0,0,9,9,0,1,58,15,15,15,15,15,1,0
289,554,7,3,0,0,0,1,0,0,0.0,1504,0,0,0,1,21,0,1,30,0,3,29,0,1,1,0,21,33,0,1,79,31,28,31,28,30,1,0
290,512,86,3,1,1,0,0,0,0,0.0,2008,0,0,0,1,18,0,1,18,0,3,17,0,0,0,0,23,32,0,1,75,18,18,18,18,26,1,0
291,441,90,4,0,0,0,0,1,0,0.0,1504,0,0,0,1,20,0,1,30,0,3,29,0,1,1,0,21,33,0,1,79,31,28,31,28,30,1,0
292,852,63,4,1,1,1,1,0,0,0.0,1003,0,0,0,1,18,0,1,28,0,3,29,0,1,1,0,24,34,0,1,78,29,28,29,27,29,1,0
293,683,59,2,0,1,0,1,1,0,0.0,9541,0,0,0,1,18,0,1,15,0,2,12,0,0,0,0,10,10,0,1,59,18,18,18,18,18,1,0
294,730,1,4,1,0,1,1,1,0,0.0,1509,0,0,0,1,21,0,1,20,0,3,20,0,0,0,0,13,15,0,1,77,20,19,20,18,20,1,0
295,367,75,2,1,0,0,1,1,0,0.0,8537,0,0,0,1,21,0,1,18,0,3,19,0,0,0,0,12,13,0,1,61,20,19,20,18,19,1,0
296,424,98,5,1,1,1,1,0,0,0.0,2004,0,0,0,1,22,0,1,20,0,3,20,0,0,0,0,14,14,0,1,71,20,19,20,18,20,1,0
297,320,62,3,1,1,1,0,1,0,0.0,2004,0,0,0,1,28,0,1,26,0,3,30,0,0,0,0,23,28,0,1,76,31,28,31,24,30,1,0
298,625,19,5,1,1,1,1,1,0,0.0,2004,0,0,0,1,19,0,1,18,0,3,18,0,0,0,0,13,13,0,1,62,19,19,19,19,19,1,0
299,813,27,5,0,0,1,1,1,0,0.0,3038,0,0,0,1,21,0,1,18,0,3,18,0,0,0,0,12,13,0,1,61,19,18,19,17,19,1,0
300,683,20,5,0,0,0,0,0,0,0.0,3005,0,0,0,1,20,0,1,18,0,3,18,0,0,0,0,12,14,0,1,61,21,20,21,19,21,1,0
301,881,56,4,0,0,0,0,1,0,0.0,1503,0,0,0,1,21,0,1,30,0,3,29,0,1,1,0,21,33,0,1,79,31,28,31,28,30,1,0
302,991,9,4,0,0,1,1,1,0,0.0,1003,0,0,0,1,21,0,1,30,0,3,28,0,1,1,0,21,33,0,1,79,31,28,31,28,30,1,0
303,961,73,3,0,1,0,1,1,0,0.0,2004,0,0,0,1,18,0,1,15,0,2,12,0,0,0,0,10,10,0,1,59,17,17,17,17,17,1,0
304,573,71,3,0,0,0,1,0,0,0.0,2504,0,0,0,1,21,0,1,18,0,3,19,0,0,0,0,12,13,0,1,61,20,19,20,17,19,1,0
305,717,84,5,0,0,1,1,0,0,0.0,2505,0,0,0,1,21,0,1,19,0,3,17,0,0,0,0,12,14,0,1,62,20,19,20,18,20,1,0
306,261,48,0,0,1,1,0,1,0,0.0,1028,0,0,0,1,18,0,1,29,0,3,30,0,1,1,0,24,33,0,1,79,29,28,29,27,29,1,0
307,759,42,1,1,1,1,0,0,0,0.0,1006,0,0,0,1,38,0,1,45,0,4,58,0,1,4,0,28,57,0,1,93,52,47,52,35,42,1,0
308,20,6,2,0,0,0,1,0,0,0.0,1504,0,0,0,1,22,0,1,27,0,3,27,0,0,0,0,21,33,0,1,79,28,25,28,28,30,1,0
309,554,3,4,1,1,0,1,1,0,0.0,1003,0,0,0,1,18,0,1,29,0,3,31,0,1,1,0,24,33,0,1,79,29,28,29,27,29,1,0
310,409,81,0,1,0,1,0,1,0,0.0,1004,0,0,0,1,21,0,1,30,0,3,29,0,1,1,0,21,33,0,1,79,31,28,31,28,30,1,0
311,540,83,2,0,1,0,0,1,0,0.0,10006,0,0,0,1,18,0,1,15,0,2,12,0,0,0,0,10,10,0,1,59,18,18,18,18,18,1,0
312,81,21,2,1,0,0,0,1,0,0.0,2516,0,0,0,1,20,0,1,20,0,3,20,0,0,0,0,13,15,0,1,64,20,19,20,18,20,1,0
313,801,82,4,0,0,0,0,0,0,0.0,1504,0,0,0,1,21,0,1,30,0,3,29,0,1,1,0,21,33,0,1,79,31,28,31,28,30,1,0
314,561,59,4,0,0,0,0,0,0,0.0,1004,0,0,0,1,24,0,1,32,0,3,32,0,1,1,0,21,34,0,1,81,35,31,35,28,33,1,0
315,811,62,0,0,0,0,0,1,0,0.0,2505,0,0,0,1,21,0,1,20,0,3,20,0,0,0,0,13,15,0,1,67,20,19,20,18,20,1,0
316,414,84,1,0,1,1,0,1,0,0.0,6005,0,0,0,1,22,0,1,18,0,3,17,0,0,0,0,11,11,0,1,61,19,18,19,17,19,1,0
317,3,41,4,0,0,1,0,1,0,0.0,1504,0,0,0,1,21,0,1,30,0,3,29,0,1,1,0,21,33,0,1,79,31,28,31,28,30,1,0
318,209,4,1,1,0,0,1,1,0,0.0,2013,0,0,0,1,22,0,1,20,0,3,18,0,0,0,0,12,13,0,1,64,20,19,20,19,20,1,0
319,820,60,3,0,0,0,1,1,0,0.0,3004,0,0,0,1,20,0,1,20,0,3,18,0,0,0,0,13,15,0,1,64,20,19,20,19,20,1,0
320,689,16,4,1,1,1,1,1,0,0.0,1011,0,0,0,1,25,0,1,30,0,3,33,0,1,1,0,24,35,0,1,80,31,29,31,27,31,1,0
321,285,1,2,1,0,1,0,0,0,0.0,2505,0,0,0,1,21,0,1,30,0,3,29,0,1,1,0,21,33,0,1,79,31,28,31,28,30,1,0
322,50,69,1,1,0,1,0,1,0,0.0,2505,0,0,0,1,22,0,1,20,0,3,20,0,0,0,0,13,14,0,1,64,21,20,21,19,21,1,0
323,857,73,0,1,0,0,1,0,0,0.0,1005,0,0,0,1,21,0,1,30,0,3,28,0,1,1,0,21,33,0,1,79,31,28,31,28,30,1,0
324,490,75,5,0,0,1,0,0,0,0.0,1503,0,0,0,1,21,0,1,20,0,3,20,0,0,0,0,21,33,0,1,79,20,19,20,19,23,1,0
325,542,100,3,0,1,0,0,1,0,0.0,2510,0,0,0,1,18,0,1,20,0,3,27,0,0,0,0,23,32,0,1,76,27,26,27,25,27,1,0
326,440,31,1,1,0,0,1,1,0,0.0,3004,0,0,0,1,27,0,1,22,0,3,22,0,0,0,0,13,14,0,1,66,25,22,25,18,24,1,0
327,443,8,5,0,1,1,0,1,0,0.0,2003,0,0,0,1,18,0,1,22,0,3,21,0,0,0,0,17,19,0,1,70,23,22,23,21,23,1,0
328,3,56,4,1,0,1,0,1,0,0.0,1504,0,0,0,1,21,0,1,30,0,3,29,0,1,1,0,21,33,0,1,79,32,28,32,28,30,1,0
329,276,61,5,0,0,0,1,0,0,0.0,2506,0,0,0,1,27,0,1,22,0,3,23,0,0,0,0,13,15,0,1,66,25,24,25,21,24,1,0
330,626,91,0,1,1,0,1,0,0,0.0,2006,0,0,0,1,15,0,1,12,0,1,9,0,0,0,0,2,2,0,1,49,14,14,14,14,15,1,0
331,246,11,1,0,1,1,1,1,0,0.0,2004,0,0,0,1,19,0,1,18,0,3,18,0,0,0,0,14,14,0,1,67,18,18,18,19,21,1,0
332,536,51,2,1,1,1,1,0,0,0.0,2504,0,0,0,1,16,0,1,14,0,1,10,0,0,0,0,9,9,0,1,59,14,14,14,14,14,1,0
333,324,79,3,1,0,0,1,1,0,0.0,2505,0,0,0,1,21,0,1,20,0,3,18,0,0,0,0,13,15,0,1,64,20,19,20,19,20,1,0
334,573,73,0,0,1,1,0,0,0,0.0,1004,0,0,0,1,24,0,1,27,0,3,28,0,1,1,0,24,34,0,1,78,29,28,29,27,29,1,0
335,31,16,3,1,1,1,1,0,0,0.0,1004,0,0,0,1,18,0,1,28,0,3,29,0,1,1,0,24,34,0,1,78,31,30,31,27,30,1,0
336,584,50,1,0,0,1,1,0,0,0.0,3505,0,0,0,1,21,0,1,19,0,3,18,0,0,0,0,12,14,0,1,62,20,19,20,18,20,1,0
337,215,50,0,1,1,1,0,1,0,0.0,1004,0,0,0,1,18,0,1,29,0,3,30,0,1,1,0,24,33,0,1,79,29,28,29,27,29,1,0
338,855,91,2,1,0,0,0,1,0,0.0,16508,0,0,0,1,18,0,1,15,0,2,11,0,0,0,0,10,10,0,1,59,18,18,18,18,18,1,0
339,96,48,1,0,0,0,1,1,0,0.0,2505,0,0,0,1,22,0,1,20,0,3,22,0,0,0,0,13,14,0,1,64,21,20,21,18,20,1,0
340,231,82,0,0,0,1,0,0,0,0.0,2527,0,0,0,1,21,0,1,21,0,3,22,0,0,0,0,20,32,0,1,77,26,24,26,22,28,1,0
341,169,80,0,0,0,0,1,1,0,0.0,2505,0,0,0,1,21,0,1,20,0,3,21,0,0,0,0,14,18,0,1,76,20,19,20,18,24,1,0
342,466,98,0,0,0,1,1,0,0,0.0,2004,0,0,0,1,21,0,1,20,0,3,20,0,0,0,0,13,15,0,1,71,20,19,20,18,20,1,0
343,39,31,5,1,0,1,0,1,0,0.0,2004,0,0,0,1,22,0,1,24,0,3,27,0,0,0,0,18,26,0,1,76,26,23,26,24,26,1,0
344,956,30,2,1,0,0,0,0,0,0.0,7512,0,0,0,1,18,0,1,15,0,2,11,0,0,0,0,10,10,0,1,59,18,18,18,18,18,1,0
345,298,95,5,0,1,0,0,1,0,0.0,2509,0,0,0,1,23,0,1,21,0,3,21,0,0,0,0,14,14,0,1,67,22,21,22,20,22,1,0
346,900,91,3,0,0,1,0,0,0,0.0,1004,0,0,0,1,20,0,1,27,0,3,27,0,0,0,0,21,33,0,1,79,31,28,31,28,30,1,0
347,202,21,0,0,0,0,0,0,0,0.0,1005,0,0,0,1,21,0,1,30,0,3,28,0,1,1,0,21,33,0,1,79,31,28,31,28,30,1,0
348,483,75,5,1,0,1,0,0,0,0.0,1504,0,0,0,1,21,0,1,30,0,3,29,0,1,1,0,21,33,0,1,79,31,28,31,28,30,1,0
349,585,58,2,0,1,0,1,1,0,0.0,8052,0,0,0,1,17,0,1,16,0,3,16,0,0,0,0,11,11,0,1,59,18,18,18,18,18,1,0
350,356,69,3,0,1,0,0,0,0,0.0,2004,0,0,0,1,17,0,1,15,0,2,12,0,0,0,0,12,12,0,1,62,15,15,15,17,18,1,0
351,152,58,3,1,1,0,0,1,0,0.0,2004,0,0,0,1,17,0,1,24,0,3,24,0,0,0,0,22,31,0,1,74,26,25,26,24,26,1,0
352,411,98,2,0,1,0,1,0,0,0.0,8506,0,0,0,1,18,0,1,16,0,3,15,0,0,0,0,11,11,0,1,59,18,18,18,18,18,1,0
353,627,37,3,0,1,1,0,0,0,0.0,1004,0,0,0,1,20,0,1,29,0,3,27,0,1,1,0,24,33,0,1,79,29,28,29,27,29,1,0
354,458,11,0,0,0,0,0,1,0,0.0,2504,0,0,0,1,20,0,1,20,0,3,20,0,0,0,0,14,18,0,1,74,20,19,20,18,23,1,0
355,302,5,4,0,1,1,1,0,0,0.0,1003,0,0,0,1,18,0,1,14,0,1,12,0,0,0,0,3,3,0,1,49,17,17,17,17,17,1,0
356,431,4,3,0,0,1,1,0,0,0.0,1004,0,0,0,1,22,0,1,30,0,3,28,0,1,1,0,21,33,0,1,79,31,28,31,28,30,1,0
357,728,6,3,1,1,0,1,0,0,0.0,1003,0,0,0,1,18,0,1,28,0,3,29,0,1,1,0,24,34,0,1,78,29,28,29,27,29,1,0
358,837,11,2,0,0,1,1,1,0,0.0,4005,0,0,0,1,21,0,1,18,0,3,18,0,0,0,0,12,13,0,1,61,19,18,19,17,19,1,0
359,590,70,1,1,0,1,1,1,0,0.0,8006,0,0,0,1,22,0,1,20,0,3,20,0,0,0,0,13,14,0,1,64,20,19,20,18,20,1,0
360,7,91,0,1,1,0,1,1,0,0.0,1003,0,0,0,1,25,0,1,27,0,3,27,0,1,1,0,24,34,0,1,78,29,28,29,27,29,1,0
361,846,47,1,0,1,1,0,1,0,0.0,6011,0,0,0,1,18,0,1,15,0,2,12,0,0,0,0,10,10,0,1,59,17,17,17,17,17,1,0
362,971,48,2,1,0,0,0,0,0,0.0,10007,0,0,0,1,17,0,1,15,0,2,11,0,0,0,0,10,10,0,1,58,16,16,16,16,16,1,0
363,233,96,4,0,0,1,1,1,0,0.0,1004,0,0,0,1,21,0,1,20,0,3,20,0,0,0,0,18,25,0,1,79,20,19,20,18,23,1,0
364,26,100,4,1,1,0,1,0,0,0.0,1004,0,0,0,1,21,0,1,29,0,3,31,0,1,1,0,24,33,0,1,79,29,28,29,27,29,1,0
365,863,93,3,0,1,1,0,0,0,0.0,1004,0,0,0,1,23,0,1,30,0,3,31,0,1,1,0,21,33,0,1,79,31,30,31,28,30,1,0
366,961,67,5,1,1,0,0,0,0,0.0,5523,0,0,0,1,18,0,1,15,0,2,12,0,0,0,0,10,10,0,1,59,17,17,17,17,17,1,0
367,107,97,4,1,1,0,1,0,0,0.0,1004,0,0,0,1,32,0,1,31,0,3,34,0,1,1,0,24,34,0,1,81,32,30,32,27,32,1,0
368,549,47,1,1,0,1,1,1,0,0.0,5505,0,0,0,1,22,0,1,18,0,3,16,0,0,0,0,11,11,0,1,61,19,18,19,17,19,1,0
369,262,75,4,0,1,0,1,0,0,0.0,1004,0,0,0,1,21,0,1,29,0,3,30,0,1,1,0,24,33,0,1,79,29,28,29,27,29,1,0
370,947,11,0,0,1,0,1,0,0,0.0,1004,0,0,0,1,24,0,1,29,0,3,31,0,1,1,0,24,33,0,1,79,29,28,29,27,29,1,0
371,133,2,5,1,0,1,1,1,0,0.0,2534,0,0,0,1,21,0,1,20,0,3,19,0,0,0,0,13,15,0,1,64,21,19,21,18,20,1,0
372,849,66,5,1,0,1,1,0,0,0.0,4505,0,0,0,1,21,0,1,19,0,3,18,0,0,0,0,12,14,0,1,62,20,19,20,18,20,1,0
373,382,29,2,0,1,0,1,1,0,0.0,4005,0,0,0,1,17,0,1,16,0,3,16,0,0,0,0,11,11,0,1,59,18,18,18,18,18,1,0
374,769,55,5,0,0,1,1,0,0,0.0,2504,0,0,0,1,21,0,1,20,0,3,19,0,0,0,0,13,15,0,1,64,20,19,20,18,20,1,0
375,458,38,1,1,1,0,0,0,0,0.0,3506,0,0,0,1,18,0,1,16,0,3,16,0,0,0,0,12,12,0,1,62,17,17,17,17,18,1,0
376,94,75,2,0,0,0,0,0,0,0.0,2504,0,0,0,1,22,0,1,20,0,3,19,0,0,0,0,12,13,0,1,64,21,20,21,19,21,1,0
377,121,68,5,0,0,0,0,0,0,0.0,2514,0,0,0,1,22,0,1,20,0,3,19,0,0,0,0,13,14,0,1,64,21,20,21,19,21,1,0
378,78,73,2,0,1,0,1,1,0,0.0,2504,0,0,0,1,21,0,1,21,0,3,20,0,0,0,0,13,13,0,1,67,21,20,21,19,21,1,0
379,495,35,3,0,0,1,0,1,0,0.0,2508,0,0,0,1,20,0,1,20,0,3,20,0,0,0,0,13,15,0,1,64,21,20,21,18,20,1,0
380,725,77,5,1,0,1,0,1,0,0.0,4538,0,0,0,1,17,0,1,15,0,2,11,0,0,0,0,10,10,0,1,58,17,17,17,17,17,1,0
381,344,65,0,1,1,1,0,0,0,0.0,1003,0,0,0,1,18,0,1,29,0,3,30,0,1,1,0,24,33,0,1,78,29,28,29,27,29,1,0
382,535,4,1,1,1,0,0,0,0,0.0,2004,0,0,0,1,17,0,1,15,0,2,12,0,0,0,0,10,10,0,1,59,15,15,15,15,17,1,0
383,507,25,5,0,1,0,1,1,0,0.0,2503,0,0,0,1,21,0,1,18,0,3,16,0,0,0,0,11,11,0,1,62,19,19,19,19,19,1,0
384,629,70,4,1,1,1,1,1,0,0.0,1004,0,0,0,1,18,0,1,29,0,3,30,0,1,1,0,24,33,0,1,79,29,28,29,27,29,1,0
385,84,42,0,0,0,1,1,0,0,0.0,1004,0,0,0,1,21,0,1,30,0,3,29,0,1,1,0,21,33,0,1,79,31,28,31,28,30,1,0
386,718,58,2,1,1,0,0,1,0,0.0,11038,0,0,0,1,18,0,1,15,0,2,12,0,0,0,0,10,10,0,1,59,17,17,17,17,17,1,0
387,346,35,0,0,1,1,1,1,0,0.0,1003,0,0,0,1,18,0,1,28,0,3,30,0,1,1,0,24,34,0,1,78,29,28,29,27,29,1,0
388,15,86,5,0,0,1,1,1,0,0.0,3005,0,0,0,1,21,0,1,20,0,3,20,0,0,0,0,14,18,0,1,76,21,20,21,19,22,1,0
389,462,72,5,0,0,0,0,0,0,0.0,4505,0,0,0,1,27,0,1,22,0,3,24,0,0,0,0,13,15,0,1,66,22,20,22,18,22,1,0
390,827,23,4,0,1,0,0,1,0,0.0,1003,0,0,0,1,18,0,1,28,0,3,30,0,1,1,0,24,34,0,1,78,29,28,29,27,29,1,0
391,408,25,2,0,1,0,1,1,0,0.0,3504,0,0,0,1,21,0,1,18,0,3,17,0,0,0,0,11,11,0,1,61,21,20,21,19,21,1,0
392,70,80,1,0,1,1,1,1,0,0.0,2504,0,0,0,1,20,0,1,22,0,3,21,0,0,0,0,16,16,0,1,70,23,22,23,21,23,1,0
393,875,5,1,1,0,0,0,1,0,0.0,2504,0,0,0,1,21,0,1,20,0,3,20,0,0,0,0,13,14,0,1,64,20,19,20,18,20,1,0
394,398,68,4,0,1,1,0,0,0,0.0,1004,0,0,0,1,18,0,1,29,0,3,30,0,1,1,0,24,33,0,1,79,29,28,29,27,29,1,0
395,209,43,3,1,1,1,1,1,0,0.0,2004,0,0,0,1,18,0,1,28,0,3,28,0,1,1,0,24,33,0,1,78,30,28,30,27,29,1,0
396,736,30,1,1,0,0,0,0,0,0.0,4005,0,0,0,1,18,0,1,16,0,3,15,0,0,0,0,11,11,0,1,59,17,17,17,17,17,1,0
397,650,30,0,0,0,1,1,1,0,0.0,2030,0,0,0,1,21,0,1,20,0,3,20,0,0,0,0,14,18,0,1,75,20,19,20,21,24,1,0
398,271,64,3,1,0,0,1,0,0,0.0,2005,0,0,0,1,20,0,1,20,0,3,20,0,0,0,0,13,15,0,1,64,20,19,20,18,20,1,0
399,956,37,2,1,1,0,0,1,0,0.0,8040,0,0,0,1,19,0,1,16,0,3,16,0,0,0,0,11,11,0,1,59,18,18,18,18,18,1,0
400,550,21,1,0,1,0,0,0,0,0.0,2503,0,0,0,1,18,0,1,18,0,3,17,0,0,0,0,12,12,0,1,62,19,19,19,19,19,1,0
401,299,6,4,0,0,1,1,0,0,0.0,1005,0,0,0,1,24,0,1,32,0,3,33,0,1,1,0,21,34,0,1,81,37,31,37,28,34,1,0
402,248,60,5,1,1,0,1,1,0,0.0,2020,0,0,0,1,27,0,1,22,0,3,21,0,0,0,0,16,18,0,1,70,25,24,25,22,24,1,0
403,269,20,0,0,0,0,1,0,0,0.0,1503,0,0,0,1,21,0,1,30,0,3,29,0,1,1,0,21,33,0,1,79,31,28,31,28,30,1,0
404,438,0,3,0,1,0,0,1,0,0.0,1004,0,0,0,1,21,0,1,23,0,3,31,0,0,0,0,24,33,0,1,79,29,28,29,27,29,1,0
405,369,0,0,1,1,0,0,0,0,0.0,1004,0,0,0,1,18,0,1,28,0,3,29,0,1,1,0,24,34,0,1,78,29,28,29,27,29,1,0
406,478,95,0,1,0,0,1,1,0,0.0,3005,0,0,0,1,20,0,1,18,0,3,17,0,0,0,0,12,13,0,1,61,19,18,19,17,19,1,0
407,240,67,5,1,1,1,1,1,0,0.0,2516,0,0,0,1,17,0,1,16,0,3,15,0,0,0,0,11,11,0,1,59,19,19,19,19,19,1,0
408,344,54,1,1,0,1,0,1,0,0.0,4505,0,0,0,1,21,0,1,18,0,3,19,0,0,0,0,12,13,0,1,61,20,18,20,17,19,1,0
409,967,100,2,0,1,0,1,1,0,0.0,21042,0,0,0,1,18,0,1,15,0,2,12,0,0,0,0,10,10,0,1,59,18,18,18,18,18,1,0
410,45,27,5,1,1,0,1,0,0,0.0,2004,0,0,0,1,22,0,1,28,0,3,29,0,1,1,0,24,33,0,1,78,31,30,31,29,31,1,0
411,572,70,2,1,0,0,0,0,0,0.0,10041,0,0,0,1,17,0,1,15,0,2,11,0,0,0,0,10,10,0,1,58,15,15,15,15,15,1,0
412,904,45,0,1,1,0,1,1,0,0.0,1004,0,0,0,1,18,0,1,23,0,3,26,0,0,0,0,23,32,0,1,78,26,25,26,24,26,1,0
413,868,10,2,0,0,0,0,0,0,0.0,3529,0,0,0,1,21,0,1,20,0,3,20,0,0,0,0,13,14,0,1,64,20,19,20,19,20,1,0
414,701,85,0,1,0,1,0,1,0,0.0,1005,0,0,0,1,20,0,1,27,0,3,27,0,0,0,0,20,32,0,1,79,28,25,28,27,29,1,0
415,77,18,2,1,0,0,1,1,0,0.0,3005,0,0,0,1,24,0,1,22,0,3,22,0,0,0,0,13,16,0,1,66,23,21,23,18,23,1,0
416,172,22,0,0,0,0,1,1,0,0.0,1005,0,0,0,1,24,0,1,32,0,3,32,0,1,1,0,21,34,0,1,81,35,31,35,28,33,1,0
417,990,98,3,1,1,1,0,0,0,0.0,1004,0,0,0,1,27,0,1,29,0,3,29,0,1,1,0,24,39,0,1,78,32,31,32,28,30,1,0
418,454,10,2,1,0,1,1,0,0,0.0,2505,0,0,0,1,21,0,1,20,0,3,20,0,0,0,0,13,15,0,1,64,20,19,20,18,20,1,0
419,340,12,2,0,0,1,1,0,0,0.0,3006,0,0,0,1,21,0,1,20,0,3,21,0,0,0,0,13,15,0,1,64,20,19,20,18,20,1,0
420,167,25,5,0,0,0,1,1,0,0.0,3005,0,0,0,1,20,0,1,20,0,3,20,0,0,0,0,13,15,0,1,64,20,19,20,18,20,1,0
421,788,69,3,1,0,0,0,0,0,0.0,8508,0,0,0,1,61,0,1,52,0,6,75,0,1,12,0,35,64,0,1,101,76,66,76,42,53,1,0
422,585,91,1,0,1,0,0,1,0,0.0,9007,0,0,0,1,18,0,1,15,0,2,12,0,0,0,0,10,10,0,1,59,17,17,17,17,17,1,0
423,579,63,2,1,1,1,1,0,0,0.0,2526,0,0,0,1,21,0,1,28,0,3,27,0,1,1,0,24,32,0,1,78,29,28,29,27,29,1,0
424,580,46,1,1,1,1,0,0,0,0.0,1004,0,0,0,1,26,0,1,24,0,3,22,0,0,0,0,24,38,0,1,78,28,26,28,28,30,1,0
425,830,17,2,1,1,1,1,1,0,0.0,5504,0,0,0,1,17,0,1,15,0,2,12,0,0,0,0,10,10,0,1,59,17,17,17,17,17,1,0
426,674,8,3,1,0,1,1,1,0,0.0,3005,0,0,0,1,21,0,1,20,0,3,19,0,0,0,0,13,15,0,1,66,20,19,20,18,20,1,0
427,674,81,3,0,0,1,1,1,0,0.0,3005,0,0,0,1,20,0,1,20,0,3,17,0,0,0,0,12,14,0,1,64,20,19,20,18,20,1,0
428,276,70,1,0,1,1,1,1,0,0.0,4505,0,0,0,1,17,0,1,15,0,2,12,0,0,0,0,10,10,0,1,58,16,16,16,16,16,1,0
429,279,75,2,0,0,1,1,1,0,0.0,8535,0,0,0,1,21,0,1,18,0,3,20,0,0,0,0,12,13,0,1,61,19,18,19,17,19,1,0
430,308,24,0,1,0,0,1,1,0,0.0,2004,0,0,0,1,21,0,1,20,0,3,20,0,0,0,0,13,15,0,1,75,20,19,20,18,21,1,0
431,15,53,2,0,0,0,0,1,0,0.0,3005,0,0,0,1,21,0,1,20,0,3,20,0,0,0,0,14,18,0,1,76,20,20,20,21,22,1,0
432,393,91,1,0,0,0,0,1,0,0.0,5505,0,0,0,1,17,0,1,15,0,2,11,0,0,0,0,10,10,0,1,58,15,15,15,15,15,1,0
433,417,28,1,1,1,1,1,0,0,0.0,2007,0,0,0,1,28,0,1,27,0,3,25,0,1,1,0,20,27,0,1,78,29,28,29,27,29,1,0
434,209,27,5,0,1,1,0,0,0,0.0,1008,0,0,0,1,18,0,1,29,0,3,29,0,1,1,0,24,33,0,1,79,29,28,29,27,29,1,0
435,407,81,2,0,0,1,1,0,0,0.0,4005,0,0,0,1,21,0,1,20,0,3,18,0,0,0,0,12,14,0,1,63,20,19,20,18,20,1,0
436,868,7,1,0,0,0,0,0,0,0.0,2507,0,0,0,1,21,0,1,20,0,3,19,0,0,0,0,12,13,0,1,64,20,19,20,18,20,1,0
437,154,40,0,0,1,0,1,1,0,0.0,1004,0,0,0,1,21,0,1,29,0,3,31,0,1,1,0,24,33,0,1,79,29,28,29,27,29,1,0
438,646,8,0,0,0,0,0,1,0,0.0,1504,0,0,0,1,21,0,1,30,0,3,28,0,1,1,0,21,33,0,1,79,31,28,31,28,30,1,0
439,623,91,4,1,1,0,0,0,0,0.0,1004,0,0,0,1,21,0,1,28,0,3,30,0,1,1,0,24,34,0,1,78,29,28,29,27,29,1,0
440,621,16,3,1,0,1,1,0,0,0.0,1006,0,0,0,1,21,0,1,30,0,3,28,0,1,1,0,21,33,0,1,79,31,28,31,28,30,1,0
441,248,55,4,0,1,0,1,1,0,0.0,1003,0,0,0,1,18,0,1,28,0,3,28,0,1,1,0,24,34,0,1,78,29,28,29,27,29,1,0
442,432,8,3,0,0,0,0,0,0,0.0,2509,0,0,0,1,24,0,1,22,0,3,23,0,0,0,0,14,17,0,1,77,22,20,22,18,23,1,0
443,727,43,2,1,0,1,0,0,0,0.0,2505,0,0,0,1,22,0,1,20,0,3,21,0,0,0,0,14,18,0,1,75,20,19,20,19,23,1,0
444,198,3,1,1,1,0,1,0,0,0.0,2004,0,0,0,1,18,0,1,26,0,3,27,0,0,0,0,24,33,0,1,78,26,25,26,24,28,1,0
445,124,84,4,1,0,0,1,0,0,0.0,1010,0,0,0,1,21,0,1,30,0,3,28,0,1,1,0,21,33,0,1,79,31,28,31,28,30,1,0
446,366,29,0,0,1,0,1,1,0,0.0,1023,0,0,0,1,18,0,1,29,0,3,30,0,1,1,0,24,33,0,1,79,29,28,29,27,29,1,0
447,226,90,1,1,0,1,0,1,0,0.0,5005,0,0,0,1,24,0,1,20,0,3,18,0,0,0,0,12,12,0,1,64,21,20,21,19,21,1,0
448,704,30,0,0,1,0,0,1,0,0.0,1003,0,0,0,1,18,0,1,28,0,3,29,0,1,1,0,24,34,0,1,78,29,28,29,27,29,1,0
449,765,18,4,1,1,1,0,1,0,0.0,1004,0,0,0,1,16,0,1,14,0,1,12,0,0,0,0,3,3,0,1,49,15,15,15,15,15,1,0
450,978,94,2,1,1,1,0,0,0,0.0,1004,0,0,0,1,53,0,1,46,0,4,63,0,1,7,0,28,58,0,1,97,57,52,57,37,45,1,0
451,300,45,2,0,1,1,1,1,0,0.0,4005,0,0,0,1,18,0,1,15,0,2,11,0,0,0,0,10,10,0,1,59,18,18,18,18,18,1,0
452,660,51,0,0,1,1,0,0,0,0.0,1004,0,0,0,1,27,0,1,29,0,3,29,0,1,1,0,24,33,0,1,79,29,28,29,27,29,1,0
453,827,98,1,0,1,1,1,1,0,0.0,12007,0,0,0,1,18,0,1,15,0,2,12,0,0,0,0,10,10,0,1,59,17,17,17,17,17,1,0
454,950,85,2,0,0,0,1,0,0,0.0,16508,0,0,0,1,18,0,1,15,0,2,11,0,0,0,0,10,10,0,1,59,18,18,18,18,18,1,0
455,319,39,4,1,1,0,1,1,0,0.0,1005,0,0,0,1,18,0,1,28,0,3,28,0,1,1,0,24,34,0,1,78,29,28,29,27,29,1,0
456,392,75,5,0,0,1,1,1,0,0.0,4005,0,0,0,1,21,0,1,18,0,3,19,0,0,0,0,12,13,0,1,61,20,19,20,18,20,1,0
457,936,14,4,1,0,0,1,0,0,0.0,1506,0,0,0,1,21,0,1,30,0,3,28,0,1,1,0,21,33,0,1,79,31,28,31,28,30,1,0
458,242,97,5,0,0,1,0,0,0,0.0,2032,0,0,0,1,23,0,1,32,0,3,32,0,1,1,0,21,34,0,1,81,34,30,34,28,33,1,0
459,67,7,5,1,1,0,1,0,0,0.0,1004,0,0,0,1,31,0,1,27,0,3,28,0,1,1,0,24,34,0,1,78,29,28,29,27,29,1,0
460,349,66,3,0,1,1,0,0,0,0.0,1004,0,0,0,1,57,0,1,51,0,4,74,0,1,8,0,31,64,0,1,101,72,66,72,43,54,1,0
461,88,78,4,1,1,1,1,1,0,0.0,1003,0,0,0,1,18,0,1,29,0,3,30,0,1,1,0,24,33,0,1,79,29,29,29,29,29,1,0
462,583,51,4,1,1,0,1,1,0,0.0,1004,0,0,0,1,18,0,1,27,0,3,28,0,0,0,0,24,32,0,1,79,29,28,29,27,29,1,0
463,289,17,4,0,0,1,0,1,0,0.0,2504,0,0,0,1,21,0,1,20,0,3,21,0,0,0,0,13,15,0,1,72,20,19,20,18,20,1,0
464,716,34,5,1,0,0,1,1,0,0.0,3004,0,0,0,1,21,0,1,18,0,3,19,0,0,0,0,12,13,0,1,61,19,18,19,17,19,1,0
465,947,18,4,1,0,0,0,1,0,0.0,1505,0,0,0,1,21,0,1,30,0,3,29,0,1,1,0,21,33,0,1,79,31,28,31,28,30,1,0
466,937,33,2,1,1,1,0,1,0,0.0,7505,0,0,0,1,18,0,1,15,0,2,12,0,0,0,0,10,10,0,1,59,18,18,18,18,18,1,0
467,194,97,4,1,0,1,0,0,0,0.0,1003,0,0,0,1,21,0,1,30,0,3,28,0,1,1,0,21,33,0,1,79,31,28,31,28,30,1,0
468,354,93,2,0,0,1,0,1,0,0.0,8505,0,0,0,1,24,0,1,20,0,3,19,0,0,0,0,12,12,0,1,64,21,20,21,19,21,1,0
469,145,97,4,1,0,1,0,1,0,0.0,6534,0,0,0,1,61,0,1,50,0,6,78,0,1,12,0,38,69,0,1,101,87,76,87,43,56,1,0
470,740,78,5,1,0,0,1,0,0,0.0,4526,0,0,0,1,21,0,1,18,0,3,19,0,0,0,0,12,13,0,1,61,19,18,19,17,19,1,0
471,286,99,0,0,0,1,1,0,0,0.0,1504,0,0,0,1,21,0,1,30,0,3,29,0,1,1,0,21,33,0,1,79,31,29,31,30,30,1,0
472,58,82,2,0,0,1,0,0,0,0.0,1005,0,0,0,1,22,0,1,30,0,3,28,0,1,1,0,21,33,0,1,79,31,28,31,28,30,1,0
473,309,3,5,1,1,1,0,0,0,0.0,1007,0,0,0,1,19,0,1,29,0,3,29,0,1,1,0,24,33,0,1,79,29,28,29,27,29,1,0
474,744,43,0,1,0,1,0,0,0,0.0,2504,0,0,0,1,21,0,1,23,0,3,23,0,0,0,0,20,32,0,1,76,25,23,25,23,26,1,0
475,365,75,2,1,0,1,1,1,0,0.0,8006,0,0,0,1,21,0,1,18,0,3,18,0,0,0,0,12,13,0,1,61,21,19,21,18,20,1,0
476,357,7,1,1,0,1,0,0,0,0.0,2008,0,0,0,1,20,0,1,20,0,3,20,0,0,0,0,14,18,0,1,76,20,19,20,19,21,1,0
477,510,80,3,0,1,0,0,0,0,0.0,2003,0,0,0,1,18,0,1,15,0,2,12,0,0,0,0,10,10,0,1,59,17,17,17,17,17,1,0
478,401,36,2,1,1,0,1,1,0,0.0,4504,0,0,0,1,18,0,1,18,0,3,17,0,0,0,0,12,12,0,1,62,19,19,19,19,19,1,0
479,872,43,1,0,1,1,1,0,0,0.0,3504,0,0,0,1,21,0,1,19,0,3,18,0,0,0,0,12,14,0,1,62,20,19,20,18,20,1,0
480,195,21,1,0,0,1,0,1,0,0.0,3005,0,0,0,1,20,0,1,20,0,3,17,0,0,0,0,12,14,0,1,64,21,20,21,19,21,1,0
481,4,16,3,0,1,1,0,0,0,0.0,1026,0,0,0,1,18,0,1,29,0,3,31,0,1,1,0,24,33,0,1,79,29,28,29,27,29,1,0
482,466,62,5,1,1,0,1,1,0,0.0,3504,0,0,0,1,22,0,1,24,0,3,24,0,0,0,0,22,26,0,1,74,27,26,27,26,27,1,0
483,447,17,2,0,0,0,0,1,0,0.0,2504,0,0,0,1,21,0,1,18,0,3,19,0,0,0,0,12,13,0,1,61,21,20,21,19,21,1,0
484,987,64,3,0,1,1,0,0,0,0.0,1004,0,0,0,1,29,0,1,24,0,3,25,0,0,0,0,21,34,0,1,81,26,24,26,22,30,1,0
485,9,31,1,1,1,1,1,0,0,0.0,1006,0,0,0,1,21,0,1,29,0,3,30,0,1,1,0,23,32,0,1,79,29,28,29,27,29,1,0
486,455,46,2,0,1,0,0,0,0,0.0,5505,0,0,0,1,18,0,1,15,0,2,11,0,0,0,0,10,10,0,1,59,19,19,19,19,19,1,0
487,730,45,1,1,1,0,1,0,0,0.0,5005,0,0,0,1,18,0,1,15,0,2,12,0,0,0,0,10,10,0,1,59,17,17,17,17,17,1,0
488,264,85,4,0,0,1,1,0,0,0.0,1003,0,0,0,1,18,0,1,29,0,3,29,0,1,1,0,24,32,0,1,79,29,28,29,27,29,1,0
489,785,55,1,0,1,1,0,0,0,0.0,2004,0,0,0,1,24,0,1,22,0,3,22,0,0,0,0,13,14,0,1,66,22,20,22,18,22,1,0
490,932,21,0,0,1,1,1,0,0,0.0,1004,0,0,0,1,32,0,1,31,0,3,34,0,1,1,0,24,34,0,1,80,34,31,34,27,33,1,0
491,633,100,1,0,1,1,1,1,0,0.0,10041,0,0,0,1,22,0,1,18,0,3,17,0,0,0,0,12,12,0,1,61,19,19,19,19,19,1,0
492,655,25,3,1,0,0,0,1,0,0.0,2010,0,0,0,1,20,0,1,20,0,3,22,0,0,0,0,18,25,0,1,76,23,22,23,22,24,1,0
493,664,9,0,0,0,1,1,0,0,0.0,2555,0,0,0,1,24,0,1,22,0,3,24,0,0,0,0,13,16,0,1,77,22,20,22,18,22,1,0
494,783,54,0,0,0,0,0,1,0,0.0,1505,0,0,0,1,21,0,1,30,0,3,29,0,1,1,0,21,33,0,1,79,31,28,31,28,30,1,0
495,950,13,2,1,1,1,0,1,0,0.0,4005,0,0,0,1,18,0,1,15,0,2,12,0,0,0,0,10,10,0,1,59,18,18,18,18,18,1,0
496,19,5,2,1,1,0,0,0,0,0.0,1003,0,0,0,1,24,0,1,28,0,3,29,0,1,1,0,24,34,0,1,78,29,28,29,27,29,1,0
497,398,25,2,0,0,1,0,1,0,0.0,4508,0,0,0,1,21,0,1,18,0,3,18,0,0,0,0,12,13,0,1,61,21,20,21,19,21,1,0
498,492,13,2,0,1,1,0,1,0,0.0,2527,0,0,0,1,18,0,1,16,0,3,16,0,0,0,0,11,11,0,1,62,18,18,18,18,18,1,0
499,547,49,2,0,1,0,0,1,0,0.0,6524,0,0,0,1,17,0,1,15,0,2,12,0,0,0,0,10,10,0,1,58,17,17,17,17,17,1,0
500,451,33,4,0,0,0,0,0,0,0.0,1005,0,0,0,1,21,0,1,30,0,3,28,0,1,1,0,21,33,0,1,79,31,28,31,28,30,1,0
501,862,10,4,1,1,1,0,0,0,0.0,1004,0,0,0,1,21,0,1,29,0,3,30,0,1,1,0,24,33,0,1,79,29,28,29,27,29,1,0
502,362,7,1,1,1,1,1,1,0,0.0,2005,0,0,0,1,18,0,1,21,0,3,21,0,0,0,0,15,15,0,1,70,23,22,23,21,23,1,0
503,617,57,4,0,0,1,1,1,0,0.0,1504,0,0,0,1,21,0,1,30,0,3,28,0,1,1,0,21,33,0,1,79,31,28,31,28,30,1,0
504,248,80,5,1,1,1,1,0,0,0.0,2540,0,0,0,1,26,0,1,27,0,2,28,0,0,0,0,22,30,0,1,80,30,28,30,26,34,1,0
505,459,65,4,1,0,0,0,1,0,0.0,1004,0,0,0,1,20,0,1,30,0,3,28,0,1,1,0,21,33,0,1,79,31,28,31,28,30,1,0
506,430,59,4,0,1,0,0,1,0,0.0,1004,0,0,0,1,23,0,1,29,0,3,30,0,1,1,0,24,33,0,1,78,29,28,29,27,29,1,0
507,328,40,1,1,1,0,0,0,0,0.0,3005,0,0,0,1,18,0,1,21,0,3,20,0,0,0,0,14,14,0,1,67,20,19,20,18,20,1,0
508,296,57,4,0,1,0,0,0,0,0.0,1004,0,0,0,1,18,0,1,29,0,3,30,0,1,1,0,24,33,0,1,79,29,28,29,27,29,1,0
509,341,57,5,0,0,0,0,1,0,0.0,2504,0,0,0,1,22,0,1,20,0,3,22,0,0,0,0,13,14,0,1,64,20,19,20,18,20,1,0
510,830,76,0,0,1,1,0,0,0,0.0,1004,0,0,0,1,32,0,1,30,0,3,31,0,1,1,0,20,28,0,1,81,34,31,34,27,33,1,0
511,810,73,2,1,1,1,1,1,0,0.0,16008,0,0,0,1,18,0,1,15,0,2,12,0,0,0,0,10,10,0,1,59,18,18,18,18,18,1,0
512,970,76,2,0,0,1,1,1,0,0.0,18509,0,0,0,1,18,0,1,15,0,2,11,0,0,0,0,10,10,0,1,59,18,18,18,18,18,1,0
513,633,84,2,1,0,0,0,0,0,0.0,13534,0,0,0,1,24,0,1,20,0,3,20,0,0,0,0,13,14,0,1,67,23,22,23,21,23,1,0
514,202,57,0,1,0,1,1,1,0,0.0,1004,0,0,0,1,21,0,1,30,0,3,29,0,1,1,0,21,33,0,1,79,31,28,31,28,30,1,0
515,514,10,0,1,1,0,1,1,0,0.0,1003,0,0,0,1,18,0,1,28,0,3,29,0,1,1,0,24,34,0,1,78,29,28,29,27,29,1,0
516,0,24,2,1,1,1,1,0,0,0.0,1003,0,0,0,1,21,0,1,29,0,3,30,0,1,1,0,24,33,0,1,79,29,28,29,27,29,1,0
517,142,71,4,1,0,1,1,0,0,0.0,1504,0,0,0,1,21,0,1,30,0,3,29,0,1,1,0,21,33,0,1,79,31,28,31,29,30,1,0
518,783,25,4,0,1,1,1,1,0,0.0,1003,0,0,0,1,25,0,1,28,0,3,30,0,1,1,0,24,34,0,1,78,29,28,29,27,29,1,0
519,519,94,1,0,1,0,1,0,0,0.0,6505,0,0,0,1,25,0,1,20,0,3,18,0,0,0,0,12,12,0,1,64,24,22,24,19,23,1,0
520,602,15,2,1,1,0,1,0,0,0.0,3004,0,0,0,1,18,0,1,16,0,3,16,0,0,0,0,11,11,0,1,59,17,17,17,17,17,1,0
521,844,78,3,0,0,0,1,0,0,0.0,2504,0,0,0,1,21,0,1,20,0,3,18,0,0,0,0,12,13,0,1,64,20,19,20,18,20,1,0
522,632,60,1,1,1,1,1,0,0,0.0,3504,0,0,0,1,18,0,1,27,0,3,24,0,1,1,0,23,31,0,1,76,29,28,29,27,29,1,0
523,868,78,2,1,0,0,1,0,0,0.0,14557,0,0,0,1,17,0,1,15,0,2,11,0,0,0,0,10,10,0,1,58,16,16,16,16,16,1,0
524,486,82,2,0,0,1,1,0,0,0.0,3536,0,0,0,1,21,0,1,20,0,3,18,0,0,0,0,12,14,0,1,63,20,19,20,18,20,1,0
525,526,24,4,1,0,0,1,1,0,0.0,1004,0,0,0,1,21,0,1,27,0,3,27,0,0,0,0,21,33,0,1,79,28,25,28,25,29,1,0
526,805,20,0,0,0,0,0,0,0,0.0,1004,0,0,0,1,24,0,1,29,0,3,30,0,1,1,0,21,34,0,1,81,35,31,35,28,33,1,0
527,981,69,0,0,0,1,0,0,0,0.0,1005,0,0,0,1,21,0,1,30,0,3,28,0,1,1,0,21,33,0,1,79,31,28,31,28,30,1,0
528,146,35,5,1,0,0,1,1,0,0.0,2540,0,0,0,1,21,0,1,20,0,3,20,0,0,0,0,13,15,0,1,64,20,19,20,18,20,1,0
529,816,83,0,1,0,0,0,0,0,0.0,2505,0,0,0,1,22,0,1,30,0,3,28,0,1,1,0,21,33,0,1,79,31,28,31,28,30,1,0
530,443,100,3,0,1,0,0,0,0,0.0,2006,0,0,0,1,18,0,1,18,0,3,17,0,0,0,0,12,12,0,1,62,18,18,18,18,18,1,0
531,963,19,2,1,1,1,0,0,0,0.0,1004,0,0,0,1,14,0,1,11,0,1,12,0,0,0,0,2,2,0,1,46,14,14,14,14,14,1,0
532,630,86,2,0,1,0,0,1,0,0.0,12007,0,0,0,1,18,0,1,15,0,2,11,0,0,0,0,10,10,0,1,59,18,18,18,18,18,1,0
533,554,2,1,0,0,0,1,0,0,0.0,3005,0,0,0,1,20,0,1,20,0,3,20,0,0,0,0,13,15,0,1,64,20,19,20,18,20,1,0
534,183,3,2,0,0,0,0,0,0,0.0,2505,0,0,0,1,20,0,1,20,0,3,20,0,0,0,0,13,15,0,1,64,21,19,21,18,20,1,0
535,833,88,4,0,0,0,1,1,0,0.0,1504,0,0,0,1,21,0,1,30,0,3,29,0,1,1,0,21,33,0,1,79,31,28,31,28,30,1,0
536,409,80,5,0,1,1,1,0,0,0.0,2004,0,0,0,1,18,0,1,28,0,3,25,0,1,1,0,23,31,0,1,77,29,28,29,27,29,1,0
537,525,66,4,1,1,0,0,0,0,0.0,1005,0,0,0,1,22,0,1,16,0,1,15,0,0,0,0,3,4,0,1,51,19,18,19,17,19,1,0
538,208,59,1,0,0,1,1,0,0,0.0,3004,0,0,0,1,21,0,1,20,0,3,19,0,0,0,0,13,15,0,1,64,20,19,20,18,20,1,0
539,18,35,1,0,0,0,0,1,0,0.0,2538,0,0,0,1,21,0,1,20,0,3,17,0,0,0,0,12,14,0,1,64,20,19,20,18,20,1,0
540,67,37,0,0,0,1,0,1,0,0.0,2003,0,0,0,1,21,0,1,20,0,3,20,0,0,0,0,18,25,0,1,76,20,19,20,20,24,1,0
541,411,59,1,1,0,0,0,1,0,0.0,4005,0,0,0,1,21,0,1,18,0,3,19,0,0,0,0,12,13,0,1,61,19,18,19,18,19,1,0
542,290,20,4,0,1,1,1,1,0,0.0,503,0,0,0,1,18,0,1,22,0,3,24,0,0,0,0,24,33,0,1,79,24,23,24,24,29,1,0
543,766,6,4,1,0,1,0,1,0,0.0,1505,0,0,0,1,21,0,1,30,0,3,28,0,1,1,0,21,33,0,1,79,31,28,31,28,30,1,0
544,259,30,2,0,0,1,0,0,0,0.0,1004,0,0,0,1,25,0,1,32,0,3,32,0,1,1,0,21,34,0,1,81,34,29,34,28,32,1,0
545,848,71,2,0,0,0,0,1,0,0.0,13007,0,0,0,1,19,0,1,16,0,3,15,0,0,0,0,11,11,0,1,59,17,17,17,17,17,1,0
546,160,13,2,0,0,1,0,0,0,0.0,1004,0,0,0,1,21,0,1,30,0,3,28,0,1,1,0,21,33,0,1,79,31,28,31,28,30,1,0
547,951,99,5,1,0,1,1,0,0,0.0,2504,0,0,0,1,21,0,1,20,0,3,21,0,0,0,0,13,15,0,1,64,20,19,20,18,20,1,0
548,957,75,5,1,1,0,0,0,0,0.0,6040,0,0,0,1,22,0,1,18,0,3,17,0,0,0,0,11,11,0,1,61,20,19,20,18,20,1,0
549,212,99,0,1,1,0,1,1,0,0.0,1003,0,0,0,1,18,0,1,29,0,3,30,0,1,1,0,24,33,0,1,79,29,28,29,27,29,1,0
550,719,75,2,1,1,1,0,1,0,0.0,11506,0,0,0,1,18,0,1,15,0,2,12,0,0,0,0,10,10,0,1,59,17,17,17,17,17,1,0
551,390,24,0,1,0,0,1,0,0,0.0,1004,0,0,0,1,21,0,1,30,0,3,29,0,1,1,0,21,33,0,1,79,31,28,31,28,30,1,0
552,334,63,3,1,1,1,1,1,0,0.0,2004,0,0,0,1,18,0,1,22,0,3,23,0,0,0,0,23,32,0,1,78,24,23,24,24,26,1,0
553,704,25,5,1,1,0,1,1,0,0.0,2003,0,0,0,1,18,0,1,16,0,3,16,0,0,0,0,11,11,0,1,59,18,18,18,18,18,1,0
554,343,79,0,0,0,0,0,0,0,0.0,1003,0,0,0,1,21,0,1,30,0,3,29,0,1,1,0,21,33,0,1,79,31,28,31,28,30,1,0
555,251,14,3,1,0,1,1,1,0,0.0,2504,0,0,0,1,21,0,1,30,0,3,28,0,1,1,0,21,33,0,1,79,31,28,31,28,30,1,0
556,789,28,2,0,1,1,0,0,0,0.0,1003,0,0,0,1,25,0,1,32,0,3,33,0,1,1,0,21,30,0,1,81,37,33,37,29,34,1,0
557,502,41,2,1,0,0,1,1,0,0.0,6005,0,0,0,1,21,0,1,18,0,3,20,0,0,0,0,12,13,0,1,61,19,18,19,18,19,1,0
558,733,49,1,0,1,1,0,1,0,0.0,5522,0,0,0,1,22,0,1,18,0,3,17,0,0,0,0,11,11,0,1,61,20,19,20,17,19,1,0
559,621,1,4,0,0,1,1,0,0,0.0,1504,0,0,0,1,23,0,1,32,0,3,32,0,1,1,0,21,34,0,1,81,35,30,35,28,33,1,0
560,27,57,2,0,1,0,1,1,0,0.0,2004,0,0,0,1,17,0,1,24,0,3,26,0,0,0,0,23,27,0,1,74,26,25,26,24,26,1,0
561,221,75,5,1,0,0,0,1,0,0.0,3021,0,0,0,1,21,0,1,20,0,3,23,0,0,0,0,13,14,0,1,64,20,20,20,20,20,1,0
562,411,2,0,1,0,1,0,1,0,0.0,1004,0,0,0,1,21,0,1,30,0,3,29,0,1,1,0,21,33,0,1,79,33,30,33,28,30,1,0
563,76,30,3,1,1,1,0,0,0,0.0,1004,0,0,0,1,18,0,1,28,0,3,30,0,1,1,0,24,34,0,1,78,29,28,29,27,29,1,0
564,286,39,3,1,1,0,1,1,0,0.0,2005,0,0,0,1,22,0,1,28,0,3,30,0,1,1,0,24,33,0,1,78,29,28,29,27,29,1,0
565,176,13,2,0,0,0,0,0,0,0.0,2004,0,0,0,1,18,0,1,18,0,3,18,0,0,0,0,13,13,0,1,62,20,20,20,20,20,1,0
566,490,87,3,0,0,1,1,1,0,0.0,2510,0,0,0,1,21,0,1,20,0,3,19,0,0,0,0,12,13,0,1,64,20,19,20,19,20,1,0
567,636,51,3,1,0,0,0,1,0,0.0,2508,0,0,0,1,20,0,1,18,0,3,17,0,0,0,0,12,14,0,1,62,19,18,19,18,19,1,0
568,739,64,1,1,1,1,1,1,0,0.0,9041,0,0,0,1,17,0,1,15,0,2,12,0,0,0,0,10,10,0,1,59,18,18,18,18,18,1,0
569,734,8,5,0,0,0,1,0,0,0.0,2504,0,0,0,1,21,0,1,20,0,3,17,0,0,0,0,12,14,0,1,64,23,22,23,19,22,1,0
570,45,27,2,1,0,1,0,1,0,0.0,2504,0,0,0,1,28,0,1,23,0,3,24,0,0,0,0,20,32,0,1,76,28,25,28,25,27,1,0
571,207,27,3,0,0,1,1,0,0,0.0,1004,0,0,0,1,20,0,1,27,0,3,27,0,0,0,0,21,33,0,1,79,28,25,28,26,30,1,0
572,702,58,3,1,1,1,0,0,0,0.0,1005,0,0,0,1,25,0,1,30,0,3,29,0,1,1,0,21,33,0,1,79,31,30,31,28,30,1,0
573,140,54,2,0,0,0,1,0,0,0.0,2504,0,0,0,1,21,0,1,20,0,3,18,0,0,0,0,12,12,0,1,64,20,19,20,18,20,1,0
574,458,56,5,0,1,1,1,1,0,0.0,2505,0,0,0,1,18,0,1,16,0,3,15,0,0,0,0,11,11,0,1,59,17,17,17,17,17,1,0
575,843,12,0,0,0,0,0,0,0,0.0,1005,0,0,0,1,21,0,1,30,0,3,29,0,1,1,0,21,33,0,1,79,31,28,31,28,30,1,0
576,445,90,1,1,1,1,0,1,0,0.0,6506,0,0,0,1,18,0,1,16,0,3,15,0,0,0,0,11,11,0,1,59,17,17,17,17,17,1,0
577,623,80,3,0,0,1,1,1,0,0.0,3004,0,0,0,1,20,0,1,19,0,3,17,0,0,0,0,12,14,0,1,63,20,19,20,18,20,1,0
578,985,87,3,1,1,0,1,0,0,0.0,2504,0,0,0,1,18,0,1,18,0,3,17,0,0,0,0,12,12,0,1,62,18,18,18,18,18,1,0
579,331,92,5,1,1,0,1,0,0,0.0,3504,0,0,0,1,18,0,1,22,0,3,21,0,0,0,0,15,15,0,1,70,24,23,24,22,24,1,0
580,346,85,4,1,0,0,1,1,0,0.0,2505,0,0,0,1,20,0,1,30,0,3,28,0,1,1,0,21,33,0,1,79,31,28,31,28,30,1,0
581,242,22,4,1,1,0,0,0,0,0.0,1004,0,0,0,1,18,0,1,29,0,3,30,0,1,1,0,24,33,0,1,79,29,28,29,27,29,1,0
582,472,96,1,1,0,1,0,0,0,0.0,3004,0,0,0,1,21,0,1,20,0,3,20,0,0,0,0,13,15,0,1,65,20,19,20,18,20,1,0
583,767,72,2,0,1,1,0,1,0,0.0,12006,0,0,0,1,17,0,1,15,0,2,12,0,0,0,0,10,10,0,1,58,16,16,16,16,16,1,0
584,382,15,5,1,1,1,1,1,0,0.0,2004,0,0,0,1,18,0,1,22,0,3,21,0,0,0,0,16,16,0,1,70,23,22,23,21,23,1,0
585,340,20,3,0,1,0,1,0,0,0.0,1004,0,0,0,1,20,0,1,28,0,3,28,0,1,1,0,24,34,0,1,78,29,28,29,27,29,1,0
586,695,78,5,1,1,0,1,1,0,0.0,6005,0,0,0,1,17,0,1,15,0,2,12,0,0,0,0,10,10,0,1,58,16,16,16,16,16,1,0
587,442,25,4,0,1,1,0,1,0,0.0,1004,0,0,0,1,18,0,1,29,0,3,29,0,1,1,0,24,33,0,1,79,29,28,29,27,29,1,0
588,711,41,4,0,1,0,1,0,0,0.0,1009,0,0,0,1,19,0,1,24,0,3,29,0,1,1,0,24,34,0,1,78,29,28,29,27,29,1,0
589,131,40,3,0,1,1,1,1,0,0.0,1003,0,0,0,1,21,0,1,28,0,3,29,0,1,1,0,23,32,0,1,78,29,28,29,27,29,1,0
590,618,21,5,0,1,1,0,0,0,0.0,1003,0,0,0,1,24,0,1,29,0,3,29,0,1,1,0,24,33,0,1,78,29,28,29,27,29,1,0
591,273,42,4,1,1,1,1,1,0,0.0,1003,0,0,0,1,18,0,1,21,0,3,28,0,0,0,0,24,33,0,1,79,26,25,26,27,29,1,0
592,199,59,4,0,0,1,0,0,0,0.0,2004,0,0,0,1,21,0,1,20,0,3,21,0,0,0,0,14,18,0,1,76,20,19,20,18,23,1,0
593,440,50,0,1,0,1,0,1,0,0.0,2504,0,0,0,1,21,0,1,20,0,3,20,0,0,0,0,14,16,0,1,75,20,19,20,18,20,1,0
594,613,30,4,1,0,1,1,0,0,0.0,1505,0,0,0,1,21,0,1,30,0,3,27,0,1,1,0,21,33,0,1,79,31,28,31,28,30,1,0
595,610,79,3,1,1,1,0,1,0,0.0,2504,0,0,0,1,18,0,1,21,0,3,20,0,0,0,0,15,15,0,1,70,21,20,21,20,23,1,0
596,528,77,0,0,0,0,1,1,0,0.0,1005,0,0,0,1,21,0,1,30,0,3,29,0,1,1,0,21,33,0,1,79,31,28,31,28,30,1,0
597,579,35,2,0,1,1,0,1,0,0.0,5540,0,0,0,1,18,0,1,15,0,2,11,0,0,0,0,10,10,0,1,59,18,18,18,18,18,1,0
598,319,84,5,1,1,1,0,1,0,0.0,2003,0,0,0,1,18,0,1,15,0,2,12,0,0,0,0,10,10,0,1,59,17,17,17,17,17,1,0
599,202,7,2,1,0,0,1,0,0,0.0,2027,0,0,0,1,18,0,1,18,0,3,18,0,0,0,0,12,12,0,1,62,19,19,19,19,19,1,0
600,992,90,4,1,1,1,0,1,0,0.0,1003,0,0,0,1,18,0,1,28,0,3,28,0,1,1,0,24,34,0,1,78,29,28,29,27,29,1,0
601,264,95,5,0,1,1,0,0,0,0.0,1004,0,0,0,1,18,0,1,29,0,3,30,0,1,1,0,24,33,0,1,79,29,28,29,27,29,1,0
602,861,71,0,1,1,1,1,0,0,0.0,503,0,0,0,1,21,0,1,28,0,3,28,0,1,1,0,24,34,0,1,78,29,28,29,27,29,1,0
603,626,95,3,0,1,0,1,1,0,0.0,2004,0,0,0,1,18,0,1,18,0,3,16,0,0,0,0,12,12,0,1,62,18,18,18,18,18,1,0
604,869,88,1,1,1,1,0,1,0,0.0,10579,0,0,0,1,17,0,1,15,0,2,12,0,0,0,0,10,10,0,1,59,17,17,17,17,17,1,0
605,747,27,5,0,1,0,1,1,0,0.0,2504,0,0,0,1,18,0,1,15,0,2,12,0,0,0,0,10,10,0,1,59,17,17,17,17,17,1,0
606,406,41,2,1,0,1,1,0,0,0.0,2504,0,0,0,1,21,0,1,20,0,3,19,0,0,0,0,13,15,0,1,64,20,19,20,18,20,1,0
607,647,88,2,1,1,1,0,0,0,0.0,1004,0,0,0,1,21,0,1,30,0,3,29,0,1,1,0,21,33,0,1,79,32,28,32,28,30,1,0
608,15,18,2,1,1,1,0,1,0,0.0,1003,0,0,0,1,18,0,1,29,0,3,29,0,1,1,0,24,33,0,1,79,30,29,30,28,30,1,0
609,584,29,5,1,1,0,1,0,0,0.0,2504,0,0,0,1,18,0,1,24,0,3,25,0,0,0,0,23,26,0,1,74,26,25,26,24,26,1,0
610,367,19,0,0,0,0,0,0,0,0.0,2004,0,0,0,1,21,0,1,30,0,3,29,0,1,1,0,21,33,0,1,79,31,28,31,28,30,1,0
611,537,59,2,0,0,0,1,0,0,0.0,8005,0,0,0,1,21,0,1,18,0,3,19,0,0,0,0,12,13,0,1,61,20,19,20,19,20,1,0
612,698,82,4,1,0,1,1,1,0,0.0,1005,0,0,0,1,23,0,1,32,0,3,32,0,1,1,0,21,34,0,1,81,35,30,35,28,33,1,0
613,865,28,4,0,0,0,1,1,0,0.0,1006,0,0,0,1,21,0,1,30,0,3,29,0,1,1,0,21,33,0,1,79,31,28,31,28,30,1,0
614,324,26,1,0,0,0,0,1,0,0.0,2503,0,0,0,1,22,0,1,20,0,3,19,0,0,0,0,13,14,0,1,64,21,20,21,19,21,1,0
615,583,37,2,0,0,1,1,1,0,0.0,7005,0,0,0,1,21,0,1,18,0,3,19,0,0,0,0,12,13,0,1,61,20,19,20,18,20,1,0
616,323,23,1,1,0,0,0,1,0,0.0,3505,0,0,0,1,22,0,1,19,0,3,19,0,0,0,0,12,13,0,1,64,21,20,21,19,21,1,0
617,78,71,4,1,0,1,0,1,0,0.0,1504,0,0,0,1,21,0,1,30,0,3,29,0,1,1,0,21,33,0,1,79,31,28,31,28,30,1,0
618,34,65,1,1,0,0,1,0,0,0.0,2009,0,0,0,1,22,0,1,20,0,3,20,0,0,0,0,13,14,0,1,64,20,19,20,18,20,1,0
619,232,45,4,1,1,0,0,0,0,0.0,503,0,0,0,1,18,0,1,29,0,3,29,0,1,1,0,24,33,0,1,79,29,28,29,27,29,1,0
620,637,96,2,1,1,0,0,0,0,0.0,14537,0,0,0,1,18,0,1,15,0,2,12,0,0,0,0,10,10,0,1,59,17,17,17,17,17,1,0
621,141,19,0,1,1,0,1,1,0,0.0,1004,0,0,0,1,17,0,1,14,0,1,12,0,0,0,0,3,3,0,1,49,17,17,17,17,17,1,0
622,891,89,1,0,1,1,0,0,0,0.0,2012,0,0,0,1,21,0,1,20,0,3,21,0,0,0,0,14,18,0,1,76,20,19,20,21,23,1,0
623,378,4,0,1,0,1,1,0,0,0.0,1504,0,0,0,1,21,0,1,30,0,3,28,0,1,1,0,21,33,0,1,79,31,28,31,28,30,1,0
624,755,59,5,0,0,0,1,0,0,0.0,4505,0,0,0,1,21,0,1,18,0,3,18,0,0,0,0,12,13,0,1,61,19,18,19,18,19,1,0
625,487,79,3,1,0,0,0,1,0,0.0,2505,0,0,0,1,21,0,1,20,0,3,19,0,0,0,0,12,13,0,1,64,22,21,22,18,21,1,0
626,298,0,0,1,1,0,1,1,0,0.0,1004,0,0,0,1,18,0,1,22,0,3,27,0,0,0,0,24,33,0,1,78,29,28,29,27,29,1,0
627,214,60,2,1,0,1,1,0,0,0.0,2504,0,0,0,1,23,0,1,22,0,3,19,0,0,0,0,13,15,0,1,66,24,22,24,18,23,1,0
628,519,27,1,1,1,1,1,0,0,0.0,2004,0,0,0,1,18,0,1,17,0,3,17,0,0,0,0,12,12,0,1,66,18,18,18,18,18,1,0
629,567,51,1,0,0,0,0,0,0,0.0,5504,0,0,0,1,18,0,1,18,0,3,16,0,0,0,0,11,11,0,1,62,19,19,19,19,19,1,0
630,224,80,4,0,1,1,1,1,0,0.0,1003,0,0,0,1,18,0,1,18,0,3,24,0,0,0,0,24,33,0,1,79,24,23,24,27,29,1,0
631,475,53,4,0,1,1,1,1,0,0.0,1004,0,0,0,1,18,0,1,29,0,3,30,0,1,1,0,24,33,0,1,78,29,28,29,27,29,1,0
632,721,37,5,1,1,1,0,0,0,0.0,1010,0,0,0,1,24,0,1,22,0,3,23,0,0,0,0,20,33,0,1,81,25,22,25,18,30,1,0
633,546,74,4,1,0,0,0,1,0,0.0,1505,0,0,0,1,20,0,1,20,0,3,20,0,0,0,0,14,18,0,1,79,22,21,22,20,25,1,0
634,692,74,5,1,0,0,0,1,0,0.0,4005,0,0,0,1,21,0,1,18,0,3,19,0,0,0,0,12,13,0,1,61,20,19,20,18,20,1,0
635,295,91,4,0,0,1,0,1,0,0.0,2004,0,0,0,1,18,0,1,18,0,3,19,0,0,0,0,13,13,0,1,71,18,18,18,18,18,1,0
636,175,47,2,0,1,1,0,0,0,0.0,1003,0,0,0,1,21,0,1,28,0,3,29,0,1,1,0,24,34,0,1,78,29,28,29,27,29,1,0
637,88,45,4,1,1,0,0,1,0,0.0,1006,0,0,0,1,18,0,1,14,0,1,12,0,0,0,0,3,3,0,1,49,15,15,15,15,15,1,0
638,608,17,0,0,1,0,0,1,0,0.0,1004,0,0,0,1,21,0,1,29,0,3,30,0,1,1,0,24,33,0,1,79,29,28,29,27,29,1,0
639,285,45,1,0,1,0,0,0,0,0.0,3504,0,0,0,1,22,0,1,18,0,3,17,0,0,0,0,11,11,0,1,61,20,19,20,18,20,1,0
640,735,91,0,1,1,0,1,1,0,0.0,1007,0,0,0,1,18,0,1,14,0,1,12,0,0,0,0,3,3,0,1,49,15,15,15,15,15,1,0
641,42,30,3,0,1,1,0,0,0,0.0,1003,0,0,0,1,17,0,1,14,0,1,11,0,0,0,0,3,3,0,1,49,15,15,15,15,15,1,0
642,824,26,5,0,0,1,0,0,0,0.0,2005,0,0,0,1,21,0,1,20,0,3,21,0,0,0,0,14,16,0,1,76,20,19,20,18,20,1,0
643,586,42,0,0,0,1,1,0,0,0.0,1505,0,0,0,1,21,0,1,30,0,3,29,0,1,1,0,21,33,0,1,79,31,28,31,28,30,1,0
644,180,13,3,1,1,0,0,0,0,0.0,1003,0,0,0,1,33,0,1,29,0,3,33,0,1,1,0,20,29,0,1,80,33,31,33,27,32,1,0
645,583,3,2,1,0,1,1,0,0,0.0,2505,0,0,0,1,21,0,1,20,0,3,18,0,0,0,0,14,15,0,1,64,22,21,22,20,22,1,0
646,264,71,1,0,1,1,1,1,0,0.0,4007,0,0,0,1,18,0,1,16,0,3,16,0,0,0,0,11,11,0,1,59,17,17,17,17,17,1,0
647,372,80,3,0,0,1,1,0,0,0.0,2522,0,0,0,1,20,0,1,20,0,3,20,0,0,0,0,13,15,0,1,64,20,19,20,18,20,1,0
648,490,83,2,0,0,0,1,0,0,0.0,8506,0,0,0,1,18,0,1,15,0,2,11,0,0,0,0,10,10,0,1,59,18,18,18,18,18,1,0
649,59,57,1,1,0,0,0,0,0,0.0,3006,0,0,0,1,20,0,1,18,0,3,17,0,0,0,0,12,13,0,1,61,19,18,19,17,19,1,0
650,676,84,4,0,0,0,0,0,0,0.0,2005,0,0,0,1,21,0,1,20,0,3,20,0,0,0,0,13,15,0,1,64,20,19,20,18,20,1,0
651,651,4,1,1,1,0,1,1,0,0.0,2007,0,0,0,1,22,0,1,21,0,3,22,0,0,0,0,16,16,0,1,70,24,23,24,21,23,1,0
652,659,65,1,1,0,0,0,0,0,0.0,7506,0,0,0,1,21,0,1,18,0,3,19,0,0,0,0,12,13,0,1,61,20,19,20,17,19,1,0
653,270,100,1,1,0,0,1,1,0,0.0,4505,0,0,0,1,24,0,1,20,0,3,21,0,0,0,0,13,13,0,1,64,20,19,20,19,20,1,0
654,193,97,4,0,1,1,1,1,0,0.0,1004,0,0,0,1,18,0,1,28,0,3,29,0,1,1,0,24,34,0,1,78,29,28,29,27,29,1,0
655,752,75,4,0,0,1,0,0,0,0.0,1504,0,0,0,1,24,0,1,32,0,3,32,0,1,1,0,21,34,0,1,81,39,35,39,30,35,1,0
656,174,77,2,0,1,1,0,1,0,0.0,4004,0,0,0,1,18,0,1,16,0,3,17,0,0,0,0,12,12,0,1,59,18,18,18,18,18,1,0
657,499,10,4,0,1,1,0,1,0,0.0,1003,0,0,0,1,18,0,1,29,0,3,29,0,1,1,0,24,33,0,1,79,29,28,29,27,29,1,0
658,462,4,1,1,1,0,1,1,0,0.0,2003,0,0,0,1,23,0,1,24,0,3,27,0,0,0,0,23,32,0,1,74,26,25,26,25,26,1,0
659,839,23,5,0,1,1,1,1,0,0.0,2504,0,0,0,1,24,0,1,24,0,3,22,0,0,0,0,23,32,0,1,78,26,25,26,25,27,1,0
660,10,56,4,0,1,0,0,1,0,0.0,1003,0,0,0,1,18,0,1,29,0,3,28,0,1,1,0,24,33,0,1,79,29,28,29,27,29,1,0
661,316,37,3,1,1,1,0,0,0,0.0,1004,0,0,0,1,18,0,1,29,0,3,28,0,1,1,0,24,33,0,1,79,29,28,29,27,29,1,0
662,311,75,5,0,1,1,1,0,0,0.0,2004,0,0,0,1,18,0,1,18,0,3,19,0,0,0,0,23,31,0,1,76,23,22,23,22,28,1,0
663,421,8,5,1,0,1,0,1,0,0.0,2004,0,0,0,1,22,0,1,20,0,3,21,0,0,0,0,13,13,0,1,64,20,19,20,19,20,1,0
664,49,71,2,0,1,0,1,0,0,0.0,2004,0,0,0,1,18,0,1,22,0,3,22,0,0,0,0,16,16,0,1,70,23,22,23,21,23,1,0
665,483,13,3,0,1,0,1,1,0,0.0,1004,0,0,0,1,18,0,1,28,0,3,29,0,1,1,0,24,34,0,1,78,29,28,29,27,29,1,0
666,56,35,3,1,1,1,1,0,0,0.0,1003,0,0,0,1,18,0,1,29,0,3,29,0,1,1,0,24,33,0,1,79,29,28,29,27,29,1,0
667,479,57,1,1,1,0,0,1,0,0.0,4005,0,0,0,1,18,0,1,16,0,3,16,0,0,0,0,11,11,0,1,59,17,17,17,17,17,1,0
668,305,36,0,1,1,1,0,1,0,0.0,1003,0,0,0,1,18,0,1,29,0,3,30,0,1,1,0,24,33,0,1,79,29,28,29,27,29,1,0
669,611,90,3,0,0,1,0,0,0,0.0,1004,0,0,0,1,21,0,1,30,0,3,29,0,1,1,0,21,33,0,1,79,31,28,31,28,30,1,0
670,263,40,5,1,0,0,1,0,0,0.0,2504,0,0,0,1,21,0,1,18,0,3,20,0,0,0,0,12,13,0,1,61,20,19,20,18,20,1,0
671,628,72,3,1,0,0,0,0,0,0.0,3005,0,0,0,1,20,0,1,20,0,3,20,0,0,0,0,13,15,0,1,64,20,19,20,19,20,1,0
672,586,7,5,1,0,0,1,0,0,0.0,2505,0,0,0,1,22,0,1,20,0,3,18,0,0,0,0,13,15,0,1,64,22,20,22,18,21,1,0
673,42,1,2,1,0,0,1,0,0,0.0,2504,0,0,0,1,21,0,1,29,0,3,29,0,1,1,0,21,33,0,1,79,31,28,31,28,30,1,0
674,254,61,0,1,1,1,1,1,0,0.0,1004,0,0,0,1,21,0,1,29,0,3,30,0,1,1,0,24,33,0,1,79,29,28,29,27,29,1,0
675,909,51,0,1,0,0,0,1,0,0.0,2504,0,0,0,1,21,0,1,20,0,3,21,0,0,0,0,14,16,0,1,74,20,19,20,18,20,1,0
676,295,5,3,0,1,0,1,0,0,0.0,1003,0,0,0,1,20,0,1,20,0,3,24,0,0,0,0,23,32,0,1,78,26,25,26,27,29,1,0
677,690,93,3,0,1,0,1,1,0,0.0,2004,0,0,0,1,18,0,1,18,0,3,17,0,0,0,0,12,12,0,1,62,18,18,18,18,18,1,0
678,32,65,4,1,0,1,1,0,0,0.0,3007,0,0,0,1,24,0,1,32,0,3,32,0,1,1,0,21,34,0,1,81,36,31,36,28,34,1,0
679,232,63,0,0,0,0,0,0,0,0.0,1004,0,0,0,1,21,0,1,30,0,3,28,0,1,1,0,21,33,0,1,79,31,28,31,28,30,1,0
680,294,67,3,0,0,0,1,1,0,0.0,2004,0,0,0,1,27,0,1,22,0,3,22,0,0,0,0,13,14,0,1,66,25,23,25,18,23,1,0
681,915,30,5,1,1,1,1,0,0,0.0,2004,0,0,0,1,17,0,1,14,0,1,11,0,0,0,0,3,3,0,1,49,15,15,15,15,15,1,0
682,98,70,2,1,1,1,0,0,0,0.0,1003,0,0,0,1,18,0,1,20,0,3,20,0,0,0,0,17,20,0,1,79,21,20,21,19,23,1,0
683,147,96,5,0,0,1,1,1,0,0.0,2003,0,0,0,1,18,0,1,15,0,2,12,0,0,0,0,10,10,0,1,59,18,18,18,18,18,1,0
684,914,94,3,0,0,0,1,1,0,0.0,3010,0,0,0,1,21,0,1,20,0,3,19,0,0,0,0,12,13,0,1,64,21,19,21,18,20,1,0
685,218,11,5,0,0,1,0,0,0,0.0,1004,0,0,0,1,21,0,1,20,0,3,24,0,0,0,0,21,33,0,1,79,26,23,26,25,28,1,0
686,368,63,1,0,1,0,1,1,0,0.0,4505,0,0,0,1,18,0,1,18,0,3,18,0,0,0,0,12,12,0,1,62,18,18,18,18,18,1,0
687,221,66,2,0,1,1,0,0,0,0.0,1012,0,0,0,1,24,0,1,32,0,3,32,0,1,1,0,21,34,0,1,81,36,31,36,28,34,1,0
688,565,93,0,0,0,0,0,0,0,0.0,1504,0,0,0,1,21,0,1,30,0,3,29,0,1,1,0,21,33,0,1,79,31,28,31,28,30,1,0
689,61,24,1,0,0,1,1,1,0,0.0,2004,0,0,0,1,22,0,1,20,0,3,20,0,0,0,0,13,14,0,1,64,21,20,21,19,21,1,0
690,778,60,1,0,0,0,1,1,0,0.0,7006,0,0,0,1,22,0,1,18,0,3,16,0,0,0,0,11,11,0,1,61,19,18,19,17,19,1,0
691,405,54,0,1,0,1,0,1,0,0.0,1504,0,0,0,1,21,0,1,30,0,3,28,0,1,1,0,21,33,0,1,79,31,28,31,28,30,1,0
692,112,8,5,1,1,1,0,1,0,0.0,1003,0,0,0,1,19,0,1,28,0,3,28,0,1,1,0,24,34,0,1,78,29,28,29,28,29,1,0
693,208,68,0,0,1,1,0,0,0,0.0,1004,0,0,0,1,17,0,1,29,0,3,29,0,1,1,0,24,33,0,1,79,29,28,29,27,29,1,0
694,149,19,2,0,0,0,1,0,0,0.0,2004,0,0,0,1,18,0,1,16,0,3,16,0,0,0,0,11,11,0,1,59,18,18,18,18,18,1,0
695,598,75,0,1,1,0,1,0,0,0.0,1004,0,0,0,1,17,0,1,29,0,3,28,0,1,1,0,24,33,0,1,79,30,28,30,27,29,1,0
696,138,18,3,1,1,0,1,0,0,0.0,1004,0,0,0,1,19,0,1,29,0,3,29,0,1,1,0,24,33,0,1,79,29,28,29,27,29,1,0
697,628,33,1,0,1,0,1,1,0,0.0,3504,0,0,0,1,17,0,1,15,0,2,12,0,0,0,0,10,10,0,1,58,16,16,16,16,16,1,0
698,238,78,5,1,1,0,1,0,0,0.0,2504,0,0,0,1,23,0,1,20,0,3,20,0,0,0,0,15,15,0,1,67,22,21,22,20,22,1,0
699,572,83,5,0,1,0,1,1,0,0.0,4005,0,0,0,1,24,0,1,21,0,3,21,0,0,0,0,14,14,0,1,67,22,21,22,21,22,1,0
700,600,86,3,1,0,1,1,1,0,0.0,2505,0,0,0,1,22,0,1,20,0,3,20,0,0,0,0,13,14,0,1,64,20,19,20,18,20,1,0
701,36,67,5,0,1,1,0,0,0,0.0,1004,0,0,0,1,18,0,1,29,0,3,30,0,1,1,0,24,33,0,1,79,29,28,29,27,29,1,0
702,458,61,4,0,0,0,1,0,0,0.0,1505,0,0,0,1,22,0,1,30,0,3,29,0,1,1,0,21,33,0,1,79,31,28,31,28,30,1,0
703,382,100,2,1,0,0,0,0,0,0.0,9006,0,0,0,1,18,0,1,15,0,2,11,0,0,0,0,10,10,0,1,59,18,18,18,18,18,1,0
704,201,97,4,0,0,0,0,0,0,0.0,1505,0,0,0,1,24,0,1,32,0,3,32,0,1,1,0,21,34,0,1,81,35,31,35,28,33,1,0
705,844,44,1,0,0,0,1,0,0,0.0,5511,0,0,0,1,18,0,1,16,0,3,16,0,0,0,0,11,11,0,1,59,17,17,17,17,17,1,0
706,325,69,3,0,0,1,0,0,0,0.0,1504,0,0,0,1,21,0,1,30,0,3,29,0,1,1,0,21,33,0,1,79,31,28,31,28,30,1,0
707,100,28,3,1,1,1,1,0,0,0.0,1003,0,0,0,1,24,0,1,31,0,3,33,0,1,1,0,24,34,0,1,81,33,30,33,27,32,1,0
708,564,67,2,1,0,1,1,0,0,0.0,4505,0,0,0,1,21,0,1,28,0,3,25,0,1,1,0,20,32,0,1,76,31,30,31,28,30,1,0
709,24,13,5,1,1,1,0,0,0,0.0,1004,0,0,0,1,21,0,1,29,0,3,30,0,1,1,0,24,33,0,1,78,29,28,29,27,29,1,0
710,12,52,0,1,1,1,1,1,0,0.0,1004,0,0,0,1,21,0,1,29,0,3,31,0,1,1,0,24,33,0,1,79,29,28,29,27,29,1,0
711,294,3,3,1,1,0,0,1,0,0.0,1004,0,0,0,1,21,0,1,28,0,3,30,0,1,1,0,24,34,0,1,78,29,28,29,27,29,1,0
712,355,90,3,0,1,1,0,1,0,0.0,2004,0,0,0,1,18,0,1,18,0,3,17,0,0,0,0,12,12,0,1,62,18,18,18,18,18,1,0
713,701,46,4,0,1,0,0,0,0,0.0,1004,0,0,0,1,18,0,1,28,0,3,30,0,1,1,0,24,34,0,1,78,29,28,29,27,29,1,0
714,635,46,2,1,0,0,1,1,0,0.0,7510,0,0,0,1,18,0,1,15,0,2,12,0,0,0,0,10,10,0,1,59,17,17,17,17,17,1,0
715,664,28,1,0,1,0,1,0,0,0.0,3504,0,0,0,1,19,0,1,16,0,3,16,0,0,0,0,11,11,0,1,59,17,17,17,17,17,1,0
716,139,38,3,0,1,0,1,1,0,0.0,1004,0,0,0,1,18,0,1,28,0,3,28,0,1,1,0,24,33,0,1,78,30,29,30,28,30,1,0
717,869,99,0,0,0,1,0,1,0,0.0,1004,0,0,0,1,21,0,1,30,0,3,29,0,1,1,0,21,33,0,1,79,31,28,31,28,30,1,0
718,996,25,3,0,1,0,0,0,0,0.0,2009,0,0,0,1,18,0,1,26,0,3,26,0,0,0,0,24,33,0,1,78,26,25,26,25,27,1,0
719,525,83,1,1,0,1,0,0,0,0.0,1004,0,0,0,1,21,0,1,30,0,3,29,0,1,1,0,21,33,0,1,79,31,28,31,28,30,1,0
720,803,25,4,0,1,1,1,1,0,0.0,1003,0,0,0,1,17,0,1,15,0,2,12,0,0,0,0,20,23,0,1,78,18,18,18,20,25,1,0
721,525,81,5,1,0,1,1,0,0,0.0,3004,0,0,0,1,21,0,1,19,0,3,18,0,0,0,0,12,14,0,1,62,20,19,20,18,20,1,0
722,369,57,2,1,1,1,1,0,0,0.0,2004,0,0,0,1,18,0,1,18,0,3,18,0,0,0,0,13,13,0,1,62,18,18,18,18,18,1,0
723,705,100,3,0,1,0,1,0,0,0.0,2003,0,0,0,1,18,0,1,18,0,3,17,0,0,0,0,12,12,0,1,62,18,18,18,18,18,1,0
724,512,27,4,0,1,1,1,1,0,0.0,1003,0,0,0,1,18,0,1,29,0,3,28,0,1,1,0,24,33,0,1,79,29,28,29,27,29,1,0
725,71,33,2,0,0,1,1,1,0,0.0,2504,0,0,0,1,21,0,1,20,0,3,18,0,0,0,0,13,15,0,1,64,20,19,20,18,20,1,0
726,645,95,1,1,1,0,0,1,0,0.0,8006,0,0,0,1,22,0,1,18,0,3,17,0,0,0,0,11,11,0,1,61,19,18,19,17,19,1,0
727,116,33,1,1,1,0,0,1,0,0.0,2004,0,0,0,1,16,0,1,16,0,3,16,0,0,0,0,11,11,0,1,59,18,18,18,18,18,1,0
728,627,92,5,1,1,1,1,1,0,0.0,5505,0,0,0,1,24,0,1,20,0,3,17,0,0,0,0,12,12,0,1,64,20,19,20,18,20,1,0
729,907,54,3,0,0,1,1,1,0,0.0,2004,0,0,0,1,21,0,1,20,0,3,20,0,0,0,0,13,14,0,1,64,20,19,20,18,20,1,0
730,841,36,5,0,1,0,1,1,0,0.0,3509,0,0,0,1,31,0,1,24,0,3,23,0,0,0,0,16,16,0,1,72,29,26,29,23,28,1,0
731,286,60,3,1,0,1,1,1,0,0.0,2005,0,0,0,1,21,0,1,19,0,3,17,0,0,0,0,12,14,0,1,64,20,19,20,18,20,1,0
732,545,11,2,1,1,0,0,1,0,0.0,2504,0,0,0,1,19,0,1,22,0,3,22,0,0,0,0,20,22,0,1,72,24,23,24,23,24,1,0
733,869,22,2,0,0,1,1,0,0,0.0,2005,0,0,0,1,21,0,1,20,0,2,16,0,0,0,0,12,13,0,1,64,20,19,20,18,20,1,0
734,970,17,5,0,1,1,1,0,0,0.0,2004,0,0,0,1,22,0,1,29,0,3,29,0,1,1,0,22,30,0,1,78,33,32,33,29,31,1,0
735,377,66,0,1,0,0,0,0,0,0.0,2504,0,0,0,1,21,0,1,20,0,3,21,0,0,0,0,18,25,0,1,76,23,22,23,21,27,1,0
736,897,6,4,0,0,0,0,0,0,0.0,1003,0,0,0,1,21,0,1,30,0,3,29,0,1,1,0,21,33,0,1,79,31,28,31,28,30,1,0
737,210,24,2,0,1,1,1,1,0,0.0,2503,0,0,0,1,28,0,1,24,0,3,30,0,1,1,0,24,34,0,1,80,33,31,33,27,32,1,0
738,577,96,0,1,0,1,0,1,0,0.0,6506,0,0,0,1,62,0,1,52,0,6,78,0,1,11,0,37,69,0,1,103,83,75,83,43,58,1,0
739,900,82,5,1,1,1,1,1,0,0.0,10507,0,0,0,1,17,0,1,15,0,2,12,0,0,0,0,10,10,0,1,58,16,16,16,16,16,1,0
740,303,38,3,0,1,1,1,0,0,0.0,1003,0,0,0,1,21,0,1,28,0,3,28,0,1,1,0,24,34,0,1,78,29,28,29,27,29,1,0
741,480,92,5,0,1,1,0,0,0,0.0,1005,0,0,0,1,55,0,1,49,0,4,63,0,1,8,0,29,51,0,1,98,77,72,77,50,57,1,0
742,560,47,4,0,0,1,0,1,0,0.0,1504,0,0,0,1,21,0,1,30,0,3,28,0,1,1,0,21,33,0,1,79,32,28,32,28,30,1,0
743,630,22,2,0,0,1,0,0,0,0.0,1004,0,0,0,1,21,0,1,30,0,3,29,0,1,1,0,21,33,0,1,79,31,28,31,28,30,1,0
744,211,77,3,1,1,1,0,1,0,0.0,2013,0,0,0,1,24,0,1,22,0,3,20,0,0,0,0,17,17,0,1,70,24,23,24,22,24,1,0
745,923,47,1,0,0,0,0,0,0,0.0,7506,0,0,0,1,21,0,1,18,0,3,19,0,0,0,0,12,13,0,1,61,19,18,19,17,19,1,0
746,777,81,4,0,0,0,1,1,0,0.0,1003,0,0,0,1,21,0,1,30,0,3,29,0,1,1,0,21,33,0,1,79,31,28,31,28,30,1,0
747,342,100,5,0,1,1,0,0,0,0.0,1004,0,0,0,1,25,0,1,30,0,3,30,0,1,1,0,21,33,0,1,79,31,30,31,28,30,1,0
748,427,65,5,0,1,0,1,0,0,0.0,3504,0,0,0,1,17,0,1,15,0,2,11,0,0,0,0,10,10,0,1,58,15,15,15,15,15,1,0
749,149,30,4,0,0,0,1,0,0,0.0,1506,0,0,0,1,21,0,1,30,0,3,29,0,1,1,0,21,33,0,1,79,31,28,31,28,30,1,0
750,678,53,5,0,1,0,1,1,0,0.0,4004,0,0,0,1,23,0,1,22,0,3,21,0,0,0,0,15,15,0,1,70,23,22,23,21,23,1,0
751,355,37,2,0,0,1,0,0,0,0.0,1006,0,0,0,1,21,0,1,30,0,3,29,0,1,1,0,21,33,0,1,79,31,28,31,28,30,1,0
752,456,42,4,0,0,1,0,0,0,0.0,1005,0,0,0,1,21,0,1,30,0,3,29,0,1,1,0,21,33,0,1,79,31,28,31,28,30,1,0
753,936,35,3,1,0,1,1,0,0,0.0,2007,0,0,0,1,21,0,1,20,0,3,20,0,0,0,0,13,15,0,1,64,20,19,20,18,20,1,0
754,138,34,2,1,1,1,1,0,0,0.0,2004,0,0,0,1,18,0,1,28,0,3,25,0,1,1,0,24,32,0,1,78,29,28,29,27,29,1,0
755,955,19,0,1,0,0,0,0,0,0.0,3005,0,0,0,1,21,0,1,20,0,3,21,0,0,0,0,13,15,0,1,65,20,19,20,18,20,1,0
756,560,48,1,0,1,1,1,0,0,0.0,2505,0,0,0,1,59,0,1,49,0,5,64,0,1,9,0,36,71,0,1,98,77,68,77,51,61,1,0
757,564,73,5,0,1,1,1,0,0,0.0,2003,0,0,0,1,18,0,1,16,0,2,15,0,0,0,0,24,33,0,1,78,24,23,24,23,29,1,0
758,397,94,1,1,0,1,1,0,0,0.0,4504,0,0,0,1,21,0,1,20,0,3,18,0,0,0,0,12,14,0,1,63,20,19,20,18,20,1,0
759,606,29,5,1,1,0,0,1,0,0.0,2004,0,0,0,1,19,0,1,21,0,3,20,0,0,0,0,13,13,0,1,67,22,20,22,19,21,1,0
760,789,88,0,1,0,0,1,1,0,0.0,1004,0,0,0,1,21,0,1,30,0,3,28,0,1,1,0,21,33,0,1,79,31,28,31,28,30,1,0
761,216,33,5,1,0,1,0,1,0,0.0,3009,0,0,0,1,20,0,1,18,0,3,17,0,0,0,0,12,14,0,1,61,19,18,19,17,19,1,0
762,856,62,4,1,0,1,1,0,0,0.0,1005,0,0,0,1,21,0,1,30,0,3,29,0,1,1,0,21,33,0,1,79,32,29,32,28,30,1,0
763,200,50,2,0,1,0,1,0,0,0.0,3504,0,0,0,1,17,0,1,16,0,3,16,0,0,0,0,11,11,0,1,59,17,17,17,17,17,1,0
764,3,89,2,0,1,1,0,0,0,0.0,1003,0,0,0,1,18,0,1,28,0,3,28,0,1,1,0,24,34,0,1,78,29,28,29,27,29,1,0
765,581,16,5,0,1,1,0,0,0,0.0,1003,0,0,0,1,48,0,1,44,0,4,57,0,1,2,0,29,52,0,1,94,57,51,57,40,50,1,0
766,178,54,1,0,1,0,1,0,0,0.0,2505,0,0,0,1,28,0,1,24,0,3,23,0,0,0,0,22,26,0,1,74,26,25,26,24,26,1,0
767,459,60,5,1,1,0,0,1,0,0.0,2506,0,0,0,1,31,0,1,24,0,3,25,0,0,0,0,17,19,0,1,72,29,26,29,22,28,1,0
768,982,78,2,0,1,1,1,0,0,0.0,5008,0,0,0,1,21,0,1,19,0,3,18,0,0,0,0,12,14,0,1,62,20,19,20,18,20,1,0
769,634,41,3,0,1,0,0,0,0,0.0,2005,0,0,0,1,17,0,1,15,0,2,12,0,0,0,0,11,11,0,1,62,17,17,17,17,17,1,0
770,38,64,4,0,1,1,1,1,0,0.0,1003,0,0,0,1,18,0,1,28,0,3,29,0,1,1,0,24,34,0,1,78,29,28,29,27,29,1,0
771,693,53,0,1,1,1,1,0,0,0.0,1003,0,0,0,1,28,0,1,28,0,3,30,0,1,1,0,24,34,0,1,78,29,28,29,27,29,1,0
772,269,71,5,0,1,0,1,0,0,0.0,2503,0,0,0,1,22,0,1,18,0,3,17,0,0,0,0,11,11,0,1,61,19,18,19,17,19,1,0
773,879,8,3,1,1,0,0,1,0,0.0,1004,0,0,0,1,18,0,1,29,0,3,31,0,1,1,0,24,33,0,1,78,29,28,29,27,29,1,0
774,617,14,3,1,1,1,0,1,0,0.0,2004,0,0,0,1,19,0,1,18,0,3,20,0,0,0,0,23,32,0,1,78,23,22,23,23,25,1,0
775,848,38,4,0,0,0,1,1,0,0.0,1505,0,0,0,1,21,0,1,30,0,3,28,0,1,1,0,21,33,0,1,79,31,28,31,28,30,1,0
776,917,3,4,1,0,1,0,0,0,0.0,2503,0,0,0,1,21,0,1,20,0,3,20,0,0,0,0,14,18,0,1,76,20,19,20,19,23,1,0
777,417,53,2,0,1,0,1,1,0,0.0,5005,0,0,0,1,28,0,1,22,0,3,20,0,0,0,0,13,13,0,1,66,27,24,27,19,25,1,0
778,18,64,4,0,0,0,0,0,0,0.0,1505,0,0,0,1,21,0,1,30,0,3,28,0,1,1,0,21,33,0,1,79,31,28,31,28,30,1,0
779,296,44,3,1,1,0,0,1,0,0.0,2003,0,0,0,1,23,0,1,24,0,3,27,0,0,0,0,23,27,0,1,74,26,25,26,24,26,1,0
780,373,92,1,0,0,0,0,0,0,0.0,6005,0,0,0,1,21,0,1,18,0,3,19,0,0,0,0,12,13,0,1,61,19,18,19,17,19,1,0
781,129,9,0,1,0,0,1,0,0,0.0,2505,0,0,0,1,21,0,1,20,0,3,21,0,0,0,0,13,15,0,1,65,20,19,20,18,20,1,0
782,375,1,5,0,1,1,0,1,0,0.0,1004,0,0,0,1,22,0,1,28,0,3,31,0,1,1,0,24,34,0,1,78,29,28,29,27,29,1,0
783,644,9,4,0,0,1,1,0,0,0.0,1004,0,0,0,1,21,0,1,30,0,3,29,0,1,1,0,21,33,0,1,79,31,28,31,28,30,1,0
784,77,33,4,1,0,1,0,1,0,0.0,1010,0,0,0,1,24,0,1,32,0,3,33,0,1,1,0,21,34,0,1,81,34,30,34,28,33,1,0
785,767,74,5,0,1,1,0,1,0,0.0,4005,0,0,0,1,18,0,1,18,0,3,17,0,0,0,0,12,12,0,1,62,18,18,18,18,18,1,0
786,306,65,3,0,1,0,0,0,0,0.0,2004,0,0,0,1,18,0,1,24,0,3,24,0,0,0,0,23,32,0,1,74,25,24,25,23,25,1,0
787,831,87,1,1,1,0,0,0,0,0.0,10006,0,0,0,1,19,0,1,16,0,3,16,0,0,0,0,11,11,0,1,59,17,17,17,17,17,1,0
788,921,18,2,1,1,0,1,1,0,0.0,4540,0,0,0,1,18,0,1,15,0,2,12,0,0,0,0,10,10,0,1,59,18,18,18,18,18,1,0
789,216,78,2,1,1,1,0,0,0,0.0,1005,0,0,0,1,61,0,1,52,0,5,79,0,1,11,0,34,66,0,1,101,101,91,101,54,65,1,0
790,656,53,5,0,0,0,0,1,0,0.0,4505,0,0,0,1,28,0,1,24,0,3,24,0,0,0,0,22,30,0,1,72,26,25,26,24,26,1,0
791,285,37,4,0,0,0,0,0,0,0.0,1003,0,0,0,1,21,0,1,30,0,3,28,0,1,1,0,21,33,0,1,79,31,28,31,28,30,1,0
792,453,13,1,1,0,1,1,1,0,0.0,2004,0,0,0,1,18,0,1,17,0,3,16,0,0,0,0,12,12,0,1,62,19,19,19,19,19,1,0
793,965,28,5,1,0,1,0,0,0,0.0,1003,0,0,0,1,21,0,1,30,0,3,29,0,1,1,0,21,33,0,1,79,31,28,31,28,30,1,0
794,820,25,3,0,1,1,0,1,0,0.0,2004,0,0,0,1,18,0,1,24,0,3,25,0,0,0,0,23,32,0,1,76,26,25,26,24,26,1,0
795,227,35,4,1,1,0,0,0,0,0.0,1017,0,0,0,1,31,0,1,31,0,3,33,0,1,1,0,24,34,0,1,81,31,29,31,27,31,1,0
796,299,82,1,1,0,0,1,1,0,0.0,6042,0,0,0,1,18,0,1,15,0,2,11,0,0,0,0,10,10,0,1,59,17,17,17,17,17,1,0
797,584,39,2,0,0,0,1,1,0,0.0,6005,0,0,0,1,18,0,1,15,0,2,11,0,0,0,0,10,10,0,1,59,18,18,18,18,18,1,0
798,409,37,5,1,1,1,0,0,0,0.0,1003,0,0,0,1,18,0,1,29,0,3,29,0,1,1,0,24,33,0,1,79,29,28,29,27,29,1,0
799,680,18,0,1,0,1,1,1,0,0.0,1004,0,0,0,1,21,0,1,30,0,3,28,0,1,1,0,21,33,0,1,79,31,28,31,28,30,1,0
800,236,9,1,0,0,1,1,1,0,0.0,2004,0,0,0,1,21,0,1,20,0,3,20,0,0,0,0,13,14,0,1,64,20,19,20,18,20,1,0
801,50,90,0,0,0,1,0,1,0,0.0,1503,0,0,0,1,24,0,1,32,0,3,32,0,1,1,0,21,34,0,1,81,35,31,35,28,33,1,0
802,304,38,5,0,0,0,0,1,0,0.0,2004,0,0,0,1,21,0,1,20,0,3,18,0,0,0,0,12,13,0,1,64,21,20,21,19,21,1,0
803,728,7,3,0,1,1,1,1,0,0.0,1003,0,0,0,1,36,0,1,31,0,3,35,0,1,1,0,24,34,0,1,80,31,29,31,27,31,1,0
804,970,100,0,1,1,1,0,1,0,0.0,1003,0,0,0,1,18,0,1,19,0,3,23,0,0,0,0,24,33,0,1,78,23,22,23,24,29,1,0
805,172,18,4,1,0,1,0,1,0,0.0,1003,0,0,0,1,19,0,1,29,0,3,28,0,1,1,0,24,32,0,1,79,29,28,29,27,29,1,0
806,604,73,4,0,0,0,1,1,0,0.0,1004,0,0,0,1,21,0,1,20,0,3,21,0,0,0,0,21,33,0,1,79,20,19,20,18,23,1,0
807,478,15,4,0,0,1,1,0,0,0.0,1505,0,0,0,1,21,0,1,30,0,3,29,0,1,1,0,21,33,0,1,79,31,28,31,28,30,1,0
808,93,84,0,0,1,1,0,1,0,0.0,504,0,0,0,1,18,0,1,28,0,3,29,0,1,1,0,24,34,0,1,78,29,28,29,27,29,1,0
809,489,92,4,0,1,0,0,1,0,0.0,1035,0,0,0,1,17,0,1,28,0,3,29,0,1,1,0,24,34,0,1,78,29,28,29,27,29,1,0
810,440,78,0,0,0,1,0,0,0,0.0,1004,0,0,0,1,24,0,1,31,0,3,33,0,1,1,0,24,33,0,1,81,32,30,32,27,32,1,0
811,417,67,2,1,0,0,1,1,0,0.0,6037,0,0,0,1,17,0,1,15,0,2,11,0,0,0,0,10,10,0,1,58,16,16,16,16,16,1,0
812,772,48,1,1,0,1,0,1,0,0.0,5505,0,0,0,1,18,0,1,15,0,2,11,0,0,0,0,10,10,0,1,59,17,17,17,17,17,1,0
813,382,56,0,0,1,1,0,0,0,0.0,1004,0,0,0,1,18,0,1,29,0,3,29,0,1,1,0,24,33,0,1,79,29,28,29,27,29,1,0
814,898,86,1,1,0,1,0,1,0,0.0,10528,0,0,0,1,18,0,1,15,0,2,11,0,0,0,0,10,10,0,1,59,18,18,18,18,18,1,0
815,856,10,1,1,1,0,0,0,0,0.0,2004,0,0,0,1,18,0,1,15,0,2,12,0,0,0,0,10,10,0,1,59,17,17,17,17,17,1,0
816,744,82,5,1,1,1,0,1,0,0.0,5505,0,0,0,1,18,0,1,15,0,2,12,0,0,0,0,10,10,0,1,59,18,18,18,18,18,1,0
817,794,78,0,0,0,1,1,1,0,0.0,1504,0,0,0,1,21,0,1,30,0,3,27,0,1,1,0,21,33,0,1,79,31,28,31,28,30,1,0
818,57,26,2,1,0,0,0,0,0,0.0,2504,0,0,0,1,21,0,1,20,0,3,21,0,0,0,0,13,15,0,1,64,20,19,20,18,20,1,0
819,987,76,3,0,1,0,1,0,0,0.0,2004,0,0,0,1,18,0,1,15,0,2,12,0,0,0,0,10,10,0,1,59,17,17,17,17,17,1,0
820,775,70,3,0,1,0,0,0,0,0.0,2004,0,0,0,1,19,0,1,16,0,3,16,0,0,0,0,11,11,0,1,62,18,18,18,18,18,1,0
821,36,67,1,0,0,0,1,1,0,0.0,2504,0,0,0,1,22,0,1,20,0,3,23,0,0,0,0,13,14,0,1,64,20,19,20,18,20,1,0
822,740,69,5,1,1,0,0,0,0,0.0,4043,0,0,0,1,18,0,1,15,0,2,11,0,0,0,0,10,10,0,1,59,18,18,18,18,18,1,0
823,884,37,4,1,0,1,0,0,0,0.0,1004,0,0,0,1,21,0,1,30,0,3,29,0,1,1,0,21,33,0,1,79,31,28,31,28,30,1,0
824,181,15,5,0,0,1,0,0,0,0.0,2504,0,0,0,1,21,0,1,21,0,3,20,0,0,0,0,16,20,0,1,76,21,20,21,22,24,1,0
825,473,73,1,1,1,1,0,0,0,0.0,1003,0,0,0,1,18,0,1,29,0,3,28,0,1,1,0,24,32,0,1,79,29,28,29,27,29,1,0
826,575,93,1,1,0,1,0,1,0,0.0,7506,0,0,0,1,16,0,1,15,0,2,11,0,0,0,0,9,9,0,1,58,16,16,16,16,16,1,0
827,511,28,2,0,1,0,0,0,0,0.0,4005,0,0,0,1,18,0,1,15,0,2,11,0,0,0,0,11,11,0,1,59,17,17,17,17,17,1,0
828,293,48,1,1,0,1,0,1,0,0.0,3505,0,0,0,1,17,0,1,16,0,3,15,0,0,0,0,11,11,0,1,59,19,19,19,19,19,1,0
829,247,49,0,1,1,1,0,1,0,0.0,1004,0,0,0,1,18,0,1,29,0,3,29,0,1,1,0,24,33,0,1,79,29,28,29,27,29,1,0
830,17,55,2,1,0,0,0,0,0,0.0,3005,0,0,0,1,22,0,1,29,0,3,28,0,1,1,0,21,33,0,1,79,31,28,31,28,30,1,0
831,580,89,4,0,0,1,0,1,0,0.0,1004,0,0,0,1,24,0,1,32,0,3,32,0,1,1,0,21,34,0,1,81,35,31,35,28,33,1,0
832,665,19,4,0,1,0,1,0,0,0.0,1004,0,0,0,1,20,0,1,29,0,3,29,0,1,1,0,24,33,0,1,79,29,28,29,27,29,1,0
833,529,2,4,0,0,1,0,0,0,0.0,1005,0,0,0,1,21,0,1,30,0,3,29,0,1,1,0,21,33,0,1,79,31,28,31,28,30,1,0
834,26,33,3,0,1,0,0,0,0,0.0,1004,0,0,0,1,18,0,1,29,0,3,29,0,1,1,0,24,33,0,1,79,29,28,29,27,29,1,0
835,131,39,0,0,0,0,1,0,0,0.0,1004,0,0,0,1,21,0,1,30,0,3,29,0,1,1,0,21,33,0,1,79,31,28,31,28,30,1,0
836,867,91,4,1,1,0,0,1,0,0.0,1004,0,0,0,1,18,0,1,27,0,3,31,0,0,0,0,24,33,0,1,79,29,28,29,27,29,1,0
837,495,36,0,1,0,0,0,1,0,0.0,2004,0,0,0,1,21,0,1,20,0,3,19,0,0,0,0,18,25,0,1,76,21,20,21,22,24,1,0
838,195,96,3,1,0,0,0,1,0,0.0,3004,0,0,0,1,21,0,1,18,0,3,18,0,0,0,0,12,12,0,1,61,20,19,20,17,19,1,0
839,844,49,3,1,1,1,0,1,0,0.0,2004,0,0,0,1,18,0,1,15,0,2,12,0,0,0,0,11,11,0,1,59,18,18,18,18,18,1,0
840,980,2,5,0,1,0,1,1,0,0.0,2004,0,0,0,1,31,0,1,30,0,3,32,0,1,1,0,24,34,0,1,80,33,31,33,27,32,1,0
841,316,2,2,0,0,0,0,0,0,0.0,3005,0,0,0,1,20,0,1,20,0,3,20,0,0,0,0,13,15,0,1,64,20,19,20,18,20,1,0
842,598,18,3,1,1,1,0,1,0,0.0,1007,0,0,0,1,17,0,1,28,0,3,30,0,1,1,0,24,34,0,1,78,29,28,29,27,29,1,0
843,282,72,2,0,0,0,1,0,0,0.0,6505,0,0,0,1,21,0,1,18,0,3,20,0,0,0,0,12,13,0,1,61,20,19,20,18,20,1,0
844,929,38,1,1,0,0,1,0,0,0.0,6031,0,0,0,1,21,0,1,18,0,3,18,0,0,0,0,12,13,0,1,61,19,18,19,17,19,1,0
845,210,72,0,0,1,1,0,1,0,0.0,1003,0,0,0,1,18,0,1,29,0,3,31,0,1,1,0,24,33,0,1,78,29,28,29,27,29,1,0
846,399,31,0,1,0,1,1,1,0,0.0,1004,0,0,0,1,20,0,1,27,0,3,25,0,0,0,0,21,33,0,1,79,31,28,31,28,30,1,0
847,609,49,0,1,0,0,0,1,0,0.0,1004,0,0,0,1,21,0,1,30,0,3,29,0,1,1,0,21,33,0,1,79,31,28,31,28,30,1,0
848,634,89,2,1,1,1,1,0,0,0.0,3532,0,0,0,1,21,0,1,20,0,3,17,0,0,0,0,12,14,0,1,63,20,19,20,18,20,1,0
849,914,71,5,1,1,0,1,0,0,0.0,4505,0,0,0,1,18,0,1,15,0,2,12,0,0,0,0,10,10,0,1,59,18,18,18,18,18,1,0
850,9,96,1,1,1,1,1,0,0,0.0,1004,0,0,0,1,24,0,1,31,0,3,37,0,1,1,0,24,34,0,1,81,34,32,34,29,34,1,0
851,967,70,5,1,0,0,1,1,0,0.0,5519,0,0,0,1,18,0,1,15,0,2,11,0,0,0,0,10,10,0,1,59,19,19,19,19,19,1,0
852,476,85,3,0,1,1,0,1,0,0.0,2507,0,0,0,1,18,0,1,24,0,3,26,0,0,0,0,23,32,0,1,75,27,25,27,24,26,1,0
853,387,70,2,1,0,1,1,0,0,0.0,4005,0,0,0,1,21,0,1,20,0,3,17,0,0,0,0,12,14,0,1,63,20,19,20,18,20,1,0
854,759,83,0,1,1,0,0,1,0,0.0,1004,0,0,0,1,23,0,1,29,0,3,32,0,1,1,0,24,33,0,1,78,29,28,29,27,29,1,0
855,917,58,0,0,0,1,1,0,0,0.0,1504,0,0,0,1,21,0,1,30,0,3,28,0,1,1,0,21,33,0,1,79,31,28,31,28,30,1,0
856,821,21,0,0,1,0,0,0,0,0.0,503,0,0,0,1,18,0,1,29,0,3,29,0,1,1,0,24,33,0,1,79,29,28,29,27,29,1,0
857,753,100,3,0,1,1,0,0,0,0.0,1004,0,0,0,1,32,0,1,32,0,3,33,0,1,1,0,21,34,0,1,81,33,31,33,28,32,1,0
858,791,78,1,0,1,0,0,1,0,0.0,9006,0,0,0,1,18,0,1,15,0,2,12,0,0,0,0,10,10,0,1,59,17,17,17,17,17,1,0
859,497,2,0,0,1,0,1,0,0,0.0,1004,0,0,0,1,18,0,1,29,0,3,30,0,1,1,0,24,33,0,1,79,29,28,29,27,29,1,0
860,808,60,0,1,0,1,1,1,0,0.0,1003,0,0,0,1,18,0,1,29,0,3,28,0,1,1,0,24,32,0,1,79,29,28,29,27,29,1,0
861,78,46,4,1,1,1,1,0,0,0.0,1004,0,0,0,1,18,0,1,29,0,3,29,0,1,1,0,24,33,0,1,78,29,28,29,27,29,1,0
862,432,35,3,0,0,1,1,0,0,0.0,1010,0,0,0,1,21,0,1,27,0,3,26,0,0,0,0,21,33,0,1,79,28,25,28,28,30,1,0
863,509,97,5,1,1,0,0,1,0,0.0,4032,0,0,0,1,20,0,1,18,0,3,16,0,0,0,0,11,11,0,1,62,19,19,19,19,19,1,0
864,211,41,3,1,0,0,0,0,0,0.0,2505,0,0,0,1,26,0,1,22,0,3,23,0,0,0,0,13,16,0,1,66,25,23,25,18,23,1,0
865,282,70,4,0,0,0,0,1,0,0.0,1504,0,0,0,1,21,0,1,30,0,3,29,0,1,1,0,21,33,0,1,79,31,28,31,28,30,1,0
866,807,45,0,1,1,0,1,1,0,0.0,1004,0,0,0,1,42,0,1,38,0,4,48,0,1,2,0,28,50,0,1,91,41,39,41,34,40,1,0
867,917,46,0,0,1,1,1,1,0,0.0,1003,0,0,0,1,27,0,1,27,0,3,28,0,1,1,0,24,34,0,1,78,29,28,29,27,29,1,0
868,629,26,4,1,1,0,1,0,0,0.0,1005,0,0,0,1,18,0,1,29,0,3,29,0,1,1,0,24,33,0,1,79,29,28,29,27,29,1,0
869,141,85,5,0,0,0,0,1,0,0.0,3004,0,0,0,1,20,0,1,18,0,3,17,0,0,0,0,12,14,0,1,61,20,19,20,18,20,1,0
870,381,67,0,1,1,0,0,0,0,0.0,1003,0,0,0,1,24,0,1,27,0,3,28,0,1,1,0,24,34,0,1,78,30,29,30,27,29,1,0
871,391,55,4,0,0,1,1,0,0,0.0,1004,0,0,0,1,21,0,1,30,0,3,28,0,1,1,0,21,33,0,1,79,31,28,31,28,30,1,0
872,522,89,3,1,0,0,0,1,0,0.0,2006,0,0,0,1,18,0,1,16,0,3,16,0,0,0,0,11,11,0,1,59,17,17,17,17,17,1,0
873,909,48,2,0,1,1,0,0,0,0.0,1003,0,0,0,1,18,0,1,29,0,3,28,0,1,1,0,24,32,0,1,79,29,28,29,27,29,1,0
874,682,24,3,0,1,0,1,0,0,0.0,2004,0,0,0,1,18,0,1,28,0,3,28,0,1,1,0,24,33,0,1,78,30,29,30,27,29,1,0
875,534,0,1,0,0,0,1,0,0,0.0,1004,0,0,0,1,21,0,1,30,0,3,29,0,1,1,0,21,33,0,1,79,31,28,31,28,30,1,0
876,781,78,1,0,0,1,1,1,0,0.0,10007,0,0,0,1,21,0,1,18,0,3,19,0,0,0,0,12,13,0,1,61,19,18,19,17,19,1,0
877,462,96,3,0,1,0,1,1,0,0.0,2004,0,0,0,1,17,0,1,18,0,3,17,0,0,0,0,12,12,0,1,62,18,18,18,18,18,1,0
878,227,16,4,0,0,1,0,1,0,0.0,2504,0,0,0,1,21,0,1,20,0,3,20,0,0,0,0,14,18,0,1,76,20,19,20,18,21,1,0
879,803,32,3,0,1,1,1,1,0,0.0,2004,0,0,0,1,18,0,1,17,0,3,19,0,0,0,0,16,18,0,1,70,24,22,24,21,23,1,0
880,426,56,0,1,0,1,0,1,0,0.0,3005,0,0,0,1,21,0,1,20,0,3,18,0,0,0,0,14,18,0,1,76,20,19,20,19,23,1,0
881,297,15,5,1,1,0,1,1,0,0.0,2004,0,0,0,1,34,0,1,26,0,3,27,0,0,0,0,23,32,0,1,76,30,27,30,24,29,1,0
882,810,2,1,1,1,0,1,1,0,0.0,2004,0,0,0,1,22,0,1,28,0,3,31,0,1,1,0,24,33,0,1,78,29,28,29,28,29,1,0
883,412,23,1,1,1,0,0,0,0,0.0,2504,0,0,0,1,17,0,1,18,0,3,16,0,0,0,0,11,11,0,1,62,18,18,18,18,18,1,0
884,189,85,0,1,1,0,1,1,0,0.0,1009,0,0,0,1,29,0,1,28,0,3,30,0,1,1,0,20,27,0,1,79,29,28,29,27,29,1,0
885,992,66,0,0,1,1,0,1,0,0.0,1004,0,0,0,1,17,0,1,28,0,3,27,0,1,1,0,24,34,0,1,78,29,28,29,27,29,1,0
886,627,26,5,0,1,1,1,0,0,0.0,2005,0,0,0,1,62,0,1,50,0,4,68,0,1,12,0,28,57,0,1,103,67,62,67,43,57,1,0
887,344,37,4,1,1,0,1,1,0,0.0,1003,0,0,0,1,16,0,1,28,0,3,30,0,1,1,0,24,34,0,1,78,29,28,29,27,29,1,0
888,426,26,4,0,0,1,1,1,0,0.0,2504,0,0,0,1,21,0,1,20,0,3,20,0,0,0,0,14,16,0,1,72,20,19,20,18,20,1,0
889,134,53,2,0,1,0,1,1,0,0.0,2503,0,0,0,1,22,0,1,20,0,3,21,0,0,0,0,13,13,0,1,64,20,19,20,18,20,1,0
890,418,17,3,0,0,1,0,1,0,0.0,2004,0,0,0,1,22,0,1,22,0,3,25,0,0,0,0,18,26,0,1,76,24,23,24,24,26,1,0
891,249,65,2,1,1,0,1,0,0,0.0,5004,0,0,0,1,18,0,1,15,0,2,12,0,0,0,0,10,10,0,1,59,17,17,17,17,17,1,0
892,92,59,2,0,1,0,1,0,0,0.0,2503,0,0,0,1,18,0,1,16,0,3,16,0,0,0,0,11,11,0,1,59,17,17,17,17,17,1,0
893,403,92,3,0,0,1,0,0,0,0.0,1005,0,0,0,1,21,0,1,30,0,3,28,0,1,1,0,21,33,0,1,79,31,28,31,28,30,1,0
894,942,2,4,0,1,0,1,1,0,0.0,1003,0,0,0,1,18,0,1,29,0,3,30,0,1,1,0,24,33,0,1,79,29,28,29,27,29,1,0
895,190,90,5,0,0,0,1,1,0,0.0,3504,0,0,0,1,21,0,1,20,0,2,16,0,0,0,0,10,12,0,1,64,20,19,20,18,20,1,0
896,564,98,4,0,1,0,1,0,0,0.0,1004,0,0,0,1,30,0,1,25,0,3,28,0,0,0,0,24,35,0,1,80,28,26,28,27,31,1,0
897,192,59,2,0,1,1,0,0,0,0.0,1003,0,0,0,1,32,0,1,27,0,3,28,0,1,1,0,24,34,0,1,78,29,28,29,27,29,1,0
898,688,66,4,0,1,0,0,0,0,0.0,1003,0,0,0,1,18,0,1,29,0,3,30,0,1,1,0,24,33,0,1,79,29,28,29,27,29,1,0
899,347,4,1,0,0,1,1,0,0,0.0,2506,0,0,0,1,21,0,1,20,0,3,19,0,0,0,0,13,15,0,1,64,20,19,20,18,20,1,0
900,67,56,0,1,0,1,0,1,0,0.0,1504,0,0,0,1,21,0,1,30,0,3,29,0,1,1,0,21,33,0,1,79,31,28,31,28,30,1,0
901,314,77,5,1,1,1,0,1,0,0.0,2504,0,0,0,1,24,0,1,24,0,3,24,0,0,0,0,23,27,0,1,74,27,26,27,26,27,1,0
902,358,78,4,0,0,0,1,0,0,0.0,1004,0,0,0,1,21,0,1,30,0,3,29,0,1,1,0,21,33,0,1,79,31,28,31,28,30,1,0
903,833,70,4,0,1,1,1,0,0,0.0,1003,0,0,0,1,18,0,1,28,0,3,28,0,1,1,0,24,34,0,1,78,29,28,29,27,29,1,0
904,550,24,5,1,0,0,1,1,0,0.0,2504,0,0,0,1,22,0,1,18,0,3,17,0,0,0,0,12,12,0,1,64,20,19,20,18,20,1,0
905,518,31,2,0,1,0,1,1,0,0.0,4005,0,0,0,1,17,0,1,15,0,2,12,0,0,0,0,10,10,0,1,59,16,16,16,16,16,1,0
906,661,86,1,0,0,0,0,1,0,0.0,8010,0,0,0,1,21,0,1,18,0,3,19,0,0,0,0,12,13,0,1,61,19,18,19,17,19,1,0
907,388,89,0,1,0,0,1,0,0,0.0,4506,0,0,0,1,52,0,1,43,0,4,59,0,1,4,0,29,59,0,1,94,55,49,55,40,47,1,0
908,106,69,2,0,0,1,1,1,0,0.0,4005,0,0,0,1,22,0,1,20,0,3,21,0,0,0,0,13,14,0,1,64,20,19,20,18,20,1,0
909,711,20,5,1,0,0,1,0,0,0.0,2504,0,0,0,1,21,0,1,20,0,3,19,0,0,0,0,12,13,0,1,64,21,20,21,19,21,1,0
910,85,45,0,0,1,1,0,1,0,0.0,1003,0,0,0,1,18,0,1,29,0,3,30,0,1,1,0,24,33,0,1,79,29,28,29,27,29,1,0
911,128,52,3,0,0,1,0,1,0,0.0,2505,0,0,0,1,26,0,1,22,0,3,25,0,0,0,0,16,24,0,1,78,25,23,25,22,29,1,0
912,382,45,1,0,0,0,1,0,0,0.0,3504,0,0,0,1,21,0,1,18,0,3,19,0,0,0,0,13,13,0,1,61,19,18,19,17,19,1,0
913,537,47,3,1,0,1,1,0,0,0.0,3004,0,0,0,1,21,0,1,19,0,3,18,0,0,0,0,13,15,0,1,64,20,19,20,18,20,1,0
914,693,34,1,0,1,1,0,0,0,0.0,1003,0,0,0,1,21,0,1,30,0,3,27,0,1,1,0,21,33,0,1,79,31,28,31,28,30,1,0
915,841,37,3,1,0,1,1,0,0,0.0,2504,0,0,0,1,21,0,1,20,0,3,19,0,0,0,0,13,15,0,1,64,20,19,20,18,20,1,0
916,616,48,0,0,1,0,0,1,0,0.0,1003,0,0,0,1,18,0,1,29,0,3,29,0,1,1,0,24,33,0,1,79,29,28,29,27,29,1,0
917,358,81,2,1,0,0,1,1,0,0.0,7006,0,0,0,1,17,0,1,15,0,2,11,0,0,0,0,10,10,0,1,58,16,16,16,16,16,1,0
918,641,17,5,1,1,1,1,1,0,0.0,2005,0,0,0,1,17,0,1,15,0,2,11,0,0,0,0,10,10,0,1,59,17,17,17,17,17,1,0
919,536,53,4,1,0,1,0,1,0,0.0,1004,0,0,0,1,21,0,1,30,0,3,29,0,1,1,0,21,33,0,1,79,31,28,31,28,30,1,0
920,905,60,2,0,1,0,0,0,0,0.0,12006,0,0,0,1,18,0,1,15,0,2,12,0,0,0,0,10,10,0,1,59,18,18,18,18,18,1,0
921,163,12,1,1,0,0,0,1,0,0.0,2504,0,0,0,1,21,0,1,20,0,3,20,0,0,0,0,13,15,0,1,64,21,20,21,19,21,1,0
922,653,78,3,1,0,0,0,1,0,0.0,2504,0,0,0,1,20,0,1,20,0,3,17,0,0,0,0,12,14,0,1,64,20,19,20,18,20,1,0
923,741,71,5,1,1,1,1,1,0,0.0,4504,0,0,0,1,17,0,1,15,0,2,11,0,0,0,0,10,10,0,1,60,15,15,15,15,15,1,0
924,893,26,0,1,0,0,1,1,0,0.0,1504,0,0,0,1,24,0,1,32,0,3,32,0,1,1,0,21,34,0,1,81,33,29,33,28,32,1,0
925,618,7,0,1,1,1,0,1,0,0.0,1003,0,0,0,1,18,0,1,29,0,3,30,0,1,1,0,24,33,0,1,79,30,29,30,27,29,1,0
926,700,43,2,1,0,1,1,0,0,0.0,3504,0,0,0,1,21,0,1,19,0,3,18,0,0,0,0,12,14,0,1,62,20,19,20,18,20,1,0
927,56,78,5,0,0,0,0,0,0,0.0,2004,0,0,0,1,18,0,1,18,0,3,16,0,0,0,0,11,11,0,1,62,19,19,19,19,19,1,0
928,297,88,2,0,1,0,0,0,0,0.0,7008,0,0,0,1,22,0,1,18,0,3,17,0,0,0,0,11,11,0,1,61,19,18,19,18,19,1,0
929,515,15,1,1,0,1,1,1,0,0.0,2505,0,0,0,1,21,0,1,19,0,3,18,0,0,0,0,12,13,0,1,62,20,19,20,18,20,1,0
930,962,66,3,0,1,1,0,0,0,0.0,1004,0,0,0,1,22,0,1,30,0,3,30,0,1,1,0,21,29,0,1,79,33,30,33,29,31,1,0
931,144,62,3,1,0,0,0,0,0,0.0,2504,0,0,0,1,20,0,1,20,0,3,20,0,0,0,0,13,15,0,1,64,20,19,20,18,20,1,0
932,248,74,3,1,1,1,0,0,0,0.0,1004,0,0,0,1,48,0,1,42,0,4,57,0,1,2,0,29,52,0,1,92,52,49,52,40,47,1,0
933,51,82,2,0,1,0,1,0,0,0.0,2509,0,0,0,1,18,0,1,16,0,3,16,0,0,0,0,11,11,0,1,59,19,19,19,18,18,1,0
934,191,57,2,1,0,1,1,0,0,0.0,2004,0,0,0,1,21,0,1,20,0,3,21,0,0,0,0,13,15,0,1,64,20,19,20,18,20,1,0
935,128,94,0,1,1,0,0,0,0,0.0,503,0,0,0,1,18,0,1,29,0,3,29,0,1,1,0,24,33,0,1,79,29,28,29,27,29,1,0
936,383,97,1,1,1,1,1,1,0,0.0,7006,0,0,0,1,18,0,1,15,0,2,11,0,0,0,0,10,10,0,1,59,17,17,17,17,17,1,0
937,514,46,3,0,1,0,0,0,0,0.0,2004,0,0,0,1,18,0,1,22,0,3,21,0,0,0,0,16,19,0,1,70,24,22,24,21,23,1,0
938,417,77,0,1,1,0,1,0,0,0.0,503,0,0,0,1,24,0,1,29,0,3,29,0,1,1,0,24,33,0,1,80,29,28,29,27,29,1,0
939,239,95,0,0,0,0,0,1,0,0.0,1003,0,0,0,1,21,0,1,30,0,3,29,0,1,1,0,21,33,0,1,79,31,28,31,28,30,1,0
940,398,12,2,1,1,0,0,0,0,0.0,2504,0,0,0,1,18,0,1,18,0,3,17,0,0,0,0,12,12,0,1,62,19,19,19,19,19,1,0
941,873,64,0,0,1,1,0,1,0,0.0,1004,0,0,0,1,18,0,1,28,0,3,29,0,1,1,0,24,34,0,1,78,29,28,29,27,29,1,0
942,697,50,2,0,1,1,1,1,0,0.0,10507,0,0,0,1,18,0,1,15,0,2,12,0,0,0,0,10,10,0,1,59,17,17,17,17,17,1,0
943,472,68,0,1,1,1,1,0,0,0.0,1004,0,0,0,1,20,0,1,29,0,3,29,0,1,1,0,24,33,0,1,79,29,28,29,27,29,1,0
944,62,72,4,0,1,1,1,0,0,0.0,1004,0,0,0,1,27,0,1,23,0,3,26,0,0,0,0,24,33,0,1,79,24,23,24,27,29,1,0
945,307,24,1,0,1,1,0,0,0,0.0,1004,0,0,0,1,49,0,1,42,0,4,57,0,1,2,0,27,47,0,1,93,54,50,54,40,49,1,0
946,87,52,3,1,0,1,1,0,0,0.0,1005,0,0,0,1,21,0,1,30,0,3,29,0,1,1,0,21,33,0,1,79,31,28,31,28,30,1,0
947,79,82,2,0,0,1,1,1,0,0.0,4005,0,0,0,1,21,0,1,18,0,3,19,0,0,0,0,12,13,0,1,61,19,18,19,17,19,1,0
948,467,30,3,1,1,0,0,1,0,0.0,2004,0,0,0,1,17,0,1,28,0,3,29,0,1,1,0,24,33,0,1,78,29,28,29,27,29,1,0
949,183,51,3,0,1,0,1,1,0,0.0,2004,0,0,0,1,21,0,1,28,0,3,30,0,1,1,0,24,33,0,1,78,30,29,30,27,29,1,0
950,958,2,5,0,0,0,1,0,0,0.0,2504,0,0,0,1,20,0,1,20,0,3,20,0,0,0,0,13,15,0,1,64,20,19,20,18,20,1,0
951,660,84,3,0,0,0,0,1,0,0.0,2505,0,0,0,1,20,0,1,20,0,3,17,0,0,0,0,12,14,0,1,64,21,20,21,18,20,1,0
952,352,39,4,1,0,1,0,0,0,0.0,2504,0,0,0,1,21,0,1,30,0,3,29,0,1,1,0,21,33,0,1,79,31,28,31,28,30,1,0
953,862,35,5,1,1,0,0,1,0,0.0,3004,0,0,0,1,18,0,1,16,0,3,15,0,0,0,0,11,11,0,1,59,19,19,19,19,19,1,0
954,208,69,3,1,0,1,0,0,0,0.0,1504,0,0,0,1,28,0,1,32,0,3,32,0,1,1,0,21,34,0,1,81,33,29,33,28,32,1,0
955,912,41,5,0,1,1,1,1,0,0.0,4004,0,0,0,1,17,0,1,15,0,2,12,0,0,0,0,10,10,0,1,59,16,16,16,18,18,1,0
956,254,74,1,1,1,1,0,1,0,0.0,3505,0,0,0,1,18,0,1,22,0,3,21,0,0,0,0,15,15,0,1,70,24,23,24,21,23,1,0
957,549,97,2,0,1,1,0,1,0,0.0,11507,0,0,0,1,18,0,1,15,0,2,12,0,0,0,0,10,10,0,1,59,17,17,17,17,17,1,0
958,19,80,4,1,0,1,0,0,0,0.0,1004,0,0,0,1,24,0,1,32,0,3,31,0,1,1,0,21,34,0,1,81,35,31,35,28,33,1,0
959,838,100,4,1,1,0,0,1,0,0.0,1004,0,0,0,1,21,0,1,28,0,3,29,0,1,1,0,24,34,0,1,78,29,28,29,27,29,1,0
960,641,47,0,0,1,1,0,1,0,0.0,1007,0,0,0,1,18,0,1,29,0,3,30,0,1,1,0,24,33,0,1,79,29,28,29,27,29,1,0
961,108,39,5,1,0,0,1,1,0,0.0,3005,0,0,0,1,20,0,1,18,0,3,17,0,0,0,0,12,14,0,1,61,19,18,19,18,19,1,0
962,119,55,5,0,0,0,1,0,0,0.0,2505,0,0,0,1,20,0,1,20,0,3,21,0,0,0,0,13,15,0,1,64,20,19,20,18,20,1,0
963,191,66,2,0,0,0,1,1,0,0.0,4505,0,0,0,1,21,0,1,18,0,3,19,0,0,0,0,12,13,0,1,61,20,19,20,18,20,1,0
964,412,30,2,0,0,0,0,1,0,0.0,4504,0,0,0,1,21,0,1,18,0,3,19,0,0,0,0,12,13,0,1,64,20,19,20,18,20,1,0
965,334,57,1,0,1,0,1,0,0,0.0,4004,0,0,0,1,19,0,1,18,0,3,17,0,0,0,0,12,12,0,1,62,19,19,19,19,19,1,0
966,895,100,3,1,1,1,0,0,0,0.0,1004,0,0,0,1,21,0,1,30,0,3,29,0,1,1,0,21,33,0,1,79,31,28,31,28,30,1,0
967,534,68,4,1,0,1,0,0,0,0.0,2504,0,0,0,1,23,0,1,32,0,3,32,0,1,1,0,21,34,0,1,81,35,30,35,28,33,1,0
968,18,22,5,0,0,0,1,0,0,0.0,2505,0,0,0,1,20,0,1,21,0,3,22,0,0,0,0,20,32,0,1,76,24,23,24,24,27,1,0
969,333,34,3,0,1,0,0,1,0,0.0,2009,0,0,0,1,22,0,1,28,0,3,28,0,1,1,0,24,33,0,1,78,30,29,30,27,29,1,0
970,205,12,0,0,1,1,0,1,0,0.0,1003,0,0,0,1,18,0,1,29,0,3,30,0,1,1,0,24,33,0,1,79,29,28,29,27,29,1,0
971,27,37,1,1,0,0,0,0,0,0.0,2504,0,0,0,1,21,0,1,20,0,3,20,0,0,0,0,13,15,0,1,64,21,20,21,19,21,1,0
972,834,16,5,1,1,1,1,1,0,0.0,2003,0,0,0,1,18,0,1,18,0,3,17,0,0,0,0,12,12,0,1,62,20,20,20,20,20,1,0
973,111,44,1,1,1,1,0,0,0,0.0,1003,0,0,0,1,18,0,1,29,0,3,31,0,1,1,0,24,33,0,1,79,29,28,29,27,29,1,0
974,682,44,2,0,0,1,1,0,0,0.0,3005,0,0,0,1,21,0,1,20,0,3,18,0,0,0,0,12,14,0,1,63,20,19,20,18,20,1,0
975,542,10,1,1,0,1,0,0,0,0.0,1008,0,0,0,1,21,0,1,30,0,3,29,0,1,1,0,21,33,0,1,79,31,28,31,28,30,1,0
976,616,81,1,1,1,1,1,0,0,0.0,5505,0,0,0,1,61,0,1,49,0,5,69,0,1,9,0,31,61,0,1,98,74,66,74,41,52,1,0
977,617,24,2,0,1,1,1,0,0,0.0,2004,0,0,0,1,18,0,1,27,0,3,25,0,1,1,0,24,33,0,1,78,29,28,29,27,29,1,0
978,972,68,5,0,0,0,1,0,0,0.0,5505,0,0,0,1,18,0,1,15,0,2,11,0,0,0,0,10,10,0,1,59,17,17,17,17,17,1,0
979,812,86,5,1,0,0,0,1,0,0.0,5004,0,0,0,1,21,0,1,20,0,3,19,0,0,0,0,13,14,0,1,64,21,20,21,18,20,1,0
980,787,80,1,1,1,0,1,1,0,0.0,11547,0,0,0,1,18,0,1,15,0,2,12,0,0,0,0,10,10,0,1,59,17,17,17,17,17,1,0
981,35,96,0,0,0,1,0,1,0,0.0,1004,0,0,0,1,21,0,1,30,0,3,29,0,1,1,0,21,33,0,1,79,31,28,31,28,30,1,0
982,485,33,2,0,1,1,0,1,0,0.0,4005,0,0,0,1,18,0,1,15,0,2,11,0,0,0,0,10,10,0,1,59,21,21,21,21,21,1,0
983,237,92,0,0,1,0,1,1,0,0.0,1004,0,0,0,1,21,0,1,29,0,3,32,0,1,1,0,24,33,0,1,78,29,28,29,27,29,1,0
984,788,16,0,1,1,1,1,1,0,0.0,1004,0,0,0,1,18,0,1,29,0,3,30,0,1,1,0,24,33,0,1,79,29,28,29,27,29,1,0
985,112,68,5,1,1,1,1,1,0,0.0,2025,0,0,0,1,16,0,1,14,0,1,9,0,0,0,0,2,2,0,1,49,15,15,15,15,15,1,0
986,929,28,4,1,1,1,0,1,0,0.0,1003,0,0,0,1,21,0,1,29,0,3,30,0,1,1,0,24,33,0,1,79,29,28,29,27,29,1,0
987,769,46,4,1,0,0,0,1,0,0.0,1004,0,0,0,1,21,0,1,27,0,3,26,0,0,0,0,21,33,0,1,79,28,25,28,26,30,1,0
988,171,91,3,1,0,1,1,1,0,0.0,2504,0,0,0,1,21,0,1,20,0,3,19,0,0,0,0,13,15,0,1,64,20,19,20,18,20,1,0
989,229,62,2,0,1,0,0,0,0,0.0,4004,0,0,0,1,27,0,1,22,0,2,20,0,0,0,0,13,13,0,1,70,24,23,24,22,24,1,0
990,941,21,1,1,1,0,0,1,0,0.0,4006,0,0,0,1,18,0,1,16,0,3,16,0,0,0,0,11,11,0,1,59,17,17,17,17,17,1,0
991,828,93,0,1,0,0,0,1,0,0.0,1004,0,0,0,1,21,0,1,30,0,3,29,0,1,1,0,21,33,0,1,79,31,28,31,28,30,1,0
992,757,0,5,1,0,1,0,1,0,0.0,1004,0,0,0,1,21,0,1,27,0,3,26,0,0,0,0,21,33,0,1,79,31,28,31,28,30,1,0
993,180,17,2,1,1,1,1,1,0,0.0,2009,0,0,0,1,41,0,1,33,0,3,36,0,1,1,0,24,33,0,1,84,37,35,37,32,36,1,0
994,555,42,0,1,0,0,0,1,0,0.0,2505,0,0,0,1,21,0,1,30,0,3,29,0,1,1,0,21,33,0,1,79,31,28,31,28,30,1,0
995,708,90,5,0,0,0,0,0,0,0.0,5005,0,0,0,1,21,0,1,18,0,3,19,0,0,0,0,12,13,0,1,61,20,18,20,17,19,1,0
996,315,96,5,1,0,0,1,1,0,0.0,2504,0,0,0,1,23,0,1,20,0,3,18,0,0,0,0,12,12,0,1,64,21,20,21,19,21,1,0
997,201,72,4,1,0,1,0,0,0,0.0,1004,0,0,0,1,24,0,1,32,0,3,32,0,1,1,0,21,34,0,1,81,35,31,35,28,33,1,0
998,997,88,3,1,0,1,1,0,0,0.0,2004,0,0,0,1,21,0,1,20,0,3,18,0,0,0,0,13,15,0,1,64,20,19,20,18,20,1,0
999,9,49,1,1,0,0,1,0,0,0.0,2004,0,0,0,1,18,0,1,18,0,3,18,0,0,0,0,13,13,0,1,62,19,19,19,19,19,1,0
1000,218,39,5,0,1,1,0,0,0,0.0,1003,0,0,0,1,17,0,1,29,0,3,29,0,1,1,0,24,33,0,1,79,29,28,29,27,29,1,0
