COUNT,noiseFreqency,noiseStrength,noiseType,haltOneThread,timeoutTampering,sharedVarNoise,shared,nonVarNoise,arg1,testdimension,FITNESS,testDuration,CTexception,SBinterrupt,SHVARPAIR,SHVARPAIRF,SHVARPAIRT,DUPAIR,DUPAIRF,DUPAIRT,HBPAIR,HBPAIRF,HBPAIRT,AVIOTRIP,AVIOTRIPF,AVIOTRIPT,GOODLOCK,GOODLOCKF,GOODLOCKT,ERASER,ERASERF,ERASERT,GOLDILOCK,GOLDILOCKF,GOLDILOCKT,GOLDILOCKSC,GOLDILOCKSCT,CUMULCOUNT,CUMULBOT
1,473,92,0,0,0,0,1,0,3,0,0.0,6703,0,0,0,1,19,0,1,14,0,1,8,0,0,0,0,0,0,0,1,87,21,20,21,20,21,1,0
2,321,21,1,0,1,0,1,0,3,0,0.0,9030,0,0,0,1,21,0,1,17,0,1,8,0,0,0,0,0,0,0,1,130,22,21,22,21,22,1,0
3,428,39,0,0,1,1,1,0,5,0,0.0,7069,0,0,0,1,21,0,1,16,0,1,8,0,0,0,0,0,0,0,1,103,21,20,21,20,21,1,0
4,577,50,2,1,1,0,1,1,3,0,0.0,13552,0,0,0,1,22,0,1,17,0,1,8,0,0,0,0,0,0,0,1,141,22,21,22,21,22,1,0
5,75,24,2,1,0,1,0,0,4,0,0.0,7599,0,0,0,1,21,0,1,17,0,1,8,0,0,0,0,0,0,0,1,121,22,21,22,21,22,1,0
6,610,34,0,1,1,0,0,0,4,0,0.0,7041,0,0,0,1,21,0,1,17,0,1,8,0,0,0,0,0,0,0,1,161,22,21,22,21,22,1,0
7,593,25,1,1,1,0,1,0,5,0,0.0,12539,0,0,0,1,21,0,1,16,0,1,8,0,0,0,0,0,0,0,1,107,21,20,21,20,21,1,0
8,127,25,1,0,0,1,1,0,2,0,0.0,7042,0,0,0,1,20,0,1,17,0,1,8,0,0,0,0,0,0,0,1,158,22,21,22,21,22,1,0
9,489,91,3,0,0,1,1,0,6,0,0.0,6025,0,0,0,1,21,0,1,16,0,1,8,0,0,0,0,0,0,0,1,87,21,20,21,20,21,1,0
10,384,21,4,1,1,0,0,0,6,0,0.0,6081,0,0,0,1,14,0,1,14,0,1,9,0,0,0,0,0,0,0,1,104,20,20,20,20,20,1,0
11,8,45,0,0,0,0,1,1,4,0,0.0,6057,0,0,0,1,20,0,1,15,0,1,8,0,0,0,0,0,0,0,1,101,21,20,21,20,21,1,0
12,498,32,0,1,0,0,0,0,1,0,0.0,7029,0,0,0,1,21,0,1,17,0,1,8,0,0,0,0,0,0,0,1,140,22,21,22,21,22,1,0
13,21,73,2,1,0,0,0,0,4,0,0.0,8071,0,0,0,1,21,0,1,16,0,1,8,0,0,0,0,0,0,0,1,93,21,20,21,20,21,1,0
14,939,94,4,0,0,1,1,0,4,0,0.0,6560,0,0,0,1,20,0,1,16,0,1,8,0,0,0,0,0,0,0,1,92,21,20,21,20,21,1,0
15,866,70,3,1,0,0,1,0,6,0,0.0,9566,0,0,0,1,21,0,1,17,0,1,8,0,0,0,0,0,0,0,1,138,22,21,22,21,22,1,0
16,741,92,3,0,0,1,0,1,2,0,0.0,12039,0,0,0,1,22,0,1,17,0,1,8,0,0,0,0,0,0,0,1,163,22,21,22,22,25,1,0
17,299,74,2,1,0,1,1,0,5,0,0.0,6524,0,0,0,1,21,0,1,16,0,1,8,0,0,0,0,0,0,0,1,114,21,20,21,20,21,1,0
18,122,75,0,0,1,0,1,1,1,0,0.0,7040,0,0,0,1,21,0,1,16,0,1,8,0,0,0,0,0,0,0,1,103,21,20,21,20,21,1,0
19,961,17,2,1,1,1,1,0,5,0,0.0,7074,0,0,0,1,21,0,1,16,0,1,8,0,0,0,0,0,0,0,1,88,21,21,21,21,21,1,0
20,749,60,5,0,0,1,1,0,3,0,0.0,6064,0,0,0,1,21,0,1,16,0,1,8,0,0,0,0,0,0,0,1,90,21,20,21,20,21,1,0
21,377,29,4,1,0,1,0,0,5,0,0.0,8096,0,0,0,1,21,0,1,16,0,1,8,0,0,0,0,0,0,0,1,106,21,20,21,20,21,1,0
22,645,87,3,1,1,1,0,0,3,0,0.0,6015,0,0,0,1,21,0,1,16,0,1,8,0,0,0,0,0,0,0,1,107,21,20,21,20,21,1,0
23,904,88,5,1,0,0,1,0,4,0,0.0,14037,0,0,0,1,20,0,1,16,0,1,8,0,0,0,0,0,0,0,1,92,21,20,21,20,21,1,0
24,179,49,0,0,0,0,0,1,3,0,0.0,6538,0,0,0,1,21,0,1,16,0,1,8,0,0,0,0,0,0,0,1,107,21,20,21,20,21,1,0
25,936,95,1,0,0,1,1,1,4,0,0.0,13035,0,0,0,1,25,0,1,18,0,1,8,0,0,0,0,0,0,0,1,174,27,26,27,26,27,1,0
26,896,19,3,1,0,1,1,1,2,0,0.0,6026,0,0,0,1,21,0,1,17,0,1,8,0,0,0,0,0,0,0,1,149,22,21,22,21,22,1,0
27,267,0,2,1,0,0,1,1,2,0,0.0,6054,0,0,0,1,21,0,1,17,0,1,8,0,0,0,0,0,0,0,1,156,22,21,22,21,22,1,0
28,36,46,4,0,1,0,0,1,5,0,0.0,6050,0,0,0,1,21,0,1,16,0,1,8,0,0,0,0,0,0,0,1,107,21,20,21,20,21,1,0
29,186,70,3,0,0,0,1,1,6,0,0.0,8061,0,0,0,1,21,0,1,16,0,1,8,0,0,0,0,0,0,0,1,92,21,20,21,20,21,1,0
30,50,1,4,0,0,0,1,1,6,0,0.0,7028,0,0,0,1,22,0,1,17,0,1,8,0,0,0,0,0,0,0,1,156,22,21,22,21,22,1,0
31,975,82,1,0,0,0,1,0,1,0,0.0,14041,0,0,0,1,25,0,1,18,0,1,8,0,0,0,0,0,0,0,1,165,25,24,25,24,25,1,0
32,736,63,0,0,0,0,1,1,5,0,0.0,7038,0,0,0,1,21,0,1,16,0,1,8,0,0,0,0,0,0,0,1,107,21,20,21,20,21,1,0
33,203,65,0,1,1,1,1,0,6,0,0.0,8037,0,0,0,1,21,0,1,16,0,1,8,0,0,0,0,0,0,0,1,103,21,20,21,20,21,1,0
34,447,45,5,1,0,1,0,0,1,0,0.0,6586,0,0,0,1,19,0,1,16,0,1,8,0,0,0,0,0,0,0,1,90,21,20,21,20,21,1,0
35,100,63,1,0,0,0,0,0,2,0,0.0,9530,0,0,0,1,21,0,1,16,0,1,8,0,0,0,0,0,0,0,1,103,21,20,21,20,21,1,0
36,448,17,2,1,1,0,1,0,1,0,0.0,9516,0,0,0,1,12,0,1,13,0,1,8,0,0,0,0,0,0,0,1,103,21,20,21,20,21,1,0
37,853,52,1,0,1,1,1,1,1,0,0.0,13022,0,0,0,1,25,0,1,18,0,1,8,0,0,0,0,0,0,0,1,165,25,24,25,24,25,1,0
38,300,42,2,0,0,1,0,0,5,0,0.0,7022,0,0,0,1,21,0,1,16,0,1,8,0,0,0,0,0,0,0,1,108,21,20,21,20,22,1,0
39,87,1,3,1,1,1,1,0,1,0,0.0,6022,0,0,0,1,21,0,1,16,0,1,8,0,0,0,0,0,0,0,1,103,21,20,21,20,21,1,0
40,536,40,2,1,1,0,1,0,2,0,0.0,11522,0,0,0,1,22,0,1,17,0,1,8,0,0,0,0,0,0,0,1,134,22,21,22,21,22,1,0
41,350,24,0,0,1,0,1,1,4,0,0.0,6515,0,0,0,1,21,0,1,16,0,1,8,0,0,0,0,0,0,0,1,104,21,20,21,20,21,1,0
42,4,32,4,1,1,0,1,0,3,0,0.0,7032,0,0,0,1,21,0,1,17,0,1,8,0,0,0,0,0,0,0,1,158,22,21,22,21,22,1,0
43,55,96,4,0,1,1,0,1,5,0,0.0,6025,0,0,0,1,14,0,1,15,0,1,9,0,0,0,0,0,0,0,1,114,20,20,20,20,20,1,0
44,12,37,4,1,1,0,0,1,2,0,0.0,7032,0,0,0,1,18,0,1,13,0,1,8,0,0,0,0,0,0,0,1,98,18,17,18,17,18,1,0
45,997,19,2,1,0,0,0,1,4,0,0.0,11515,0,0,0,1,22,0,1,18,0,1,8,0,0,0,0,0,0,0,1,165,25,25,25,25,25,1,0
46,134,54,4,0,1,0,0,1,1,0,0.0,6531,0,0,0,1,21,0,1,16,0,1,8,0,0,0,0,0,0,0,1,89,21,20,21,20,21,1,0
47,596,5,4,0,0,1,0,1,6,0,0.0,7068,0,0,0,1,21,0,1,16,0,1,8,0,0,0,0,0,0,0,1,89,21,21,21,21,21,1,0
48,910,48,2,0,1,1,1,1,2,0,0.0,14023,0,0,0,1,25,0,1,18,0,1,8,0,0,0,0,0,0,0,1,174,27,26,27,26,27,1,0
49,352,73,5,0,0,1,0,1,4,0,0.0,11031,0,0,0,1,20,0,1,15,0,1,8,0,0,0,0,0,0,0,1,91,21,20,21,20,21,1,0
50,547,12,1,1,0,1,1,1,3,0,0.0,8547,0,0,0,1,21,0,1,16,0,1,8,0,0,0,0,0,0,0,1,104,21,20,21,20,21,1,0
51,375,3,1,0,0,0,1,1,2,0,0.0,7518,0,0,0,1,22,0,1,17,0,1,8,0,0,0,0,0,0,0,1,156,22,21,22,21,22,1,0
52,45,3,1,0,1,1,1,0,4,0,0.0,6518,0,0,0,1,20,0,1,16,0,1,8,0,0,0,0,0,0,0,1,118,22,21,22,21,22,1,0
53,990,85,2,1,0,1,1,0,6,0,0.0,7014,0,0,0,1,18,0,1,16,0,1,8,0,0,0,0,0,0,0,1,93,21,20,21,20,21,1,0
54,502,42,5,0,0,1,0,0,3,0,0.0,6021,0,0,0,1,21,0,1,16,0,1,8,0,0,0,0,0,0,0,1,87,21,20,21,20,21,1,0
55,134,26,3,0,0,0,1,0,3,0,0.0,6537,0,0,0,1,21,0,1,16,0,1,8,0,0,0,0,0,0,0,1,90,21,20,21,20,21,1,0
56,282,23,3,0,1,1,0,0,3,0,0.0,7531,0,0,0,1,22,0,1,17,0,1,8,0,0,0,0,0,0,0,1,138,22,21,22,21,22,1,0
57,312,44,4,0,0,1,0,1,6,0,0.0,7095,0,0,0,1,21,0,1,16,0,1,8,0,0,0,0,0,0,0,1,87,21,20,21,20,21,1,0
58,495,91,4,0,0,0,0,0,4,0,0.0,7037,0,0,0,1,21,0,1,16,0,1,8,0,0,0,0,0,0,0,1,104,21,20,21,20,21,1,0
59,188,5,2,0,0,1,0,1,4,0,0.0,8091,0,0,0,1,19,0,1,14,0,1,8,0,0,0,0,0,0,0,1,90,21,20,21,20,21,1,0
60,14,98,4,0,0,0,1,0,5,0,0.0,8057,0,0,0,1,21,0,1,16,0,1,8,0,0,0,0,0,0,0,1,104,21,20,21,20,21,1,0
61,682,20,3,1,0,1,1,1,6,0,0.0,7021,0,0,0,1,20,0,1,17,0,1,8,0,0,0,0,0,0,0,1,165,25,24,25,24,25,1,0
62,275,78,5,0,1,1,1,1,2,0,0.0,10044,0,0,0,1,21,0,1,16,0,1,8,0,0,0,0,0,0,0,1,103,21,20,21,20,21,1,0
63,924,79,4,1,0,0,0,1,4,0,0.0,5515,0,0,0,1,21,0,1,16,0,1,8,0,0,0,0,0,0,0,1,92,21,20,21,20,21,1,0
64,763,12,4,1,0,1,0,0,2,0,0.0,6013,0,0,0,1,21,0,1,16,0,1,8,0,0,0,0,0,0,0,1,101,21,20,21,20,21,1,0
65,634,37,4,0,0,0,1,1,1,0,0.0,6048,0,0,0,1,21,0,1,16,0,1,8,0,0,0,0,0,0,0,1,92,21,20,21,20,21,1,0
66,987,30,4,0,1,1,0,0,4,0,0.0,7041,0,0,0,1,20,0,1,15,0,1,9,0,0,0,0,0,0,0,1,108,21,21,21,21,21,1,0
67,241,49,4,1,0,0,0,1,2,0,0.0,6013,0,0,0,1,21,0,1,17,0,1,8,0,0,0,0,0,0,0,1,165,22,21,22,24,25,1,0
68,425,42,4,1,0,0,0,0,4,0,0.0,7028,0,0,0,1,17,0,1,13,0,1,8,0,0,0,0,0,0,0,1,99,18,17,18,17,18,1,0
69,787,65,0,1,1,0,1,0,4,0,0.0,7014,0,0,0,1,20,0,1,16,0,1,8,0,0,0,0,0,0,0,1,107,21,20,21,20,21,1,0
70,461,67,4,1,0,1,0,1,6,0,0.0,7038,0,0,0,1,22,0,1,17,0,1,8,0,0,0,0,0,0,0,1,124,22,21,22,21,22,1,0
71,966,19,2,1,1,1,1,1,6,0,0.0,11020,0,0,0,1,15,0,1,14,0,1,8,0,0,0,0,0,0,0,1,81,15,14,15,14,15,1,0
72,159,92,3,0,0,1,1,1,3,0,0.0,8044,0,0,0,1,22,0,1,17,0,1,8,0,0,0,0,0,0,0,1,120,22,21,22,21,22,1,0
73,300,16,1,0,1,1,1,1,3,0,0.0,8521,0,0,0,1,22,0,1,17,0,1,8,0,0,0,0,0,0,0,1,158,22,21,22,21,22,1,0
74,845,70,0,1,1,0,0,1,2,0,0.0,7530,0,0,0,1,20,0,1,17,0,1,8,0,0,0,0,0,0,0,1,144,22,21,22,21,22,1,0
75,306,0,3,0,1,0,1,1,2,0,0.0,6013,0,0,0,1,21,0,1,17,0,1,8,0,0,0,0,0,0,0,1,142,22,21,22,21,22,1,0
76,194,59,3,0,0,1,0,1,3,0,0.0,6535,0,0,0,1,14,0,1,13,0,1,8,0,0,0,0,0,0,0,1,87,14,14,14,14,20,1,0
77,354,84,4,0,0,0,1,0,1,0,0.0,6040,0,0,0,1,18,0,1,17,0,1,8,0,0,0,0,0,0,0,1,140,22,21,22,21,22,1,0
78,979,33,5,1,0,1,0,1,3,0,0.0,11038,0,0,0,1,25,0,1,23,0,1,8,0,0,0,0,1,1,0,1,188,36,35,36,35,36,1,0
79,922,7,4,1,0,0,0,0,4,0,0.0,7043,0,0,0,1,21,0,1,16,0,1,8,0,0,0,0,0,0,0,1,92,21,20,21,20,21,1,0
80,275,14,4,1,1,1,1,1,1,0,0.0,8069,0,0,0,1,19,0,1,15,0,1,8,0,0,0,0,0,0,0,1,158,21,20,21,21,22,1,0
81,528,27,4,0,0,0,0,1,6,0,0.0,7067,0,0,0,1,21,0,1,16,0,1,8,0,0,0,0,0,0,0,1,138,21,20,21,21,22,1,0
82,161,91,4,1,0,0,0,1,2,0,0.0,6066,0,0,0,1,21,0,1,17,0,1,8,0,0,0,0,0,0,0,1,123,22,21,22,21,22,1,0
83,100,54,4,1,1,1,0,1,4,0,0.0,7089,0,0,0,1,21,0,1,17,0,1,8,0,0,0,0,0,0,0,1,158,22,21,22,21,22,1,0
84,293,76,4,1,1,0,1,1,3,0,0.0,6013,0,0,0,1,21,0,1,16,0,1,8,0,0,0,0,0,0,0,1,93,21,20,21,20,21,1,0
85,854,7,1,0,0,0,1,1,6,0,0.0,8528,0,0,0,1,21,0,1,16,0,1,8,0,0,0,0,0,0,0,1,135,22,21,22,21,22,1,0
86,342,97,0,0,1,1,1,0,2,0,0.0,6037,0,0,0,1,21,0,1,17,0,1,8,0,0,0,0,0,0,0,1,124,22,21,22,21,22,1,0
87,710,5,1,0,0,1,1,1,4,0,0.0,7035,0,0,0,1,21,0,1,16,0,1,8,0,0,0,0,0,0,0,1,90,21,20,21,20,21,1,0
88,721,87,4,0,0,0,1,1,4,0,0.0,7031,0,0,0,1,21,0,1,16,0,1,8,0,0,0,0,0,0,0,1,125,21,20,21,21,22,1,0
89,977,80,2,0,0,1,0,1,6,0,1.0,12545,1,0,0,1,31,0,1,23,0,1,8,0,0,0,0,1,1,0,1,186,33,32,33,32,33,1,0
90,741,88,1,1,0,0,1,1,2,0,0.0,14026,0,0,0,1,21,0,1,16,0,1,8,0,0,0,0,0,0,0,1,103,21,20,21,20,21,1,0
91,269,14,2,1,0,1,0,0,6,0,0.0,6525,0,0,0,1,19,0,1,17,0,1,8,0,0,0,0,0,0,0,1,131,22,22,22,22,22,1,0
92,978,41,4,0,0,1,1,0,6,0,0.0,7029,0,0,0,1,20,0,1,16,0,1,8,0,0,0,0,0,0,0,1,107,21,20,21,20,21,1,0
93,797,48,0,1,0,0,0,0,1,0,0.0,6017,0,0,0,1,19,0,1,17,0,1,8,0,0,0,0,0,0,0,1,162,22,21,22,21,25,1,0
94,808,73,0,0,1,1,1,1,5,0,0.0,7062,0,0,0,1,21,0,1,16,0,1,8,0,0,0,0,0,0,0,1,124,21,20,21,20,21,1,0
95,656,90,4,0,0,0,1,1,2,0,0.0,6046,0,0,0,1,21,0,1,16,0,1,8,0,0,0,0,0,0,0,1,116,22,21,22,21,22,1,0
96,369,69,1,1,0,1,0,1,4,0,0.0,12526,0,0,0,1,17,0,1,13,0,1,8,0,0,0,0,0,0,0,1,140,21,20,21,20,21,1,0
97,738,61,1,1,0,1,1,1,3,0,0.0,12512,0,0,0,1,21,0,1,16,0,1,8,0,0,0,0,0,0,0,1,114,22,21,22,21,22,1,0
98,551,83,3,0,1,0,1,1,3,0,0.0,9529,0,0,0,1,21,0,1,16,0,1,8,0,0,0,0,0,0,0,1,94,21,20,21,20,21,1,0
99,408,77,2,0,0,1,0,1,3,0,0.0,13049,0,0,0,1,31,0,1,23,0,1,8,0,0,0,0,1,1,0,1,186,33,33,33,33,33,1,0
100,63,71,0,0,1,0,0,1,3,0,0.0,6513,0,0,0,1,21,0,1,16,0,1,8,0,0,0,0,0,0,0,1,89,21,20,21,20,21,1,0
101,95,39,4,1,0,1,0,0,2,0,0.0,5515,0,0,0,1,21,0,1,16,0,1,8,0,0,0,0,0,0,0,1,116,22,21,22,21,22,1,0
102,682,33,3,1,0,0,0,1,1,0,0.0,6531,0,0,0,1,21,0,1,17,0,1,8,0,0,0,0,0,0,0,1,149,22,21,22,21,22,1,0
103,822,45,4,1,1,0,0,1,6,0,0.0,7549,0,0,0,1,21,0,1,16,0,1,8,0,0,0,0,0,0,0,1,103,21,20,21,20,21,1,0
104,909,100,1,1,0,0,1,0,3,0,0.0,13015,0,0,0,1,24,0,1,17,0,1,8,0,0,0,0,0,0,0,1,164,24,23,24,23,24,1,0
105,380,15,5,0,1,1,0,0,5,0,0.0,6013,0,0,0,1,21,0,1,16,0,1,8,0,0,0,0,0,0,0,1,87,21,20,21,20,21,1,0
106,653,98,1,1,0,1,0,1,1,0,0.0,13559,0,0,0,1,22,0,1,18,0,1,8,0,0,0,0,0,0,0,1,165,25,24,25,24,25,1,0
107,101,65,3,0,1,0,1,1,1,0,0.0,5511,0,0,0,1,21,0,1,16,0,1,8,0,0,0,0,0,0,0,1,93,21,20,21,20,21,1,0
108,199,62,0,1,0,0,0,1,6,0,0.0,6013,0,0,0,1,14,0,1,14,0,1,9,0,0,0,0,0,0,0,1,103,20,20,20,20,20,1,0
109,811,70,2,1,1,0,0,1,3,0,0.0,15554,0,0,0,1,11,0,1,10,0,1,8,0,0,0,0,0,0,0,1,81,12,11,12,14,15,1,0
110,135,65,5,0,0,0,1,0,2,0,0.0,7534,0,0,0,1,21,0,1,16,0,1,8,0,0,0,0,0,0,0,1,87,21,20,21,20,21,1,0
111,944,53,2,1,0,1,0,0,6,0,0.0,6013,0,0,0,1,20,0,1,16,0,1,8,0,0,0,0,0,0,0,1,103,21,20,21,20,21,1,0
112,22,41,5,1,1,1,1,0,6,0,0.0,7033,0,0,0,1,20,0,1,18,0,1,8,0,0,0,0,0,0,0,1,165,25,24,25,24,25,1,0
113,177,17,0,1,1,1,1,1,2,0,0.0,7012,0,0,0,1,21,0,1,16,0,1,8,0,0,0,0,0,0,0,1,90,21,20,21,20,21,1,0
114,110,43,1,1,0,0,0,0,3,0,0.0,7514,0,0,0,1,14,0,1,14,0,1,8,0,0,0,0,0,0,0,1,85,15,14,15,14,15,1,0
115,205,50,3,0,0,1,0,0,2,0,0.0,7532,0,0,0,1,21,0,1,16,0,1,8,0,0,0,0,0,0,0,1,110,21,20,21,20,21,1,0
116,763,63,5,0,1,1,1,0,5,0,0.0,7064,0,0,0,1,21,0,1,16,0,1,8,0,0,0,0,0,0,0,1,89,21,20,21,20,21,1,0
117,588,20,4,0,0,0,0,1,5,0,0.0,7064,0,0,0,1,21,0,1,16,0,1,8,0,0,0,0,0,0,0,1,87,21,20,21,20,21,1,0
118,949,44,0,0,0,1,1,1,3,0,0.0,6593,0,0,0,1,20,0,1,16,0,1,8,0,0,0,0,0,0,0,1,103,21,20,21,20,21,1,0
119,527,43,2,1,0,1,1,1,3,0,0.0,12012,0,0,0,1,15,0,1,14,0,1,8,0,0,0,0,0,0,0,1,81,15,14,15,14,15,1,0
120,24,77,5,1,0,0,1,0,6,0,0.0,7062,0,0,0,1,21,0,1,16,0,1,8,0,0,0,0,0,0,0,1,87,21,20,21,20,21,1,0
121,639,68,0,1,1,1,0,1,1,0,0.0,6013,0,0,0,1,21,0,1,16,0,1,8,0,0,0,0,0,0,0,1,87,21,20,21,20,21,1,0
122,69,39,2,0,1,1,1,0,3,0,0.0,7045,0,0,0,1,21,0,1,16,0,1,8,0,0,0,0,0,0,0,1,103,21,20,21,20,21,1,0
123,71,3,0,0,1,1,0,0,2,0,0.0,6020,0,0,0,1,21,0,1,16,0,1,8,0,0,0,0,0,0,0,1,90,21,20,21,20,21,1,0
124,78,16,5,0,1,0,0,0,2,0,0.0,6019,0,0,0,1,20,0,1,16,0,1,8,0,0,0,0,0,0,0,1,105,21,20,21,20,21,1,0
125,975,20,3,1,0,0,0,1,1,0,0.0,7073,0,0,0,1,21,0,1,16,0,1,8,0,0,0,0,0,0,0,1,90,21,20,21,20,21,1,0
126,149,7,5,1,0,1,1,0,1,0,0.0,6056,0,0,0,1,21,0,1,16,0,1,8,0,0,0,0,0,0,0,1,105,21,20,21,20,21,1,0
127,125,84,4,1,0,0,1,0,2,0,0.0,6532,0,0,0,1,21,0,1,16,0,1,8,0,0,0,0,0,0,0,1,108,21,20,21,20,21,1,0
128,7,59,3,0,0,1,1,1,6,0,0.0,6520,0,0,0,1,21,0,1,17,0,1,8,0,0,0,0,0,0,0,1,158,22,21,22,21,22,1,0
129,339,70,0,0,1,0,0,1,6,0,0.0,6531,0,0,0,1,20,0,1,16,0,1,8,0,0,0,0,0,0,0,1,89,21,20,21,20,21,1,0
130,66,89,0,0,1,0,0,1,3,0,0.0,6037,0,0,0,1,21,0,1,17,0,1,8,0,0,0,0,0,0,0,1,143,22,21,22,21,22,1,0
131,469,40,3,0,0,0,0,1,5,0,0.0,7527,0,0,0,1,21,0,1,16,0,1,8,0,0,0,0,0,0,0,1,96,21,20,21,20,21,1,0
132,704,94,3,0,1,0,1,1,2,0,0.0,8551,0,0,0,1,21,0,1,17,0,1,8,0,0,0,0,0,0,0,1,164,22,21,22,21,22,1,0
133,695,52,0,0,0,0,0,0,3,0,0.0,7018,0,0,0,1,21,0,1,16,0,1,8,0,0,0,0,0,0,0,1,89,21,20,21,20,21,1,0
134,266,46,2,1,0,1,0,0,1,0,0.0,7061,0,0,0,1,21,0,1,16,0,1,8,0,0,0,0,0,0,0,1,87,21,20,21,20,21,1,0
135,94,17,1,0,1,0,1,0,3,0,0.0,6514,0,0,0,1,21,0,1,16,0,1,8,0,0,0,0,0,0,0,1,93,21,20,21,20,21,1,0
136,537,35,0,1,0,0,1,0,6,0,0.0,7558,0,0,0,1,21,0,1,16,0,1,8,0,0,0,0,0,0,0,1,107,21,21,21,21,21,1,0
137,308,56,3,1,1,1,0,0,3,0,0.0,7018,0,0,0,1,21,0,1,16,0,1,8,0,0,0,0,0,0,0,1,140,22,21,22,21,22,1,0
138,277,28,4,0,1,1,1,0,2,0,0.0,7559,0,0,0,1,21,0,1,16,0,1,8,0,0,0,0,0,0,0,1,124,21,20,21,20,21,1,0
139,473,82,1,1,0,1,1,0,6,0,0.0,7032,0,0,0,1,22,0,1,17,0,1,8,0,0,0,0,0,0,0,1,157,22,21,22,21,22,1,0
140,874,47,0,0,1,1,0,0,3,0,0.0,6029,0,0,0,1,20,0,1,15,0,1,8,0,0,0,0,0,0,0,1,92,21,20,21,20,21,1,0
141,77,14,3,0,0,1,1,1,3,0,0.0,6024,0,0,0,1,21,0,1,17,0,1,8,0,0,0,0,0,0,0,1,144,22,22,22,22,22,1,0
142,944,23,2,0,1,0,1,1,6,0,0.0,11523,0,0,0,1,21,0,1,17,0,1,8,0,0,0,0,0,0,0,1,141,22,21,22,21,22,1,0
143,753,29,0,0,1,1,0,0,6,0,0.0,6520,0,0,0,1,22,0,1,17,0,1,8,0,0,0,0,0,0,0,1,165,25,24,25,24,25,1,0
144,447,37,1,0,0,1,1,0,1,0,0.0,6018,0,0,0,1,21,0,1,17,0,1,8,0,0,0,0,0,0,0,1,158,22,21,22,21,22,1,0
145,843,91,5,0,1,0,0,0,5,0,0.0,13022,0,0,0,1,25,0,1,23,0,1,8,0,0,0,0,1,1,0,1,186,33,32,33,32,33,1,0
146,438,50,1,0,1,1,0,1,1,0,0.0,13592,0,0,0,1,22,0,1,17,0,1,8,0,0,0,0,0,0,0,1,165,22,21,22,24,25,1,0
147,162,78,1,1,0,1,0,0,1,0,0.0,6540,0,0,0,1,18,0,1,16,0,1,8,0,0,0,0,0,0,0,1,107,21,20,21,20,21,1,0
148,39,61,4,0,1,1,1,0,6,0,0.0,6015,0,0,0,1,19,0,1,16,0,1,8,0,0,0,0,0,0,0,1,87,21,20,21,20,21,1,0
149,758,25,4,0,1,1,1,1,1,0,0.0,6015,0,0,0,1,21,0,1,16,0,1,8,0,0,0,0,0,0,0,1,90,21,20,21,20,21,1,0
150,937,11,5,0,1,0,1,0,1,0,0.0,7015,0,0,0,1,21,0,1,17,0,1,8,0,0,0,0,0,0,0,1,145,22,21,22,21,22,1,0
151,188,95,0,1,1,0,1,1,2,0,0.0,6063,0,0,0,1,21,0,1,16,0,1,8,0,0,0,0,0,0,0,1,96,21,20,21,20,21,1,0
152,573,74,5,1,0,1,0,0,1,0,0.0,7015,0,0,0,1,21,0,1,17,0,1,8,0,0,0,0,0,0,0,1,156,22,21,22,21,22,1,0
153,779,47,1,1,0,0,0,0,6,0,0.0,11011,0,0,0,1,21,0,1,14,0,1,8,0,0,0,0,0,0,0,1,166,22,21,22,21,22,1,0
154,276,63,2,0,1,1,1,0,2,0,0.0,6012,0,0,0,1,21,0,1,16,0,1,8,0,0,0,0,0,0,0,1,114,21,20,21,21,22,1,0
155,715,88,4,0,0,0,0,0,6,0,0.0,5513,0,0,0,1,21,0,1,16,0,1,8,0,0,0,0,0,0,0,1,87,21,20,21,20,21,1,0
156,711,45,0,0,0,0,1,0,6,0,0.0,6516,0,0,0,1,21,0,1,16,0,1,8,0,0,0,0,0,0,0,1,92,21,20,21,20,21,1,0
157,437,29,5,0,0,0,1,0,6,0,0.0,8525,0,0,0,1,21,0,1,16,0,1,8,0,0,0,0,0,0,0,1,93,21,20,21,20,21,1,0
158,458,73,1,1,0,0,1,1,5,0,0.0,14024,0,0,0,1,31,0,1,23,0,1,8,0,0,0,0,1,1,0,1,188,33,32,33,32,33,1,0
159,40,64,0,0,0,0,1,0,3,0,0.0,7044,0,0,0,1,20,0,1,16,0,1,8,0,0,0,0,0,0,0,1,116,21,20,21,20,22,1,0
160,948,77,2,0,0,1,0,1,4,0,1.0,11512,1,0,0,1,31,0,1,23,0,1,8,0,0,0,0,1,1,0,1,186,33,32,33,32,33,1,0
161,669,87,2,0,0,0,0,1,4,0,0.0,13509,0,0,0,1,31,0,1,23,0,1,8,0,0,0,0,1,1,0,1,186,33,32,33,32,33,1,0
162,988,76,0,1,0,0,1,0,1,0,0.0,6016,0,0,0,1,21,0,1,16,0,1,8,0,0,0,0,0,0,0,1,92,21,20,21,20,21,1,0
163,229,81,5,0,0,0,1,0,4,0,0.0,9035,0,0,0,1,33,0,1,38,0,5,23,0,1,7,0,3,3,0,1,234,67,66,67,60,61,1,0
164,515,57,0,1,0,0,0,0,5,0,0.0,6053,0,0,0,1,20,0,1,16,0,1,8,0,0,0,0,0,0,0,1,107,21,20,21,20,21,1,0
165,606,18,5,1,1,1,1,1,1,0,0.0,7523,0,0,0,1,18,0,1,13,0,1,8,0,0,0,0,0,0,0,1,103,21,21,21,21,21,1,0
166,727,1,3,0,1,0,0,1,1,0,0.0,6522,0,0,0,1,20,0,1,16,0,1,8,0,0,0,0,0,0,0,1,105,21,20,21,20,21,1,0
167,505,62,3,1,1,0,1,0,5,0,0.0,8047,0,0,0,1,21,0,1,16,0,1,8,0,0,0,0,0,0,0,1,102,21,20,21,20,21,1,0
168,976,9,0,1,1,0,0,0,1,0,0.0,6028,0,0,0,1,22,0,1,17,0,1,8,0,0,0,0,0,0,0,1,158,22,21,22,21,22,1,0
169,269,11,2,1,0,1,1,1,3,0,0.0,8100,0,0,0,1,21,0,1,16,0,1,8,0,0,0,0,0,0,0,1,107,21,20,21,20,21,1,0
170,987,68,3,0,1,1,0,1,2,0,0.0,10037,0,0,0,1,21,0,1,16,0,1,8,0,0,0,0,0,0,0,1,123,22,21,22,21,22,1,0
171,760,24,1,0,0,1,1,1,6,0,0.0,13019,0,0,0,1,20,0,1,17,0,1,8,0,0,0,0,0,0,0,1,138,22,21,22,21,22,1,0
172,818,91,5,0,0,0,1,0,5,0,0.0,11554,0,0,0,1,21,0,1,16,0,1,8,0,0,0,0,0,0,0,1,114,21,20,21,21,22,1,0
173,827,67,5,0,1,1,1,0,1,0,0.0,7027,0,0,0,1,21,0,1,17,0,1,8,0,0,0,0,0,0,0,1,163,25,24,25,24,25,1,0
174,17,6,2,1,0,1,0,1,5,0,0.0,6013,0,0,0,1,21,0,1,16,0,1,8,0,0,0,0,0,0,0,1,108,21,20,21,20,21,1,0
175,143,75,2,1,1,1,1,0,5,0,0.0,6018,0,0,0,1,21,0,1,16,0,1,8,0,0,0,0,0,0,0,1,91,21,20,21,20,21,1,0
176,286,92,1,1,1,1,0,1,1,0,0.0,12521,0,0,0,1,22,0,1,18,0,1,8,0,0,0,0,0,0,0,1,165,25,24,25,24,25,1,0
177,299,74,1,0,0,0,1,0,1,0,0.0,13534,0,0,0,1,11,0,1,10,0,1,8,0,0,0,0,0,0,0,1,88,15,14,15,20,21,1,0
178,965,68,4,1,0,0,1,1,5,0,0.0,6021,0,0,0,1,20,0,1,17,0,1,8,0,0,0,0,0,0,0,1,149,22,21,22,21,22,1,0
179,795,91,0,0,1,1,1,1,6,0,0.0,7057,0,0,0,1,14,0,1,13,0,1,9,0,0,0,0,0,0,0,1,86,20,20,20,20,20,1,0
180,978,25,0,0,0,1,0,1,4,0,0.0,7013,0,0,0,1,23,0,1,17,0,2,9,0,1,1,0,0,0,0,1,94,24,24,24,24,24,1,0
181,480,49,5,0,1,1,1,1,5,0,0.0,10043,0,0,0,1,22,0,1,17,0,1,8,0,0,0,0,0,0,0,1,159,22,21,22,21,22,1,0
182,945,98,0,0,1,0,0,0,4,0,0.0,6023,0,0,0,1,21,0,1,17,0,1,8,0,0,0,0,0,0,0,1,154,22,21,22,21,22,1,0
183,658,27,0,0,1,1,1,0,1,0,0.0,6031,0,0,0,1,21,0,1,16,0,1,8,0,0,0,0,0,0,0,1,121,22,22,22,22,22,1,0
184,109,19,5,1,1,1,0,0,1,0,0.0,8051,0,0,0,1,21,0,1,16,0,1,8,0,0,0,0,0,0,0,1,97,21,20,21,20,21,1,0
185,579,83,2,1,0,0,0,0,2,0,0.0,15554,0,0,0,1,24,0,1,22,0,1,8,0,0,0,0,1,1,0,1,186,33,32,33,32,33,1,0
186,572,41,2,0,1,1,0,0,6,0,0.0,6014,0,0,0,1,21,0,1,16,0,1,8,0,0,0,0,0,0,0,1,106,21,20,21,20,21,1,0
187,804,48,3,1,1,1,0,0,2,0,0.0,6014,0,0,0,1,16,0,1,16,0,1,8,0,0,0,0,0,0,0,1,87,21,20,21,20,21,1,0
188,480,98,3,0,1,1,1,0,5,0,0.0,6023,0,0,0,1,11,0,1,15,0,1,9,0,0,0,0,0,0,0,1,102,20,20,20,20,20,1,0
189,644,28,2,1,1,0,0,0,1,0,0.0,12031,0,0,0,1,14,0,1,17,0,1,8,0,0,0,0,0,0,0,1,133,22,21,22,21,22,1,0
190,263,87,1,0,0,1,0,0,3,0,0.0,8015,0,0,0,1,21,0,1,16,0,1,8,0,0,0,0,0,0,0,1,91,21,20,21,20,21,1,0
191,989,72,5,1,1,0,0,1,2,0,0.0,12513,0,0,0,1,25,0,1,18,0,1,8,0,0,0,0,0,0,0,1,165,25,25,25,25,25,1,0
192,639,24,4,1,0,0,1,0,6,0,0.0,6546,0,0,0,1,21,0,1,17,0,1,8,0,0,0,0,0,0,0,1,122,22,21,22,21,22,1,0
193,196,34,3,1,1,1,1,0,1,0,0.0,7019,0,0,0,1,21,0,1,16,0,1,8,0,0,0,0,0,0,0,1,102,21,20,21,20,21,1,0
194,850,37,5,0,0,1,1,0,4,0,0.0,6014,0,0,0,1,21,0,1,16,0,1,8,0,0,0,0,0,0,0,1,94,21,20,21,20,21,1,0
195,165,13,1,1,0,1,1,1,5,0,0.0,7518,0,0,0,1,20,0,1,15,0,1,8,0,0,0,0,0,0,0,1,95,20,20,20,20,21,1,0
196,327,54,0,0,0,1,1,1,4,0,0.0,6612,0,0,0,1,21,0,1,17,0,1,8,0,0,0,0,0,0,0,1,165,22,21,22,21,25,1,0
197,862,88,0,0,0,1,1,0,4,0,0.0,7021,0,0,0,1,21,0,1,16,0,1,8,0,0,0,0,0,0,0,1,122,22,21,22,21,22,1,0
198,431,60,2,1,0,1,0,0,5,0,0.0,6023,0,0,0,1,21,0,1,17,0,1,8,0,0,0,0,0,0,0,1,129,22,21,22,21,22,1,0
199,163,82,1,0,0,0,1,0,5,0,0.0,11041,0,0,0,1,25,0,1,23,0,1,8,0,0,0,0,1,1,0,1,186,33,32,33,32,33,1,0
200,533,85,2,0,1,0,0,0,1,0,0.0,13515,0,0,0,1,11,0,1,11,0,1,8,0,0,0,0,0,0,0,1,87,18,17,18,17,18,1,0
201,73,65,3,1,1,0,1,1,3,0,0.0,6529,0,0,0,1,21,0,1,16,0,1,8,0,0,0,0,0,0,0,1,95,21,20,21,20,21,1,0
202,935,51,5,0,1,0,0,0,1,0,0.0,13524,0,0,0,1,21,0,1,17,0,1,8,0,0,0,0,0,0,0,1,165,25,24,25,24,25,1,0
203,914,11,3,0,1,1,0,1,3,0,0.0,7016,0,0,0,1,21,0,1,16,0,1,8,0,0,0,0,0,0,0,1,89,21,20,21,20,21,1,0
204,797,43,2,0,1,0,1,1,3,0,0.0,14011,0,0,0,1,23,0,1,17,0,1,8,0,0,0,0,0,0,0,1,163,23,22,23,22,23,1,0
205,3,28,2,1,0,0,1,1,5,0,0.0,7024,0,0,0,1,22,0,1,16,0,1,8,0,0,0,0,0,0,0,1,111,22,21,22,21,22,1,0
206,340,4,4,1,1,1,1,0,1,0,0.0,6013,0,0,0,1,21,0,1,16,0,1,8,0,0,0,0,0,0,0,1,116,22,21,22,21,22,1,0
207,759,52,4,1,1,1,1,1,6,0,0.0,6013,0,0,0,1,21,0,1,16,0,1,8,0,0,0,0,0,0,0,1,90,21,20,21,20,21,1,0
208,702,42,2,1,1,0,1,1,3,0,0.0,14038,0,0,0,1,32,0,1,22,0,1,8,0,0,0,0,1,1,0,1,187,35,35,35,35,35,1,0
209,391,77,0,1,0,1,1,1,6,0,0.0,6031,0,0,0,1,21,0,1,16,0,1,8,0,0,0,0,0,0,0,1,125,22,21,22,21,22,1,0
210,156,5,3,1,0,1,0,0,5,0,0.0,6012,0,0,0,1,20,0,1,16,0,1,8,0,0,0,0,0,0,0,1,105,21,20,21,20,21,1,0
211,883,37,5,1,1,0,1,0,3,0,0.0,14021,0,0,0,1,20,0,1,16,0,1,8,0,0,0,0,0,0,0,1,107,21,21,21,21,21,1,0
212,995,47,3,0,1,1,0,1,3,0,0.0,8060,0,0,0,1,20,0,1,15,0,1,8,0,0,0,0,0,0,0,1,87,21,21,21,21,21,1,0
213,760,5,5,0,1,1,0,1,6,0,0.0,6514,0,0,0,1,21,0,1,16,0,1,8,0,0,0,0,0,0,0,1,93,21,20,21,20,21,1,0
214,965,3,2,0,1,0,0,1,3,0,0.0,8520,0,0,0,1,21,0,1,16,0,1,8,0,0,0,0,0,0,0,1,87,21,20,21,20,21,1,0
215,516,17,3,1,0,0,1,1,6,0,0.0,7026,0,0,0,1,21,0,1,16,0,1,8,0,0,0,0,0,0,0,1,107,21,20,21,20,21,1,0
216,396,93,3,0,0,0,1,1,4,0,0.0,9589,0,0,0,1,18,0,1,17,0,1,8,0,0,0,0,0,0,0,1,158,22,21,22,21,22,1,0
217,525,40,4,0,1,1,1,0,3,0,0.0,7059,0,0,0,1,20,0,1,17,0,1,8,0,0,0,0,0,0,0,1,138,22,21,22,21,22,1,0
218,998,3,1,0,0,1,1,1,3,0,0.0,7019,0,0,0,1,21,0,1,16,0,1,8,0,0,0,0,0,0,0,1,93,21,20,21,20,21,1,0
219,334,40,5,0,1,0,0,1,3,0,0.0,8041,0,0,0,1,16,0,1,16,0,1,8,0,0,0,0,0,0,0,1,87,21,20,21,20,21,1,0
220,202,66,1,1,1,0,0,0,6,0,0.0,10513,0,0,0,1,22,0,1,17,0,1,8,0,0,0,0,0,0,0,1,159,22,21,22,21,22,1,0
221,647,96,2,1,1,0,0,0,6,0,0.0,18177,0,0,0,1,49,0,1,33,0,4,16,0,1,6,0,3,3,0,1,227,57,56,57,53,54,1,0
222,707,7,3,0,0,1,1,1,5,0,0.0,6529,0,0,0,1,22,0,1,17,0,1,8,0,0,0,0,0,0,0,1,158,22,22,22,22,22,1,0
223,265,19,5,0,0,0,0,1,5,0,0.0,7519,0,0,0,1,21,0,1,16,0,1,8,0,0,0,0,0,0,0,1,92,21,20,21,20,21,1,0
224,934,10,0,0,0,0,1,1,2,0,0.0,6525,0,0,0,1,21,0,1,17,0,1,8,0,0,0,0,0,0,0,1,147,22,21,22,21,22,1,0
225,536,91,3,1,1,0,1,1,6,0,0.0,8513,0,0,0,1,21,0,1,17,0,1,8,0,0,0,0,0,0,0,1,163,22,21,22,21,22,1,0
226,740,36,3,1,0,1,1,0,6,0,0.0,6514,0,0,0,1,21,0,1,17,0,1,8,0,0,0,0,0,0,0,1,156,22,21,22,21,22,1,0
227,804,17,1,1,1,1,0,0,1,0,0.0,5561,0,0,0,1,21,0,1,16,0,1,8,0,0,0,0,0,0,0,1,87,21,20,21,20,21,1,0
228,94,33,1,1,1,1,1,0,6,0,0.0,6031,0,0,0,1,21,0,1,16,0,1,8,0,0,0,0,0,0,0,1,87,21,20,21,20,21,1,0
229,754,37,3,0,0,1,1,1,2,0,0.0,6513,0,0,0,1,21,0,1,16,0,1,8,0,0,0,0,0,0,0,1,107,21,20,21,20,21,1,0
230,291,84,4,0,1,0,0,0,3,0,0.0,5512,0,0,0,1,20,0,1,16,0,1,8,0,0,0,0,0,0,0,1,103,21,20,21,20,21,1,0
231,400,57,5,0,0,0,0,1,3,0,0.0,9018,0,0,0,1,20,0,1,18,0,1,8,0,0,0,0,1,1,0,1,188,36,35,36,35,36,1,0
232,291,24,1,0,1,1,0,0,3,0,0.0,6013,0,0,0,1,21,0,1,16,0,1,8,0,0,0,0,0,0,0,1,87,21,21,21,21,21,1,0
233,730,17,5,1,1,0,0,0,5,0,0.0,7527,0,0,0,1,21,0,1,17,0,1,8,0,0,0,0,0,0,0,1,158,22,21,22,21,22,1,0
234,757,75,4,0,1,1,0,0,3,0,0.0,5523,0,0,0,1,21,0,1,17,0,1,8,0,0,0,0,0,0,0,1,141,22,21,22,21,22,1,0
235,131,87,0,0,1,1,1,0,1,0,0.0,7016,0,0,0,1,21,0,1,16,0,1,8,0,0,0,0,0,0,0,1,116,21,20,21,20,21,1,0
236,966,70,4,1,1,1,1,1,6,0,0.0,6012,0,0,0,1,21,0,1,16,0,1,8,0,0,0,0,0,0,0,1,104,21,21,21,21,21,1,0
237,553,90,2,0,1,0,0,0,3,0,0.0,13510,0,0,0,1,19,0,1,15,0,1,8,0,0,0,0,0,0,0,1,171,25,24,25,24,25,1,0
238,838,97,3,0,0,1,0,1,5,0,0.0,10516,0,0,0,1,21,0,1,16,0,1,8,0,0,0,0,0,0,0,1,133,22,21,22,21,22,1,0
239,800,78,1,1,0,1,1,0,1,0,0.0,6041,0,0,0,1,21,0,1,16,0,1,8,0,0,0,0,0,0,0,1,88,21,20,21,20,21,1,0
240,190,79,5,0,1,0,1,1,1,0,0.0,9516,0,0,0,1,20,0,1,15,0,1,8,0,0,0,0,0,0,0,1,93,20,19,20,19,20,1,0
241,437,32,2,1,0,1,1,0,6,0,0.0,6519,0,0,0,1,21,0,1,16,0,1,8,0,0,0,0,0,0,0,1,138,21,20,21,20,21,1,0
242,575,46,5,1,0,1,0,1,1,0,0.0,10042,0,0,0,1,31,0,1,23,0,1,8,0,0,0,0,1,1,0,1,186,33,32,33,32,33,1,0
243,478,85,3,0,1,1,1,0,3,0,0.0,7013,0,0,0,1,18,0,1,16,0,1,8,0,0,0,0,0,0,0,1,103,21,20,21,20,21,1,0
244,82,85,0,1,1,1,1,1,3,0,0.0,6015,0,0,0,1,21,0,1,17,0,1,8,0,0,0,0,0,0,0,1,141,22,22,22,22,22,1,0
245,534,89,2,0,1,1,0,0,2,0,0.0,6036,0,0,0,1,21,0,1,17,0,1,8,0,0,0,0,0,0,0,1,165,22,21,22,21,25,1,0
246,381,43,3,0,1,1,0,0,1,0,0.0,6014,0,0,0,1,21,0,1,16,0,1,8,0,0,0,0,0,0,0,1,88,21,21,21,21,21,1,0
247,716,1,5,0,1,0,1,1,2,0,0.0,6016,0,0,0,1,21,0,1,16,0,1,8,0,0,0,0,0,0,0,1,121,21,20,21,21,22,1,0
248,525,58,2,0,0,1,1,0,1,0,0.0,7022,0,0,0,1,21,0,1,16,0,1,8,0,0,0,0,0,0,0,1,87,21,20,21,20,21,1,0
249,712,24,1,0,0,0,1,0,2,0,0.0,12530,0,0,0,1,21,0,1,16,0,1,8,0,0,0,0,0,0,0,1,106,21,20,21,20,21,1,0
250,88,95,1,0,0,1,0,0,1,0,0.0,6015,0,0,0,1,21,0,1,16,0,1,8,0,0,0,0,0,0,0,1,126,22,21,22,21,22,1,0
251,931,37,5,0,0,0,0,0,2,0,0.0,12528,0,0,0,1,22,0,1,17,0,1,8,0,0,0,0,0,0,0,1,122,22,22,22,22,22,1,0
252,177,46,1,1,0,0,1,1,5,0,0.0,9514,0,0,0,1,15,0,1,16,0,1,8,0,0,0,0,0,0,0,1,93,21,20,21,20,21,1,0
253,912,45,4,0,1,0,1,1,4,0,0.0,6028,0,0,0,1,21,0,1,17,0,1,8,0,0,0,0,0,0,0,1,142,22,22,22,22,22,1,0
254,787,62,2,0,1,1,0,1,6,0,0.0,14017,0,0,0,1,25,0,1,23,0,1,8,0,0,0,0,1,1,0,1,186,33,32,33,32,33,1,0
255,749,35,3,1,1,0,1,0,1,0,0.0,6530,0,0,0,1,20,0,1,16,0,1,8,0,0,0,0,0,0,0,1,117,22,21,22,21,22,1,0
256,518,16,4,0,0,1,1,0,5,0,0.0,6521,0,0,0,1,21,0,1,16,0,1,8,0,0,0,0,0,0,0,1,109,21,20,21,20,21,1,0
257,259,83,4,1,0,1,0,0,4,0,0.0,7029,0,0,0,1,21,0,1,16,0,1,8,0,0,0,0,0,0,0,1,94,21,20,21,20,21,1,0
258,604,46,3,0,0,0,0,1,3,0,0.0,6514,0,0,0,1,21,0,1,17,0,1,8,0,0,0,0,0,0,0,1,142,22,21,22,21,22,1,0
259,511,70,1,1,0,0,0,0,2,0,0.0,12514,0,0,0,1,15,0,1,14,0,1,8,0,0,0,0,0,0,0,1,81,15,14,15,14,15,1,0
260,831,93,4,1,1,0,1,1,5,0,0.0,6018,0,0,0,1,21,0,1,17,0,1,8,0,0,0,0,0,0,0,1,145,22,21,22,21,22,1,0
261,290,91,0,0,1,0,1,1,3,0,0.0,7105,0,0,0,1,18,0,1,16,0,1,8,0,0,0,0,0,0,0,1,87,21,20,21,20,21,1,0
262,460,37,1,1,1,1,1,0,6,0,0.0,6032,0,0,0,1,21,0,1,16,0,1,8,0,0,0,0,0,0,0,1,104,21,20,21,20,21,1,0
263,160,79,3,1,0,0,0,0,5,0,0.0,8581,0,0,0,1,21,0,1,16,0,1,8,0,0,0,0,0,0,0,1,104,21,20,21,20,21,1,0
264,812,80,0,0,1,0,0,1,5,0,0.0,7538,0,0,0,1,22,0,1,17,0,1,8,0,0,0,0,0,0,0,1,123,22,21,22,21,22,1,0
265,797,69,1,0,1,1,1,0,4,0,0.0,7015,0,0,0,1,21,0,1,16,0,1,8,0,0,0,0,0,0,0,1,92,21,20,21,20,21,1,0
266,996,10,2,0,1,0,1,0,5,0,0.0,11586,0,0,0,1,22,0,1,17,0,1,8,0,0,0,0,0,0,0,1,165,25,24,25,24,25,1,0
267,39,83,4,0,0,1,1,0,1,0,0.0,7077,0,0,0,1,21,0,1,16,0,1,8,0,0,0,0,0,0,0,1,93,21,20,21,20,21,1,0
268,692,59,3,1,0,1,1,0,4,0,0.0,8065,0,0,0,1,21,0,1,16,0,1,8,0,0,0,0,0,0,0,1,105,21,20,21,20,21,1,0
269,668,95,5,1,0,1,0,0,2,0,0.0,7027,0,0,0,1,21,0,1,16,0,1,8,0,0,0,0,0,0,0,1,103,21,20,21,20,21,1,0
270,320,97,1,1,1,0,0,1,6,0,0.0,11011,0,0,0,1,21,0,1,16,0,1,8,0,0,0,0,0,0,0,1,87,21,20,21,20,21,1,0
271,167,58,3,0,1,1,1,0,5,0,0.0,6057,0,0,0,1,18,0,1,16,0,1,8,0,0,0,0,0,0,0,1,103,21,21,21,21,21,1,0
272,288,8,4,0,1,0,1,1,3,0,0.0,7039,0,0,0,1,20,0,1,16,0,1,8,0,0,0,0,0,0,0,1,107,21,20,21,20,21,1,0
273,324,59,5,1,0,1,0,0,5,0,0.0,7032,0,0,0,1,17,0,1,16,0,1,8,0,0,0,0,0,0,0,1,90,21,20,21,20,21,1,0
274,309,56,3,1,1,1,0,1,2,0,0.0,6512,0,0,0,1,21,0,1,16,0,1,8,0,0,0,0,0,0,0,1,87,21,20,21,20,21,1,0
275,587,69,4,1,1,0,0,1,3,0,0.0,6036,0,0,0,1,20,0,1,17,0,1,8,0,0,0,0,0,0,0,1,158,22,21,22,21,22,1,0
276,892,67,3,1,0,1,0,0,5,0,0.0,6512,0,0,0,1,21,0,1,16,0,1,8,0,0,0,0,0,0,0,1,132,21,20,21,21,22,1,0
277,301,18,3,1,0,0,0,1,1,0,0.0,6513,0,0,0,1,20,0,1,16,0,1,8,0,0,0,0,0,0,0,1,103,19,18,19,18,21,1,0
278,576,47,3,0,0,1,0,0,4,0,0.0,6014,0,0,0,1,21,0,1,16,0,1,8,0,0,0,0,0,0,0,1,87,21,20,21,20,21,1,0
279,72,45,5,0,0,1,1,1,1,0,0.0,6518,0,0,0,1,17,0,1,17,0,1,8,0,0,0,0,0,0,0,1,142,22,21,22,21,22,1,0
280,718,73,1,0,0,1,0,1,4,0,0.0,12511,0,0,0,1,25,0,1,23,0,1,8,0,0,0,0,1,1,0,1,188,36,35,36,35,36,1,0
281,478,67,0,1,0,0,1,0,4,0,0.0,6021,0,0,0,1,21,0,1,16,0,1,8,0,0,0,0,0,0,0,1,104,21,20,21,20,21,1,0
282,660,5,2,0,0,1,0,1,5,0,0.0,7519,0,0,0,1,21,0,1,17,0,1,8,0,0,0,0,0,0,0,1,146,22,21,22,21,22,1,0
283,913,8,5,1,0,1,0,1,5,0,0.0,7517,0,0,0,1,20,0,1,15,0,1,8,0,0,0,0,0,0,0,1,86,20,19,20,19,20,1,0
284,907,2,5,1,0,0,1,1,1,0,0.0,6011,0,0,0,1,21,0,1,17,0,1,8,0,0,0,0,0,0,0,1,129,22,21,22,21,22,1,0
285,80,49,2,0,1,1,1,0,6,0,0.0,6015,0,0,0,1,21,0,1,17,0,1,8,0,0,0,0,0,0,0,1,161,22,21,22,21,22,1,0
286,224,90,1,0,0,0,1,1,5,0,0.0,10010,0,0,0,1,18,0,1,13,0,1,8,0,0,0,0,0,0,0,1,84,18,17,18,17,18,1,0
287,681,40,2,1,0,1,1,0,4,0,0.0,6013,0,0,0,1,21,0,1,17,0,1,8,0,0,0,0,0,0,0,1,158,22,21,22,21,22,1,0
288,493,61,5,0,0,1,1,0,3,0,0.0,6038,0,0,0,1,21,0,1,16,0,1,8,0,0,0,0,0,0,0,1,87,21,20,21,20,21,1,0
289,541,6,4,1,0,1,1,0,1,0,0.0,6012,0,0,0,1,20,0,1,16,0,1,8,0,0,0,0,0,0,0,1,93,21,20,21,20,21,1,0
290,562,29,1,1,0,0,1,0,2,0,0.0,11514,0,0,0,1,22,0,1,23,0,1,8,0,0,0,0,1,1,0,1,186,33,32,33,32,33,1,0
291,523,74,5,0,1,1,0,1,1,0,0.0,12514,0,0,0,1,14,0,1,14,0,1,8,0,0,0,0,0,0,0,1,81,15,14,15,14,15,1,0
292,498,16,2,1,0,0,0,0,3,0,0.0,9522,0,0,0,1,22,0,1,18,0,1,8,0,0,0,0,0,0,0,1,165,25,24,25,24,25,1,0
293,225,100,5,1,0,1,1,0,4,0,0.0,6526,0,0,0,1,15,0,1,15,0,1,9,0,0,0,0,0,0,0,1,102,20,20,20,20,20,1,0
294,259,55,5,0,1,0,1,0,5,0,0.0,7514,0,0,0,1,22,0,1,18,0,1,8,0,0,0,0,0,0,0,1,174,25,24,25,24,25,1,0
295,249,26,4,1,0,0,0,0,4,0,0.0,7541,0,0,0,1,19,0,1,14,0,1,8,0,0,0,0,0,0,0,1,84,19,18,19,18,19,1,0
296,557,71,3,1,0,0,1,0,4,0,0.0,7012,0,0,0,1,19,0,1,16,0,1,8,0,0,0,0,0,0,0,1,128,21,20,21,21,22,1,0
297,938,18,4,0,1,0,0,1,4,0,0.0,6013,0,0,0,1,21,0,1,18,0,1,8,0,0,0,0,0,0,0,1,165,25,24,25,24,25,1,0
298,282,43,4,1,1,0,1,0,5,0,0.0,6528,0,0,0,1,21,0,1,16,0,1,8,0,0,0,0,0,0,0,1,89,21,21,21,21,21,1,0
299,459,88,4,1,1,0,0,1,6,0,0.0,6013,0,0,0,1,21,0,1,17,0,1,8,0,0,0,0,0,0,0,1,156,22,21,22,21,22,1,0
300,904,64,2,0,0,0,0,1,4,0,0.0,13509,0,0,0,1,31,0,1,23,0,1,8,0,0,0,0,1,1,0,1,186,33,32,33,32,33,1,0
301,913,20,4,0,0,0,0,1,4,0,0.0,5517,0,0,0,1,21,0,1,16,0,1,8,0,0,0,0,0,0,0,1,88,21,20,21,20,21,1,0
302,863,73,2,0,0,0,1,1,2,0,0.0,14023,0,0,0,1,22,0,1,17,0,1,8,0,0,0,0,0,0,0,1,159,22,22,22,22,22,1,0
303,708,51,0,0,0,0,1,1,4,0,0.0,6014,0,0,0,1,21,0,1,16,0,1,8,0,0,0,0,0,0,0,1,138,21,20,21,20,22,1,0
304,533,63,0,1,0,1,0,1,2,0,0.0,7016,0,0,0,1,21,0,1,17,0,1,8,0,0,0,0,0,0,0,1,138,22,21,22,21,22,1,0
305,125,60,3,1,1,0,0,1,2,0,0.0,6015,0,0,0,1,21,0,1,16,0,1,8,0,0,0,0,0,0,0,1,90,21,20,21,20,21,1,0
306,859,45,5,1,1,1,0,1,5,0,0.0,12015,0,0,0,1,25,0,1,23,0,1,8,0,0,0,0,1,1,0,1,186,33,32,33,32,33,1,0
307,198,12,3,1,1,1,0,1,5,0,0.0,6019,0,0,0,1,18,0,1,15,0,1,8,0,0,0,0,0,0,0,1,89,21,20,21,20,21,1,0
308,956,73,4,1,1,0,1,1,1,0,0.0,6013,0,0,0,1,21,0,1,16,0,1,8,0,0,0,0,0,0,0,1,103,21,20,21,20,21,1,0
309,779,10,1,1,1,0,0,0,5,0,0.0,8513,0,0,0,1,22,0,1,17,0,1,8,0,0,0,0,0,0,0,1,138,22,22,22,22,22,1,0
310,30,79,1,0,0,1,1,0,5,0,0.0,6544,0,0,0,1,21,0,1,17,0,1,8,0,0,0,0,0,0,0,1,141,22,21,22,21,22,1,0
311,911,30,3,0,1,1,0,1,1,0,0.0,6010,0,0,0,1,21,0,1,17,0,1,8,0,0,0,0,0,0,0,1,135,22,21,22,21,22,1,0
312,901,47,5,1,0,0,1,1,4,0,0.0,12512,0,0,0,1,21,0,1,17,0,1,8,0,0,0,0,0,0,0,1,156,22,21,22,21,22,1,0
313,418,29,1,0,1,0,1,0,2,0,0.0,11513,0,0,0,1,21,0,1,16,0,1,8,0,0,0,0,0,0,0,1,107,21,21,21,21,21,1,0
314,901,59,2,0,0,0,1,0,3,0,0.0,14015,0,0,0,1,31,0,1,23,0,1,8,0,0,0,0,1,1,0,1,186,33,32,33,32,33,1,0
315,568,28,1,0,1,1,0,0,6,0,0.0,7016,0,0,0,1,21,0,1,17,0,1,8,0,0,0,0,0,0,0,1,147,22,21,22,21,22,1,0
316,885,38,3,0,0,0,1,1,4,0,0.0,8017,0,0,0,1,21,0,1,17,0,1,8,0,0,0,0,0,0,0,1,138,22,21,22,21,22,1,0
317,528,38,1,1,1,0,0,1,6,0,0.0,14026,0,0,0,1,21,0,1,16,0,1,8,0,0,0,0,0,0,0,1,89,21,20,21,20,21,1,0
318,139,60,5,0,1,1,1,1,4,0,0.0,8555,0,0,0,1,21,0,1,16,0,1,8,0,0,0,0,0,0,0,1,90,21,20,21,20,21,1,0
319,228,79,0,0,0,0,1,0,2,0,0.0,6529,0,0,0,1,21,0,1,17,0,1,8,0,0,0,0,0,0,0,1,156,22,21,22,21,22,1,0
320,153,59,3,0,1,0,0,0,6,0,0.0,7035,0,0,0,1,21,0,1,16,0,1,8,0,0,0,0,0,0,0,1,143,22,21,22,21,22,1,0
321,395,91,3,1,0,0,0,0,3,0,0.0,10017,0,0,0,1,9,0,1,13,0,1,8,0,0,0,0,0,0,0,1,100,18,17,18,17,18,1,0
322,412,89,3,0,0,1,1,1,1,0,0.0,10559,0,0,0,1,21,0,1,16,0,1,8,0,0,0,0,0,0,0,1,107,21,20,21,20,21,1,0
323,391,92,3,1,0,1,1,0,3,0,0.0,7025,0,0,0,1,21,0,1,16,0,1,8,0,0,0,0,0,0,0,1,105,21,20,21,20,21,1,0
324,481,58,2,1,1,0,0,0,3,0,0.0,13026,0,0,0,1,35,0,1,23,0,2,10,0,1,1,0,2,2,0,1,191,39,38,39,38,39,1,0
325,814,70,2,0,0,0,0,0,3,0,0.0,14551,0,0,0,1,28,0,1,23,0,1,8,0,0,0,0,1,1,0,1,186,33,32,33,32,33,1,0
326,835,26,3,0,1,1,0,1,6,0,0.0,6521,0,0,0,1,21,0,1,16,0,1,8,0,0,0,0,0,0,0,1,104,21,20,21,20,21,1,0
327,923,89,4,1,0,1,1,1,1,0,0.0,7021,0,0,0,1,21,0,1,16,0,1,8,0,0,0,0,0,0,0,1,103,21,20,21,20,21,1,0
328,72,1,1,1,1,0,1,0,3,0,0.0,7039,0,0,0,1,21,0,1,17,0,1,8,0,0,0,0,0,0,0,1,149,22,21,22,21,22,1,0
329,908,52,5,1,1,0,1,0,4,0,0.0,13539,0,0,0,1,25,0,1,18,0,1,8,0,0,0,0,0,0,0,1,185,25,24,25,24,28,1,0
330,273,55,4,1,0,0,0,0,1,0,0.0,7572,0,0,0,1,21,0,1,16,0,1,8,0,0,0,0,0,0,0,1,119,21,20,21,21,22,1,0
331,914,26,5,1,0,1,0,0,1,0,0.0,7065,0,0,0,1,21,0,1,16,0,1,8,0,0,0,0,0,0,0,1,120,22,21,22,21,22,1,0
332,87,14,0,0,1,0,1,0,6,0,0.0,7028,0,0,0,1,21,0,1,16,0,1,8,0,0,0,0,0,0,0,1,93,21,20,21,20,21,1,0
333,555,34,4,1,1,0,1,0,4,0,0.0,6520,0,0,0,1,21,0,1,17,0,1,8,0,0,0,0,0,0,0,1,138,22,21,22,21,22,1,0
334,20,47,1,1,0,1,0,1,3,0,0.0,7527,0,0,0,1,21,0,1,16,0,1,8,0,0,0,0,0,0,0,1,87,21,20,21,20,21,1,0
335,726,41,1,1,0,1,0,1,2,0,0.0,12547,0,0,0,1,22,0,1,17,0,1,8,0,0,0,0,0,0,0,1,165,22,21,22,22,25,1,0
336,662,58,3,1,0,1,0,0,6,0,0.0,6013,0,0,0,1,16,0,1,16,0,1,9,0,0,0,0,0,0,0,1,141,21,21,21,21,21,1,0
337,503,0,0,1,1,1,0,0,1,0,0.0,6029,0,0,0,1,18,0,1,17,0,1,8,0,0,0,0,0,0,0,1,156,22,21,22,21,22,1,0
338,475,67,0,0,0,1,1,0,1,0,0.0,6014,0,0,0,1,21,0,1,16,0,1,8,0,0,0,0,0,0,0,1,87,21,20,21,20,21,1,0
339,690,23,5,1,1,1,0,0,5,0,0.0,6011,0,0,0,1,21,0,1,16,0,1,8,0,0,0,0,0,0,0,1,87,21,20,21,20,21,1,0
340,17,77,1,1,1,0,0,1,4,0,0.0,6514,0,0,0,1,25,0,1,18,0,1,8,0,0,0,0,0,0,0,1,164,25,24,25,24,25,1,0
341,70,51,5,1,0,1,0,0,5,0,0.0,5511,0,0,0,1,21,0,1,16,0,1,8,0,0,0,0,0,0,0,1,122,21,20,21,21,22,1,0
342,855,52,2,0,0,1,1,1,5,0,0.0,13510,0,0,0,1,31,0,1,23,0,1,8,0,0,0,0,1,1,0,1,186,33,32,33,32,33,1,0
343,333,94,0,1,0,0,1,0,2,0,0.0,5512,0,0,0,1,21,0,1,17,0,1,8,0,0,0,0,0,0,0,1,158,22,21,22,21,22,1,0
344,240,9,5,0,1,1,0,1,5,0,0.0,6029,0,0,0,1,21,0,1,16,0,1,8,0,0,0,0,0,0,0,1,106,21,20,21,20,21,1,0
345,0,8,5,0,1,1,0,1,5,0,0.0,6012,0,0,0,1,18,0,1,13,0,1,8,0,0,0,0,0,0,0,1,90,21,20,21,20,21,1,0
346,207,30,4,0,0,1,0,1,2,0,0.0,6011,0,0,0,1,20,0,1,16,0,1,8,0,0,0,0,0,0,0,1,87,21,20,21,20,21,1,0
347,384,12,0,0,0,1,0,1,6,0,0.0,6015,0,0,0,1,20,0,1,16,0,1,8,0,0,0,0,0,0,0,1,94,21,20,21,20,21,1,0
348,568,17,1,0,1,1,1,0,4,0,0.0,6013,0,0,0,1,20,0,1,17,0,1,8,0,0,0,0,0,0,0,1,122,21,20,21,21,22,1,0
349,488,90,3,1,1,1,1,0,4,0,0.0,6032,0,0,0,1,21,0,1,17,0,1,8,0,0,0,0,0,0,0,1,158,22,21,22,21,22,1,0
350,622,22,4,0,0,0,1,0,3,0,0.0,6051,0,0,0,1,20,0,1,15,0,1,8,0,0,0,0,0,0,0,1,90,21,20,21,20,21,1,0
351,615,87,0,0,1,1,1,0,1,0,0.0,6014,0,0,0,1,21,0,1,17,0,1,8,0,0,0,0,0,0,0,1,144,22,21,22,21,22,1,0
352,163,100,2,1,0,1,1,0,2,0,0.0,6576,0,0,0,1,21,0,1,16,0,1,8,0,0,0,0,0,0,0,1,91,21,20,21,20,21,1,0
353,266,58,1,0,0,0,0,1,5,0,0.0,12015,0,0,0,1,21,0,1,16,0,1,8,0,0,0,0,0,0,0,1,92,21,21,21,21,21,1,0
354,482,76,4,0,1,0,1,0,1,0,0.0,6514,0,0,0,1,21,0,1,17,0,1,8,0,0,0,0,0,0,0,1,139,22,21,22,21,22,1,0
355,524,81,5,0,1,0,1,0,3,0,0.0,13014,0,0,0,1,14,0,1,16,0,1,8,0,0,0,0,0,0,0,1,92,21,20,21,20,21,1,0
356,61,23,0,1,0,0,0,1,5,0,0.0,5519,0,0,0,1,21,0,1,16,0,1,8,0,0,0,0,0,0,0,1,106,21,20,21,20,21,1,0
357,427,14,4,0,1,1,0,0,1,0,0.0,6035,0,0,0,1,21,0,1,16,0,1,8,0,0,0,0,0,0,0,1,102,21,20,21,20,21,1,0
358,559,27,2,1,1,1,0,0,6,0,0.0,6025,0,0,0,1,21,0,1,16,0,1,8,0,0,0,0,0,0,0,1,114,21,20,21,20,22,1,0
359,545,71,5,1,0,1,0,0,3,0,0.0,7106,0,0,0,1,21,0,1,16,0,1,8,0,0,0,0,0,0,0,1,104,21,20,21,20,21,1,0
360,998,23,2,1,1,1,0,0,6,0,0.0,6017,0,0,0,1,21,0,1,17,0,1,8,0,0,0,0,0,0,0,1,141,22,21,22,21,22,1,0
361,108,39,3,0,1,0,1,1,5,0,0.0,7040,0,0,0,1,21,0,1,16,0,1,8,0,0,0,0,0,0,0,1,91,21,20,21,20,21,1,0
362,641,33,4,0,1,1,1,0,5,0,0.0,7044,0,0,0,1,21,0,1,17,0,1,8,0,0,0,0,0,0,0,1,159,22,21,22,21,22,1,0
363,239,42,0,0,1,1,1,0,5,0,0.0,8021,0,0,0,1,21,0,1,17,0,1,8,0,0,0,0,0,0,0,1,138,22,21,22,21,22,1,0
364,840,12,3,0,0,1,0,1,4,0,0.0,7024,0,0,0,1,22,0,1,17,0,1,8,0,0,0,0,0,0,0,1,147,22,21,22,21,22,1,0
365,159,58,2,1,1,0,0,1,6,0,0.0,10018,0,0,0,1,21,0,1,17,0,1,8,0,0,0,0,0,0,0,1,119,22,21,22,21,22,1,0
366,594,79,5,1,0,1,0,0,5,0,0.0,6545,0,0,0,1,21,0,1,16,0,1,8,0,0,0,0,0,0,0,1,89,21,20,21,20,21,1,0
367,915,65,4,0,1,1,1,1,6,0,0.0,7034,0,0,0,1,21,0,1,16,0,1,8,0,0,0,0,0,0,0,1,90,21,20,21,20,21,1,0
368,260,71,1,1,0,0,1,0,2,0,0.0,12513,0,0,0,1,21,0,1,17,0,1,8,0,0,0,0,0,0,0,1,156,22,21,22,21,22,1,0
369,613,29,3,0,0,0,1,0,3,0,0.0,5530,0,0,0,1,21,0,1,17,0,1,8,0,0,0,0,0,0,0,1,114,22,21,22,21,22,1,0
370,967,27,5,1,0,1,0,0,4,0,0.0,6014,0,0,0,1,19,0,1,17,0,1,8,0,0,0,0,0,0,0,1,142,22,21,22,21,22,1,0
371,238,83,2,1,1,0,0,1,1,0,0.0,11513,0,0,0,1,28,0,1,20,0,1,8,0,0,0,0,1,1,0,1,183,30,29,30,29,30,1,0
372,639,24,2,1,1,0,0,0,4,0,0.0,12522,0,0,0,1,22,0,1,17,0,1,8,0,0,0,0,0,0,0,1,138,22,21,22,21,22,1,0
373,496,31,1,0,1,1,1,0,1,0,0.0,6017,0,0,0,1,21,0,1,16,0,1,8,0,0,0,0,0,0,0,1,130,22,21,22,21,22,1,0
374,222,47,4,1,0,1,1,1,2,0,0.0,6030,0,0,0,1,21,0,1,16,0,1,8,0,0,0,0,0,0,0,1,104,21,20,21,20,21,1,0
375,890,77,1,0,0,0,0,0,4,0,0.0,14033,0,0,0,1,21,0,1,16,0,1,8,0,0,0,0,0,0,0,1,90,21,21,21,21,21,1,0
376,551,59,3,0,0,0,0,0,5,0,0.0,7515,0,0,0,1,15,0,1,16,0,1,8,0,0,0,0,0,0,0,1,128,22,21,22,21,22,1,0
377,606,98,4,1,1,1,1,0,6,0,0.0,6513,0,0,0,1,19,0,1,16,0,1,8,0,0,0,0,0,0,0,1,106,21,20,21,20,21,1,0
378,603,41,2,1,1,1,1,1,2,0,0.0,13011,0,0,0,1,14,0,1,14,0,1,7,0,0,0,0,0,0,0,1,80,14,14,14,14,14,1,0
379,757,84,3,1,0,0,1,0,3,0,0.0,9519,0,0,0,1,22,0,1,17,0,1,8,0,0,0,0,0,0,0,1,158,22,21,22,21,22,1,0
380,189,63,2,1,1,0,0,0,2,0,0.0,12022,0,0,0,1,20,0,1,16,0,1,8,0,0,0,0,0,0,0,1,103,21,20,21,20,21,1,0
381,198,26,1,0,1,0,1,1,1,0,0.0,8014,0,0,0,1,22,0,1,17,0,1,8,0,0,0,0,0,0,0,1,165,25,24,25,24,25,1,0
382,748,60,2,0,1,0,1,0,2,0,0.0,13529,0,0,0,1,33,0,1,23,0,1,8,0,0,0,0,1,1,0,1,188,36,35,36,35,36,1,0
383,96,46,5,1,1,1,1,1,4,0,0.0,6071,0,0,0,1,21,0,1,17,0,1,8,0,0,0,0,0,0,0,1,161,22,21,22,21,22,1,0
384,741,17,3,0,1,1,1,1,4,0,0.0,6042,0,0,0,1,20,0,1,16,0,1,8,0,0,0,0,0,0,0,1,123,22,21,22,21,22,1,0
385,192,19,3,0,0,1,1,1,4,0,0.0,6537,0,0,0,1,21,0,1,16,0,1,8,0,0,0,0,0,0,0,1,87,21,20,21,20,21,1,0
386,994,71,4,1,0,0,1,0,2,0,0.0,6019,0,0,0,1,22,0,1,17,0,1,8,0,0,0,0,0,0,0,1,161,24,23,24,23,24,1,0
387,628,25,5,0,0,0,0,0,4,0,0.0,8527,0,0,0,1,15,0,1,14,0,1,8,0,0,0,0,0,0,0,1,87,21,20,21,20,21,1,0
388,138,20,4,0,0,1,0,0,3,0,0.0,6517,0,0,0,1,21,0,1,16,0,1,8,0,0,0,0,0,0,0,1,132,22,21,22,21,22,1,0
389,904,49,1,0,0,0,0,1,4,0,0.0,13515,0,0,0,1,25,0,1,18,0,1,8,0,0,0,0,0,0,0,1,166,25,24,25,24,25,1,0
390,693,40,4,0,0,1,0,1,2,0,0.0,5511,0,0,0,1,21,0,1,16,0,1,8,0,0,0,0,0,0,0,1,143,22,21,22,21,22,1,0
391,912,30,5,1,0,0,1,0,5,0,0.0,11551,0,0,0,1,21,0,1,16,0,1,8,0,0,0,0,0,0,0,1,87,21,20,21,20,21,1,0
392,22,65,4,0,0,1,0,0,1,0,0.0,6548,0,0,0,1,21,0,1,16,0,1,8,0,0,0,0,0,0,0,1,165,25,24,25,24,25,1,0
393,836,93,4,0,1,0,1,1,1,0,0.0,6013,0,0,0,1,21,0,1,16,0,1,8,0,0,0,0,0,0,0,1,87,21,20,21,20,21,1,0
394,854,92,5,1,1,1,1,0,3,0,0.0,7017,0,0,0,1,21,0,1,16,0,1,8,0,0,0,0,0,0,0,1,104,21,20,21,20,21,1,0
395,963,5,2,1,0,1,1,1,1,0,0.0,9024,0,0,0,1,21,0,1,17,0,1,8,0,0,0,0,0,0,0,1,158,22,21,22,21,22,1,0
396,657,76,5,0,1,1,1,0,2,0,0.0,6655,0,0,0,1,21,0,1,17,0,1,8,0,0,0,0,0,0,0,1,158,22,21,22,21,22,1,0
397,12,3,3,0,1,1,1,1,3,0,0.0,6521,0,0,0,1,21,0,1,17,0,1,8,0,0,0,0,0,0,0,1,158,22,21,22,21,22,1,0
398,654,64,5,1,0,1,1,1,3,0,0.0,12018,0,0,0,1,21,0,1,16,0,1,8,0,0,0,0,0,0,0,1,88,21,20,21,20,21,1,0
399,479,6,1,0,0,0,0,0,6,0,0.0,7511,0,0,0,1,15,0,1,16,0,1,9,0,0,0,0,0,0,0,1,88,21,20,21,20,21,1,0
400,1000,77,0,1,0,1,1,1,5,0,0.0,6016,0,0,0,1,14,0,1,15,0,1,9,0,0,0,0,0,0,0,1,102,20,20,20,20,20,1,0
401,623,89,2,0,0,1,0,1,1,0,0.0,13519,0,0,0,1,12,0,1,11,0,1,8,0,0,0,0,0,0,0,1,78,12,11,12,11,12,1,0
402,895,1,2,0,1,0,0,1,3,0,0.0,6012,0,0,0,1,21,0,1,16,0,1,8,0,0,0,0,0,0,0,1,89,21,20,21,20,21,1,0
403,872,54,3,0,0,0,1,0,2,0,0.0,7514,0,0,0,1,21,0,1,16,0,1,8,0,0,0,0,0,0,0,1,92,21,20,21,20,21,1,0
404,391,78,1,1,1,0,1,0,6,0,0.0,11511,0,0,0,1,24,0,1,20,0,1,8,0,0,0,0,1,1,0,1,185,33,32,33,32,33,1,0
405,388,38,0,0,1,0,1,0,1,0,0.0,5522,0,0,0,1,21,0,1,17,0,1,8,0,0,0,0,0,0,0,1,162,22,22,22,22,22,1,0
406,213,5,1,1,1,0,1,1,4,0,0.0,6025,0,0,0,1,21,0,1,17,0,1,8,0,0,0,0,0,0,0,1,158,22,21,22,21,22,1,0
407,9,24,3,1,0,1,1,1,3,0,0.0,6030,0,0,0,1,21,0,1,16,0,1,8,0,0,0,0,0,0,0,1,131,21,20,21,21,22,1,0
408,989,83,3,0,1,0,0,1,6,0,0.0,9036,0,0,0,1,21,0,1,16,0,1,8,0,0,0,0,0,0,0,1,143,22,21,22,21,22,1,0
409,817,57,2,1,0,0,1,0,2,0,0.0,13026,0,0,0,1,33,0,1,23,0,1,8,0,0,0,0,1,1,0,1,188,36,35,36,35,36,1,0
410,484,34,5,0,1,1,0,1,3,0,0.0,8512,0,0,0,1,20,0,1,17,0,1,8,0,0,0,0,0,0,0,1,124,21,20,21,21,22,1,0
411,496,36,2,1,0,0,0,0,2,0,0.0,13545,0,0,0,1,22,0,1,18,0,1,8,0,0,0,0,0,0,0,1,161,24,23,24,23,24,1,0
412,25,96,1,0,1,0,0,0,4,0,0.0,7032,0,0,0,1,13,0,1,15,0,1,8,0,0,0,0,0,0,0,1,165,20,19,20,20,21,1,0
413,526,48,3,0,1,0,1,1,2,0,0.0,6012,0,0,0,1,21,0,1,16,0,1,8,0,0,0,0,0,0,0,1,114,21,20,21,20,21,1,0
414,145,1,5,0,0,0,1,0,3,0,0.0,6014,0,0,0,1,21,0,1,17,0,1,8,0,0,0,0,0,0,0,1,143,22,21,22,21,22,1,0
415,996,37,1,1,1,1,1,0,6,0,0.0,6021,0,0,0,1,21,0,1,17,0,1,8,0,0,0,0,0,0,0,1,148,22,21,22,21,22,1,0
416,980,58,2,0,0,1,1,0,1,0,0.0,6016,0,0,0,1,14,0,1,15,0,1,9,0,0,0,0,0,0,0,1,113,21,21,21,21,21,1,0
417,494,78,0,0,1,1,1,1,2,0,0.0,6012,0,0,0,1,18,0,1,16,0,1,8,0,0,0,0,0,0,0,1,115,21,20,21,20,22,1,0
418,858,51,4,1,0,0,0,0,1,0,0.0,6019,0,0,0,1,21,0,1,16,0,1,8,0,0,0,0,0,0,0,1,93,21,20,21,20,21,1,0
419,41,96,3,0,0,1,1,1,3,0,0.0,6013,0,0,0,1,21,0,1,17,0,1,8,0,0,0,0,0,0,0,1,119,22,21,22,21,22,1,0
420,174,85,3,1,1,0,1,1,4,0,0.0,6017,0,0,0,1,21,0,1,17,0,1,8,0,0,0,0,0,0,0,1,158,22,21,22,21,22,1,0
421,239,30,1,1,1,1,1,0,5,0,0.0,6011,0,0,0,1,21,0,1,16,0,1,8,0,0,0,0,0,0,0,1,131,21,20,21,21,22,1,0
422,703,32,2,0,0,1,1,1,6,0,0.0,12512,0,0,0,1,25,0,1,18,0,1,8,0,0,0,0,0,0,0,1,174,27,26,27,26,27,1,0
423,163,52,5,1,0,1,0,1,1,0,0.0,7016,0,0,0,1,18,0,1,14,0,1,8,0,0,0,0,0,0,0,1,152,19,18,19,18,19,1,0
424,847,41,2,1,0,1,0,1,6,0,0.0,13018,0,0,0,1,17,0,1,16,0,1,8,0,0,0,0,0,0,0,1,155,21,20,21,20,21,1,0
425,750,54,4,1,0,1,0,1,3,0,0.0,6047,0,0,0,1,16,0,1,16,0,1,8,0,0,0,0,0,0,0,1,90,21,20,21,20,21,1,0
426,664,11,3,1,0,0,1,1,4,0,0.0,6019,0,0,0,1,21,0,1,17,0,1,8,0,0,0,0,0,0,0,1,136,22,21,22,21,22,1,0
427,877,9,3,0,1,0,1,0,4,0,0.0,6020,0,0,0,1,14,0,1,16,0,1,9,0,0,0,0,0,0,0,1,144,21,21,21,21,21,1,0
428,482,7,1,0,0,0,1,1,5,0,0.0,7014,0,0,0,1,18,0,1,17,0,1,8,0,0,0,0,0,0,0,1,158,22,21,22,21,22,1,0
429,816,59,5,0,0,1,1,1,1,0,0.0,10511,0,0,0,1,21,0,1,17,0,1,8,0,0,0,0,0,0,0,1,156,22,21,22,21,22,1,0
430,98,80,4,0,0,1,0,1,5,0,0.0,6519,0,0,0,1,21,0,1,16,0,1,8,0,0,0,0,0,0,0,1,103,21,20,21,20,21,1,0
431,637,87,0,1,1,0,1,1,2,0,0.0,6016,0,0,0,1,21,0,1,16,0,1,8,0,0,0,0,0,0,0,1,87,21,20,21,20,21,1,0
432,441,7,2,0,1,0,0,1,5,0,0.0,8023,0,0,0,1,21,0,1,16,0,1,8,0,0,0,0,0,0,0,1,105,21,20,21,20,21,1,0
433,674,16,3,1,1,0,1,1,1,0,0.0,7058,0,0,0,1,21,0,1,16,0,1,8,0,0,0,0,0,0,0,1,111,21,20,21,20,21,1,0
434,744,74,0,1,1,1,1,1,2,0,0.0,7037,0,0,0,1,21,0,1,16,0,1,8,0,0,0,0,0,0,0,1,108,21,20,21,20,21,1,0
435,9,62,2,1,0,0,0,0,1,0,0.0,7028,0,0,0,1,14,0,1,15,0,1,9,0,0,0,0,0,0,0,1,104,20,20,20,20,20,1,0
436,590,6,1,0,0,0,0,1,1,0,0.0,7573,0,0,0,1,21,0,1,17,0,1,8,0,0,0,0,0,0,0,1,158,22,21,22,21,22,1,0
437,871,28,5,1,0,0,1,0,3,0,0.0,10519,0,0,0,1,25,0,1,18,0,1,8,0,0,0,0,0,0,0,1,188,25,24,25,27,29,1,0
438,228,79,5,1,0,1,0,1,5,0,0.0,8513,0,0,0,1,19,0,1,15,0,1,8,0,0,0,0,0,0,0,1,87,21,20,21,20,21,1,0
439,12,55,4,1,1,1,0,0,6,0,0.0,6011,0,0,0,1,20,0,1,16,0,1,8,0,0,0,0,0,0,0,1,117,21,20,21,20,21,1,0
440,98,71,4,0,0,0,0,0,3,0,0.0,6018,0,0,0,1,21,0,1,17,0,1,8,0,0,0,0,0,0,0,1,165,22,21,22,21,25,1,0
441,594,44,5,1,0,0,0,1,6,0,0.0,10013,0,0,0,1,17,0,1,17,0,1,8,0,0,0,0,0,0,0,1,146,22,21,22,21,22,1,0
442,748,26,3,1,1,1,0,0,4,0,0.0,6012,0,0,0,1,20,0,1,16,0,1,8,0,0,0,0,0,0,0,1,115,21,20,21,20,22,1,0
443,939,63,5,1,1,0,1,1,3,0,0.0,11013,0,0,0,1,12,0,1,13,0,1,8,0,0,0,0,0,0,0,1,103,18,17,18,17,18,1,0
444,95,4,3,0,0,0,1,0,2,0,0.0,6014,0,0,0,1,21,0,1,17,0,1,8,0,0,0,0,0,0,0,1,158,22,21,22,21,22,1,0
445,283,50,2,1,0,0,0,0,6,0,0.0,12513,0,0,0,1,15,0,1,14,0,1,8,0,0,0,0,0,0,0,1,81,15,14,15,14,15,1,0
446,764,72,3,1,0,0,1,1,5,0,0.0,9014,0,0,0,1,21,0,1,17,0,1,8,0,0,0,0,0,0,0,1,156,22,21,22,21,22,1,0
447,559,82,5,1,1,0,1,0,5,0,0.0,11021,0,0,0,1,21,0,1,17,0,1,9,0,0,0,0,0,0,0,1,164,24,24,24,24,24,1,0
448,476,11,3,1,0,0,1,0,4,0,0.0,6513,0,0,0,1,21,0,1,16,0,1,8,0,0,0,0,0,0,0,1,131,21,20,21,21,22,1,0
449,718,23,4,0,0,0,0,0,2,0,0.0,7020,0,0,0,1,21,0,1,16,0,1,8,0,0,0,0,0,0,0,1,107,21,20,21,20,21,1,0
450,904,27,3,0,1,0,0,1,6,0,0.0,6024,0,0,0,1,21,0,1,17,0,1,8,0,0,0,0,0,0,0,1,156,22,21,22,21,22,1,0
451,295,55,1,0,1,0,0,0,3,0,0.0,12020,0,0,0,1,18,0,1,17,0,1,8,0,0,0,0,0,0,0,1,121,21,20,21,21,22,1,0
452,302,50,4,1,1,1,0,1,6,0,0.0,6035,0,0,0,1,21,0,1,17,0,1,8,0,0,0,0,0,0,0,1,148,22,21,22,21,22,1,0
453,144,79,4,1,1,1,1,0,5,0,0.0,6016,0,0,0,1,21,0,1,17,0,1,8,0,0,0,0,0,0,0,1,141,22,21,22,21,22,1,0
454,708,6,5,1,1,1,0,1,2,0,0.0,6512,0,0,0,1,21,0,1,16,0,1,8,0,0,0,0,0,0,0,1,93,21,20,21,20,21,1,0
455,16,57,3,1,1,1,0,1,4,0,0.0,5517,0,0,0,1,21,0,1,16,0,1,8,0,0,0,0,0,0,0,1,105,21,20,21,20,21,1,0
456,133,25,3,0,0,1,0,1,1,0,0.0,6018,0,0,0,1,21,0,1,16,0,1,8,0,0,0,0,0,0,0,1,103,21,20,21,20,21,1,0
457,60,69,2,1,0,0,1,1,4,0,0.0,8532,0,0,0,1,21,0,1,16,0,1,8,0,0,0,0,0,0,0,1,91,21,20,21,20,21,1,0
458,378,75,4,1,0,0,0,1,1,0,0.0,6515,0,0,0,1,21,0,1,16,0,1,8,0,0,0,0,0,0,0,1,89,21,20,21,20,21,1,0
459,817,25,4,1,1,0,0,0,6,0,0.0,7013,0,0,0,1,21,0,1,16,0,1,8,0,0,0,0,0,0,0,1,87,21,20,21,20,21,1,0
460,312,89,0,0,1,0,1,1,1,0,0.0,6013,0,0,0,1,21,0,1,17,0,1,8,0,0,0,0,0,0,0,1,156,22,21,22,21,22,1,0
461,617,69,3,0,0,1,0,0,1,0,0.0,6016,0,0,0,1,21,0,1,16,0,1,8,0,0,0,0,0,0,0,1,138,22,21,22,21,22,1,0
462,959,82,5,1,0,0,0,0,4,0,0.0,11510,0,0,0,1,15,0,1,14,0,1,8,0,0,0,0,0,0,0,1,81,15,14,15,14,15,1,0
463,2,41,3,0,0,0,0,0,3,0,0.0,6515,0,0,0,1,21,0,1,16,0,1,8,0,0,0,0,0,0,0,1,98,21,20,21,20,21,1,0
464,777,72,1,1,1,0,1,1,6,0,0.0,13010,0,0,0,1,22,0,1,18,0,1,8,0,0,0,0,0,0,0,1,166,25,24,25,24,25,1,0
465,185,18,5,0,1,1,0,1,2,0,0.0,6013,0,0,0,1,21,0,1,16,0,1,8,0,0,0,0,0,0,0,1,88,21,20,21,20,21,1,0
466,275,16,1,1,0,1,0,1,1,0,0.0,7058,0,0,0,1,21,0,1,17,0,1,8,0,0,0,0,0,0,0,1,142,22,21,22,21,22,1,0
467,151,80,0,0,0,0,1,0,3,0,0.0,5513,0,0,0,1,21,0,1,17,0,1,8,0,0,0,0,0,0,0,1,158,22,21,22,21,22,1,0
468,809,35,2,0,1,0,1,1,6,0,0.0,13524,0,0,0,1,33,0,1,23,0,1,8,0,0,0,0,1,1,0,1,189,36,35,36,35,36,1,0
469,47,95,2,1,1,1,0,1,1,0,0.0,9533,0,0,0,1,21,0,1,16,0,1,8,0,0,0,0,0,0,0,1,163,22,21,22,21,22,1,0
470,696,79,3,0,1,0,0,1,1,0,0.0,9043,0,0,0,1,21,0,1,16,0,1,8,0,0,0,0,0,0,0,1,103,21,20,21,20,21,1,0
471,946,48,0,0,1,0,0,1,5,0,0.0,6038,0,0,0,1,19,0,1,16,0,1,8,0,0,0,0,0,0,0,1,129,21,20,21,21,22,1,0
472,577,66,5,0,1,0,0,0,3,0,0.0,12553,0,0,0,1,21,0,1,17,0,1,8,0,0,0,0,0,0,0,1,158,22,21,22,21,22,1,0
473,755,76,4,1,1,1,0,0,6,0,0.0,6513,0,0,0,1,21,0,1,17,0,1,8,0,0,0,0,0,0,0,1,131,22,21,22,21,22,1,0
474,236,22,2,0,1,0,1,1,6,0,0.0,8028,0,0,0,1,15,0,1,14,0,1,8,0,0,0,0,0,0,0,1,90,16,15,16,20,21,1,0
475,682,59,1,1,0,1,1,1,6,0,0.0,12515,0,0,0,1,22,0,1,17,0,1,8,0,0,0,0,0,0,0,1,159,22,21,22,21,22,1,0
476,285,86,4,0,1,0,1,1,3,0,0.0,6530,0,0,0,1,22,0,1,17,0,1,8,0,0,0,0,0,0,0,1,156,22,21,22,21,22,1,0
477,357,0,5,0,1,0,1,1,6,0,0.0,6013,0,0,0,1,22,0,1,17,0,1,8,0,0,0,0,0,0,0,1,158,22,21,22,21,22,1,0
478,735,49,4,0,1,0,0,1,6,0,0.0,6013,0,0,0,1,21,0,1,16,0,1,8,0,0,0,0,0,0,0,1,90,21,20,21,20,21,1,0
479,483,39,5,0,0,0,0,1,6,0,0.0,10046,0,0,0,1,20,0,1,16,0,1,8,0,0,0,0,0,0,0,1,91,21,20,21,20,21,1,0
480,335,9,4,1,0,1,1,0,1,0,0.0,6013,0,0,0,1,21,0,1,17,0,1,8,0,0,0,0,0,0,0,1,139,22,21,22,21,22,1,0
481,343,45,0,1,0,1,1,0,5,0,0.0,7031,0,0,0,1,21,0,1,17,0,1,8,0,0,0,0,0,0,0,1,152,22,21,22,21,22,1,0
482,895,25,5,0,1,1,0,0,5,0,0.0,5514,0,0,0,1,21,0,1,17,0,1,8,0,0,0,0,0,0,0,1,138,22,21,22,21,22,1,0
483,399,88,2,1,1,1,0,1,2,0,0.0,13020,0,0,0,1,25,0,1,18,0,1,8,0,0,0,0,0,0,0,1,165,25,24,25,24,25,1,0
484,53,16,2,0,0,1,0,0,4,0,0.0,6063,0,0,0,1,20,0,1,16,0,1,8,0,0,0,0,0,0,0,1,92,21,20,21,20,21,1,0
485,66,66,4,1,0,0,1,1,4,0,0.0,7043,0,0,0,1,20,0,1,16,0,1,8,0,0,0,0,0,0,0,1,97,21,20,21,20,21,1,0
486,233,18,3,1,0,0,1,0,3,0,0.0,6020,0,0,0,1,21,0,1,16,0,1,8,0,0,0,0,0,0,0,1,105,21,20,21,20,21,1,0
487,191,3,4,1,0,0,1,1,2,0,0.0,6029,0,0,0,1,18,0,1,17,0,1,8,0,0,0,0,0,0,0,1,157,22,21,22,21,22,1,0
488,761,29,2,0,1,1,1,1,3,0,0.0,11536,0,0,0,1,12,0,1,11,0,1,8,0,0,0,0,0,0,0,1,81,12,11,12,11,12,1,0
489,664,49,5,1,1,0,1,1,5,0,0.0,12030,0,0,0,1,16,0,1,15,0,1,8,0,0,0,0,0,0,0,1,87,21,20,21,20,21,1,0
490,24,17,4,0,1,0,0,1,1,0,0.0,6513,0,0,0,1,21,0,1,17,0,1,8,0,0,0,0,0,0,0,1,130,22,21,22,21,22,1,0
491,312,68,4,1,1,0,0,1,6,0,0.0,7015,0,0,0,1,18,0,1,14,0,1,8,0,0,0,0,0,0,0,1,154,19,18,19,18,19,1,0
492,679,47,2,0,1,0,1,0,3,0,0.0,13519,0,0,0,1,33,0,1,23,0,1,8,0,0,0,0,1,1,0,1,188,36,35,36,35,36,1,0
493,83,19,5,1,0,1,1,0,5,0,0.0,6520,0,0,0,1,21,0,1,16,0,1,8,0,0,0,0,0,0,0,1,103,21,20,21,20,21,1,0
494,163,52,4,0,0,1,1,1,4,0,0.0,6013,0,0,0,1,21,0,1,17,0,1,8,0,0,0,0,0,0,0,1,118,22,21,22,21,22,1,0
495,12,52,2,1,0,0,0,1,2,0,0.0,6018,0,0,0,1,22,0,1,17,0,1,8,0,0,0,0,0,0,0,1,158,22,21,22,21,22,1,0
496,787,29,3,0,1,1,1,0,6,0,0.0,7091,0,0,0,1,21,0,1,16,0,1,8,0,0,0,0,0,0,0,1,104,21,20,21,20,21,1,0
497,480,35,3,0,1,1,0,0,1,0,0.0,5522,0,0,0,1,21,0,1,16,0,1,8,0,0,0,0,0,0,0,1,104,21,20,21,20,21,1,0
498,981,80,0,1,1,0,1,1,4,0,0.0,6013,0,0,0,1,21,0,1,16,0,1,8,0,0,0,0,0,0,0,1,111,21,20,21,21,22,1,0
499,128,83,2,1,0,1,1,1,5,0,0.0,10512,0,0,0,1,17,0,1,12,0,1,8,0,0,0,0,0,0,0,1,126,17,16,17,17,18,1,0
500,939,28,3,0,1,0,0,0,6,0,0.0,7031,0,0,0,1,21,0,1,16,0,1,8,0,0,0,0,0,0,0,1,125,22,21,22,21,22,1,0
501,974,41,4,1,0,0,0,1,3,0,0.0,5514,0,0,0,1,21,0,1,17,0,1,8,0,0,0,0,0,0,0,1,128,22,21,22,21,22,1,0
502,924,47,4,1,1,0,0,1,4,0,0.0,7024,0,0,0,1,20,0,1,17,0,1,8,0,0,0,0,0,0,0,1,141,22,21,22,21,22,1,0
503,304,39,2,1,1,1,0,1,6,0,0.0,11524,0,0,0,1,15,0,1,17,0,1,8,0,0,0,0,0,0,0,1,139,22,21,22,21,22,1,0
504,883,92,5,1,1,0,1,1,3,0,0.0,11510,0,0,0,1,23,0,1,15,0,1,8,0,0,0,0,0,0,0,1,172,25,25,25,25,25,1,0
505,719,18,3,0,0,1,1,0,3,0,0.0,6013,0,0,0,1,21,0,1,17,0,1,8,0,0,0,0,0,0,0,1,143,22,21,22,21,22,1,0
506,367,46,0,0,0,1,1,0,2,0,0.0,6014,0,0,0,1,21,0,1,16,0,1,8,0,0,0,0,0,0,0,1,101,21,20,21,20,21,1,0
507,949,61,4,0,1,0,0,1,3,0,0.0,6026,0,0,0,1,21,0,1,17,0,1,8,0,0,0,0,0,0,0,1,138,22,21,22,21,22,1,0
508,672,9,1,1,1,0,1,1,3,0,0.0,8036,0,0,0,1,21,0,1,16,0,1,8,0,0,0,0,0,0,0,1,93,21,20,21,20,21,1,0
509,709,62,4,0,1,1,0,0,5,0,0.0,6015,0,0,0,1,21,0,1,16,0,1,8,0,0,0,0,0,0,0,1,112,21,20,21,20,21,1,0
510,959,62,1,1,0,1,0,1,4,0,0.0,12542,0,0,0,1,22,0,1,18,0,1,8,0,0,0,0,0,0,0,1,165,25,24,25,24,25,1,0
511,127,5,3,1,1,1,1,1,4,0,0.0,6540,0,0,0,1,21,0,1,16,0,1,8,0,0,0,0,0,0,0,1,120,22,21,22,21,22,1,0
512,552,60,1,0,0,0,1,0,3,0,0.0,12569,0,0,0,1,21,0,1,16,0,1,8,0,0,0,0,0,0,0,1,90,21,21,21,21,21,1,0
513,195,50,1,0,1,0,1,0,1,0,0.0,9515,0,0,0,1,18,0,1,17,0,1,8,0,0,0,0,0,0,0,1,138,22,21,22,21,22,1,0
514,353,4,5,0,0,0,0,0,3,0,0.0,6013,0,0,0,1,17,0,1,16,0,1,8,0,0,0,0,0,0,0,1,97,21,20,21,20,21,1,0
515,636,35,1,1,0,0,0,1,1,0,0.0,12518,0,0,0,1,20,0,1,15,0,1,8,0,0,0,0,0,0,0,1,156,20,19,20,19,20,1,0
516,939,33,2,1,0,1,1,1,2,0,0.0,13011,0,0,0,1,22,0,1,23,0,1,8,0,0,0,0,1,1,0,1,186,33,32,33,32,33,1,0
517,311,60,5,1,0,1,0,1,1,0,0.0,10024,0,0,0,1,15,0,1,14,0,1,8,0,0,0,0,0,0,0,1,88,15,14,15,14,15,1,0
518,67,27,1,1,1,1,1,0,3,0,0.0,6026,0,0,0,1,14,0,1,15,0,1,9,0,0,0,0,0,0,0,1,103,20,20,20,20,20,1,0
519,48,7,2,0,1,0,1,1,1,0,0.0,6019,0,0,0,1,21,0,1,16,0,1,8,0,0,0,0,0,0,0,1,105,21,20,21,20,21,1,0
520,955,17,3,0,1,1,0,0,2,0,0.0,6014,0,0,0,1,21,0,1,16,0,1,8,0,0,0,0,0,0,0,1,109,21,20,21,20,22,1,0
521,696,43,2,0,1,0,1,0,6,0,0.0,13030,0,0,0,1,21,0,1,17,0,1,8,0,0,0,0,0,0,0,1,156,22,21,22,21,22,1,0
522,224,13,2,1,0,1,1,1,3,0,0.0,7070,0,0,0,1,21,0,1,16,0,1,8,0,0,0,0,0,0,0,1,107,21,20,21,20,21,1,0
523,575,23,2,0,0,1,1,0,3,0,0.0,6024,0,0,0,1,21,0,1,17,0,1,8,0,0,0,0,0,0,0,1,128,22,21,22,21,22,1,0
524,868,17,1,0,1,1,1,0,6,0,0.0,6013,0,0,0,1,21,0,1,17,0,1,8,0,0,0,0,0,0,0,1,158,22,21,22,21,22,1,0
525,370,23,5,1,1,0,0,0,3,0,0.0,7019,0,0,0,1,21,0,1,18,0,1,8,0,0,0,0,0,0,0,1,165,25,24,25,24,25,1,0
526,588,69,0,1,1,1,0,0,5,0,0.0,6015,0,0,0,1,20,0,1,16,0,1,8,0,0,0,0,0,0,0,1,150,22,21,22,21,22,1,0
527,225,9,1,0,0,0,1,1,4,0,0.0,6512,0,0,0,1,21,0,1,17,0,1,8,0,0,0,0,0,0,0,1,135,22,21,22,21,22,1,0
528,711,70,3,0,1,0,1,1,1,0,0.0,7513,0,0,0,1,21,0,1,16,0,1,8,0,0,0,0,0,0,0,1,103,21,20,21,20,21,1,0
529,866,42,1,0,0,0,0,1,5,0,0.0,12514,0,0,0,1,18,0,1,14,0,1,8,0,0,0,0,0,0,0,1,142,22,21,22,21,22,1,0
530,268,14,0,0,1,0,1,0,5,0,0.0,6519,0,0,0,1,18,0,1,17,0,1,8,0,0,0,0,0,0,0,1,158,22,21,22,21,22,1,0
531,391,73,0,1,1,1,1,1,5,0,0.0,6012,0,0,0,1,20,0,1,16,0,1,8,0,0,0,0,0,0,0,1,89,21,20,21,20,21,1,0
532,266,98,2,1,1,0,1,1,1,0,0.0,11539,0,0,0,1,28,0,1,20,0,1,8,0,0,0,0,0,0,0,1,183,30,29,30,29,30,1,0
533,858,82,3,0,1,0,1,1,3,0,0.0,10050,0,0,0,1,22,0,1,17,0,1,8,0,0,0,0,0,0,0,1,117,22,21,22,21,22,1,0
534,812,62,5,1,0,1,1,1,5,0,0.0,11013,0,0,0,1,31,0,1,23,0,1,8,0,0,0,0,1,1,0,1,188,36,35,36,35,36,1,0
535,772,35,5,1,0,1,1,1,2,0,0.0,10038,0,0,0,1,18,0,1,17,0,1,8,0,0,0,0,0,0,0,1,165,25,24,25,24,25,1,0
536,673,32,0,1,1,1,1,0,1,0,0.0,6022,0,0,0,1,20,0,1,16,0,1,8,0,0,0,0,0,0,0,1,107,21,20,21,20,21,1,0
537,561,66,5,0,0,1,0,1,3,0,0.0,12013,0,0,0,1,25,0,1,23,0,2,10,0,1,1,0,2,2,0,1,206,39,38,39,42,45,1,0
538,244,70,5,0,0,1,1,1,4,0,0.0,8519,0,0,0,1,14,0,1,13,0,1,9,0,0,0,0,0,0,0,1,80,14,14,14,14,14,1,0
539,374,31,5,0,0,0,1,0,2,0,0.0,8543,0,0,0,1,15,0,1,16,0,1,8,0,0,0,0,0,0,0,1,92,21,20,21,20,21,1,0
540,856,46,4,1,0,1,1,1,1,0,0.0,6012,0,0,0,1,21,0,1,16,0,1,8,0,0,0,0,0,0,0,1,91,21,20,21,20,21,1,0
541,540,100,1,1,1,1,1,1,1,0,0.0,13027,0,0,0,1,33,0,1,23,0,1,8,0,0,0,0,1,1,0,1,189,36,35,36,35,36,1,0
542,621,45,4,1,0,1,0,0,6,0,0.0,6012,0,0,0,1,21,0,1,16,0,1,8,0,0,0,0,0,0,0,1,103,21,20,21,20,21,1,0
543,590,82,3,1,0,1,1,0,2,0,0.0,6020,0,0,0,1,21,0,1,16,0,1,8,0,0,0,0,0,0,0,1,87,21,20,21,20,21,1,0
544,454,46,4,0,0,1,0,1,1,0,0.0,6011,0,0,0,1,22,0,1,17,0,1,8,0,0,0,0,2,2,0,1,208,22,21,22,21,22,1,0
545,883,41,2,0,0,0,0,0,4,0,0.0,13510,0,0,0,1,33,0,1,23,0,1,8,0,0,0,0,1,1,0,1,188,36,35,36,35,36,1,0
546,550,46,0,0,0,0,0,0,2,0,0.0,5512,0,0,0,1,17,0,1,16,0,1,8,0,0,0,0,0,0,0,1,103,21,20,21,20,21,1,0
547,448,93,5,1,0,1,0,0,2,0,0.0,6016,0,0,0,1,21,0,1,16,0,1,8,0,0,0,0,0,0,0,1,104,21,20,21,20,21,1,0
548,190,47,1,0,0,0,1,1,1,0,0.0,9513,0,0,0,1,21,0,1,17,0,1,8,0,0,0,0,0,0,0,1,125,22,21,22,21,22,1,0
549,9,67,5,1,1,1,1,0,2,0,0.0,6524,0,0,0,1,21,0,1,16,0,1,8,0,0,0,0,0,0,0,1,104,21,20,21,20,21,1,0
550,193,1,5,0,0,1,1,0,1,0,0.0,6012,0,0,0,1,21,0,1,16,0,1,8,0,0,0,0,0,0,0,1,92,21,20,21,20,21,1,0
551,388,64,1,1,0,0,1,1,3,0,0.0,10510,0,0,0,1,21,0,1,16,0,1,8,0,0,0,0,0,0,0,1,107,21,21,21,21,21,1,0
552,900,45,5,1,1,0,0,0,1,0,0.0,12556,0,0,0,1,31,0,1,23,0,1,8,0,0,0,0,1,1,0,1,188,36,35,36,35,36,1,0
553,688,47,5,0,0,0,1,1,6,0,0.0,11541,0,0,0,1,20,0,1,15,0,1,8,0,0,0,0,0,0,0,1,111,21,20,21,20,21,1,0
554,180,29,2,0,0,0,1,0,1,0,0.0,8513,0,0,0,1,21,0,1,17,0,1,8,0,0,0,0,0,0,0,1,115,22,21,22,21,22,1,0
555,746,62,0,0,0,0,1,1,3,0,0.0,6011,0,0,0,1,21,0,1,17,0,1,8,0,0,0,0,0,0,0,1,146,22,21,22,21,22,1,0
556,321,13,3,1,1,0,0,0,2,0,0.0,6010,0,0,0,1,17,0,1,17,0,1,8,0,0,0,0,0,0,0,1,118,22,21,22,21,22,1,0
557,476,74,3,0,1,0,0,1,2,0,0.0,6520,0,0,0,1,21,0,1,17,0,1,8,0,0,0,0,0,0,0,1,158,22,21,22,21,22,1,0
558,160,98,2,0,0,1,1,1,3,0,0.0,12013,0,0,0,1,18,0,1,13,0,1,8,0,0,0,0,0,0,0,1,84,18,17,18,17,18,1,0
559,771,79,4,0,1,1,0,1,3,0,0.0,6013,0,0,0,1,18,0,1,13,0,1,8,0,0,0,0,0,0,0,1,89,18,17,18,18,21,1,0
560,949,43,0,0,0,0,1,0,1,0,0.0,6016,0,0,0,1,21,0,1,16,0,1,8,0,0,0,0,0,0,0,1,88,21,20,21,20,21,1,0
561,349,66,5,1,1,0,1,1,3,0,0.0,10513,0,0,0,1,21,0,1,16,0,1,8,0,0,0,0,0,0,0,1,109,22,21,22,21,22,1,0
562,871,91,2,0,1,1,0,1,4,0,0.0,14013,0,0,0,1,33,0,1,23,0,1,8,0,0,0,0,1,1,0,1,188,36,35,36,35,36,1,0
563,387,81,1,0,1,1,0,0,4,0,0.0,5513,0,0,0,1,20,0,1,17,0,1,8,0,0,0,0,0,0,0,1,119,22,22,22,22,22,1,0
564,313,77,1,1,1,0,0,1,4,0,0.0,11042,0,0,0,1,22,0,1,15,0,1,8,0,0,0,0,0,0,0,1,162,22,21,22,21,22,1,0
565,289,45,4,0,1,0,0,1,5,0,0.0,7016,0,0,0,1,21,0,1,16,0,1,8,0,0,0,0,0,0,0,1,158,21,21,21,22,22,1,0
566,377,31,2,0,1,1,0,0,3,0,0.0,6016,0,0,0,1,21,0,1,17,0,1,8,0,0,0,0,0,0,0,1,123,22,21,22,21,22,1,0
567,278,22,4,0,1,1,1,1,1,0,0.0,6021,0,0,0,1,21,0,1,17,0,1,8,0,0,0,0,0,0,0,1,158,22,21,22,21,22,1,0
568,499,8,2,1,1,1,1,1,3,0,0.0,7513,0,0,0,1,15,0,1,16,0,1,8,0,0,0,0,0,0,0,1,87,21,20,21,20,21,1,0
569,725,75,4,0,1,1,0,1,2,0,0.0,6512,0,0,0,1,21,0,1,17,0,1,8,0,0,0,0,0,0,0,1,139,22,21,22,21,22,1,0
570,662,43,0,0,1,0,1,0,4,0,0.0,6012,0,0,0,1,21,0,1,16,0,1,8,0,0,0,0,0,0,0,1,136,22,21,22,21,22,1,0
571,751,37,2,0,0,1,0,1,2,0,0.0,12511,0,0,0,1,33,0,1,23,0,1,8,0,0,0,0,1,1,0,1,188,36,35,36,35,36,1,0
572,506,33,4,0,0,0,0,0,6,0,0.0,5511,0,0,0,1,21,0,1,16,0,1,8,0,0,0,0,0,0,0,1,87,21,20,21,20,21,1,0
573,582,35,0,0,0,1,0,1,4,0,0.0,6013,0,0,0,1,21,0,1,16,0,1,8,0,0,0,0,0,0,0,1,91,21,20,21,20,21,1,0
574,118,36,5,1,0,0,0,1,2,0,0.0,6512,0,0,0,1,22,0,1,17,0,1,8,0,0,0,0,0,0,0,1,144,22,21,22,21,22,1,0
575,647,71,0,0,0,1,1,0,3,0,0.0,5513,0,0,0,1,16,0,1,16,0,1,8,0,0,0,0,0,0,0,1,91,21,20,21,20,21,1,0
576,310,79,3,1,0,0,1,0,3,0,0.0,6525,0,0,0,1,18,0,1,16,0,1,8,0,0,0,0,0,0,0,1,111,21,20,21,20,21,1,0
577,371,93,4,0,0,1,0,0,1,0,0.0,6011,0,0,0,1,18,0,1,16,0,1,8,0,0,0,0,0,0,0,1,127,21,20,21,20,22,1,0
578,805,75,2,1,0,1,1,1,3,0,0.0,13009,0,0,0,1,22,0,1,15,0,1,8,0,0,0,0,0,0,0,1,171,24,23,24,23,24,1,0
579,613,1,1,0,0,0,1,0,5,0,0.0,6513,0,0,0,1,21,0,1,18,0,1,8,0,0,0,0,0,0,0,1,165,25,24,25,24,25,1,0
580,812,8,4,0,0,1,1,0,4,0,0.0,5526,0,0,0,1,21,0,1,16,0,1,8,0,0,0,0,0,0,0,1,121,21,20,21,21,22,1,0
581,567,78,5,1,0,1,1,1,6,0,0.0,10590,0,0,0,1,17,0,1,13,0,1,8,0,0,0,0,0,0,0,1,102,18,17,18,17,18,1,0
582,2,6,2,1,0,1,0,0,4,0,0.0,5512,0,0,0,1,21,0,1,17,0,1,8,0,0,0,0,0,0,0,1,126,22,21,22,21,22,1,0
583,143,65,0,0,0,0,1,1,2,0,0.0,6017,0,0,0,1,21,0,1,16,0,1,8,0,0,0,0,0,0,0,1,126,22,21,22,21,22,1,0
584,621,2,5,1,0,0,0,0,6,0,0.0,6069,0,0,0,1,21,0,1,16,0,1,8,0,0,0,0,0,0,0,1,103,21,20,21,20,21,1,0
585,641,71,5,0,1,1,0,1,3,0,0.0,13578,0,0,0,1,24,0,1,23,0,1,8,0,0,0,0,1,1,0,1,188,36,35,36,35,36,1,0
586,106,28,4,1,1,0,0,1,5,0,0.0,6531,0,0,0,1,21,0,1,16,0,1,8,0,0,0,0,0,0,0,1,127,21,20,21,21,22,1,0
587,581,5,3,0,0,0,0,1,1,0,0.0,6052,0,0,0,1,21,0,1,17,0,1,8,0,0,0,0,0,0,0,1,158,22,21,22,21,22,1,0
588,308,86,2,1,0,0,0,0,4,0,0.0,12511,0,0,0,1,33,0,1,23,0,1,8,0,0,0,0,1,1,0,1,188,36,35,36,35,36,1,0
589,596,82,1,1,0,0,0,0,6,0,0.0,12515,0,0,0,1,31,0,1,23,0,1,8,0,0,0,0,1,1,0,1,186,33,32,33,32,33,1,0
590,560,59,4,0,1,1,1,1,1,0,0.0,6024,0,0,0,1,21,0,1,16,0,1,8,0,0,0,0,0,0,0,1,87,21,20,21,20,21,1,0
591,745,92,3,1,0,0,0,1,3,0,0.0,9025,0,0,0,1,18,0,1,16,0,1,8,0,0,0,0,0,0,0,1,103,21,20,21,20,21,1,0
592,251,42,5,1,0,0,0,0,4,0,0.0,7017,0,0,0,1,14,0,1,13,0,1,8,0,0,0,0,0,0,0,1,80,14,13,14,13,14,1,0
593,652,55,3,1,0,0,0,1,2,0,0.0,8034,0,0,0,1,15,0,1,14,0,1,8,0,0,0,0,0,0,0,1,83,17,17,17,17,17,1,0
594,111,58,5,1,1,1,0,1,5,0,0.0,6554,0,0,0,1,21,0,1,16,0,1,8,0,0,0,0,0,0,0,1,89,21,20,21,20,21,1,0
595,396,51,0,1,1,0,1,0,5,0,0.0,6013,0,0,0,1,21,0,1,16,0,2,10,0,0,0,0,2,2,0,1,208,37,36,37,43,47,1,0
596,586,54,4,0,0,1,1,1,6,0,0.0,6013,0,0,0,1,21,0,1,16,0,1,8,0,0,0,0,0,0,0,1,119,21,20,21,21,22,1,0
597,925,81,2,1,1,0,0,1,6,0,1.0,13019,1,0,0,1,31,0,1,23,0,1,8,0,0,0,0,1,1,0,1,186,33,32,33,32,33,1,0
598,382,4,5,0,0,1,0,1,3,0,0.0,6010,0,0,0,1,20,0,1,17,0,1,8,0,0,0,0,0,0,0,1,142,22,21,22,21,22,1,0
599,552,30,0,1,1,1,1,1,1,0,0.0,6012,0,0,0,1,20,0,1,17,0,1,8,0,0,0,0,0,0,0,1,158,22,21,22,21,22,1,0
600,596,64,1,1,1,1,1,1,6,0,0.0,12010,0,0,0,1,25,0,1,18,0,1,8,0,0,0,0,0,0,0,1,174,27,26,27,26,27,1,0
601,782,41,4,0,0,0,1,0,1,0,0.0,6013,0,0,0,1,14,0,1,15,0,1,9,0,0,0,0,0,0,0,1,106,20,20,20,20,20,1,0
602,759,48,3,0,0,0,1,1,2,0,0.0,6522,0,0,0,1,21,0,1,17,0,1,8,0,0,0,0,0,0,0,1,156,22,21,22,21,22,1,0
603,842,76,4,1,1,1,1,1,2,0,0.0,6539,0,0,0,1,21,0,1,16,0,1,8,0,0,0,0,0,0,0,1,93,21,20,21,20,21,1,0
604,811,5,2,0,1,0,1,1,6,0,0.0,7515,0,0,0,1,11,0,1,16,0,1,8,0,0,0,0,0,0,0,1,121,21,20,21,21,22,1,0
605,838,91,3,0,1,1,0,0,2,0,0.0,6513,0,0,0,1,21,0,1,16,0,1,8,0,0,0,0,0,0,0,1,104,21,20,21,20,21,1,0
606,660,28,0,1,0,0,0,1,1,0,0.0,7078,0,0,0,1,21,0,1,17,0,1,8,0,0,0,0,0,0,0,1,133,22,21,22,21,22,1,0
607,504,88,2,1,0,0,0,1,2,0,0.0,13016,0,0,0,1,21,0,1,16,0,1,8,0,0,0,0,0,0,0,1,157,21,20,21,20,21,1,0
608,280,86,4,1,0,0,1,0,5,0,0.0,6023,0,0,0,1,21,0,1,17,0,1,8,0,0,0,0,0,0,0,1,156,22,21,22,21,22,1,0
609,93,95,5,1,0,0,0,0,2,0,0.0,8044,0,0,0,1,21,0,1,16,0,1,8,0,0,0,0,0,0,0,1,103,21,20,21,20,21,1,0
610,636,30,0,1,0,1,1,1,4,0,0.0,6017,0,0,0,1,21,0,1,17,0,1,8,0,0,0,0,0,0,0,1,141,22,21,22,21,22,1,0
611,505,30,2,0,1,0,1,0,6,0,0.0,10516,0,0,0,1,15,0,1,14,0,1,8,0,0,0,0,0,0,0,1,92,21,20,21,20,21,1,0
612,770,60,0,0,1,1,0,1,4,0,0.0,7025,0,0,0,1,20,0,1,15,0,1,8,0,0,0,0,0,0,0,1,106,20,20,20,20,21,1,0
613,853,82,3,0,1,0,1,1,5,0,0.0,10019,0,0,0,1,22,0,1,18,0,1,8,0,0,0,0,0,0,0,1,165,25,24,25,24,25,1,0
614,268,99,2,1,1,1,1,0,6,0,0.0,6015,0,0,0,1,21,0,1,16,0,1,8,0,0,0,0,0,0,0,1,105,21,20,21,20,21,1,0
615,451,2,5,0,1,0,0,0,4,0,0.0,6021,0,0,0,1,20,0,1,17,0,1,8,0,0,0,0,0,0,0,1,108,21,20,21,20,21,1,0
616,473,8,0,0,0,0,1,0,3,0,0.0,6014,0,0,0,1,21,0,1,17,0,1,8,0,0,0,0,0,0,0,1,165,22,21,22,21,22,1,0
617,114,87,4,0,0,0,0,1,3,0,0.0,6017,0,0,0,1,14,0,1,13,0,1,9,0,0,0,0,0,0,0,1,87,17,17,17,17,20,1,0
618,211,39,4,0,1,0,0,0,2,0,0.0,8096,0,0,0,1,20,0,1,16,0,1,8,0,0,0,0,0,0,0,1,104,21,20,21,20,21,1,0
619,692,3,4,1,1,0,1,1,5,0,0.0,6012,0,0,0,1,21,0,1,17,0,1,8,0,0,0,0,0,0,0,1,157,22,21,22,21,22,1,0
620,691,64,3,0,0,0,1,0,5,0,0.0,7540,0,0,0,1,21,0,1,16,0,1,8,0,0,0,0,0,0,0,1,104,21,20,21,20,21,1,0
621,875,28,2,1,0,0,0,1,1,0,0.0,11510,0,0,0,1,15,0,1,14,0,1,8,0,0,0,0,0,0,0,1,88,19,18,19,20,21,1,0
622,448,82,4,0,1,0,1,1,1,0,0.0,6013,0,0,0,1,21,0,1,16,0,1,8,0,0,0,0,0,0,0,1,141,22,21,22,21,22,1,0
623,230,49,5,0,1,1,0,0,4,0,0.0,6011,0,0,0,1,21,0,1,17,0,1,8,0,0,0,0,0,0,0,1,159,22,21,22,22,23,1,0
624,984,86,2,1,0,1,0,1,1,0,1.0,15587,1,0,0,1,41,0,1,25,0,4,15,0,1,6,0,4,4,0,1,210,48,47,48,44,45,1,0
625,419,76,3,0,1,1,1,0,3,0,0.0,6513,0,0,0,1,21,0,1,17,0,1,8,0,0,0,0,0,0,0,1,144,22,21,22,21,22,1,0
626,303,98,2,0,1,1,0,0,1,0,0.0,7015,0,0,0,1,21,0,1,16,0,1,8,0,0,0,0,0,0,0,1,87,21,20,21,20,21,1,0
627,534,23,2,1,0,0,1,1,3,0,0.0,11016,0,0,0,1,18,0,1,17,0,1,8,0,0,0,0,0,0,0,1,163,25,24,25,24,25,1,0
628,559,88,0,0,1,0,1,0,1,0,0.0,5511,0,0,0,1,18,0,1,16,0,1,8,0,0,0,0,0,0,0,1,108,21,20,21,20,21,1,0
629,884,100,2,0,1,0,0,1,4,0,0.0,14008,0,0,0,1,33,0,1,23,0,1,8,0,0,0,0,1,1,0,1,188,36,35,36,35,36,1,0
630,142,38,0,0,1,0,1,0,3,0,0.0,6514,0,0,0,1,21,0,1,17,0,1,8,0,0,0,0,0,0,0,1,146,22,21,22,21,22,1,0
631,481,61,2,0,0,0,1,0,5,0,0.0,13569,0,0,0,1,25,0,1,23,0,1,8,0,0,0,0,0,0,0,1,186,32,31,32,31,32,1,0
632,532,58,1,1,0,0,1,0,2,0,0.0,11045,0,0,0,1,14,0,1,14,0,1,8,0,0,0,0,0,0,0,1,87,21,20,21,20,21,1,0
633,58,36,1,0,1,0,1,1,6,0,0.0,6530,0,0,0,1,14,0,1,16,0,1,9,0,0,0,0,0,0,0,1,137,21,21,21,21,21,1,0
634,230,21,4,1,1,0,1,0,1,0,0.0,5521,0,0,0,1,21,0,1,16,0,1,8,0,0,0,0,0,0,0,1,88,21,20,21,20,21,1,0
635,149,15,4,0,1,1,0,1,5,0,0.0,6012,0,0,0,1,21,0,1,17,0,1,8,0,0,0,0,0,0,0,1,163,22,21,22,24,25,1,0
636,936,18,2,0,1,1,0,1,2,0,0.0,10537,0,0,0,1,31,0,1,23,0,1,8,0,0,0,0,1,1,0,1,188,36,35,36,35,36,1,0
637,900,28,1,0,1,0,0,0,4,0,0.0,11011,0,0,0,1,22,0,1,17,0,1,8,0,0,0,0,0,0,0,1,158,22,21,22,21,22,1,0
638,994,21,3,0,1,1,0,0,5,0,0.0,5518,0,0,0,1,14,0,1,15,0,1,9,0,0,0,0,0,0,0,1,137,21,21,21,21,21,1,0
639,208,96,3,0,0,0,0,0,4,0,0.0,7528,0,0,0,1,21,0,1,17,0,1,8,0,0,0,0,0,0,0,1,185,22,21,22,25,28,1,0
640,470,34,3,0,1,1,1,0,5,0,0.0,5525,0,0,0,1,21,0,1,17,0,1,8,0,0,0,0,0,0,0,1,158,22,21,22,21,22,1,0
641,100,92,2,0,1,0,0,0,2,0,0.0,11021,0,0,0,1,18,0,1,13,0,1,8,0,0,0,0,0,0,0,1,86,18,17,18,17,18,1,0
642,864,16,0,0,0,0,1,0,5,0,0.0,6013,0,0,0,1,21,0,1,16,0,1,8,0,0,0,0,0,0,0,1,115,21,20,21,21,22,1,0
643,873,84,4,1,0,1,1,1,4,0,0.0,6015,0,0,0,1,21,0,1,16,0,1,8,0,0,0,0,0,0,0,1,141,22,21,22,21,22,1,0
644,963,6,5,0,0,1,0,1,1,0,0.0,6512,0,0,0,1,12,0,1,11,0,1,8,0,0,0,0,0,0,0,1,90,21,20,21,20,21,1,0
645,840,80,3,1,1,1,0,0,3,0,0.0,6512,0,0,0,1,21,0,1,17,0,1,8,0,0,0,0,0,0,0,1,131,22,21,22,21,22,1,0
646,865,84,2,0,1,1,1,1,4,0,1.0,12559,1,0,0,1,31,0,1,23,0,1,8,0,0,0,0,1,1,0,1,186,33,32,33,32,33,1,0
647,684,16,5,0,1,0,1,1,3,0,0.0,7515,0,0,0,1,22,0,1,17,0,1,8,0,0,0,0,0,0,0,1,161,22,21,22,21,22,1,0
648,961,33,0,1,1,1,0,0,2,0,0.0,5512,0,0,0,1,21,0,1,16,0,1,8,0,0,0,0,0,0,0,1,89,21,20,21,20,21,1,0
649,760,5,5,1,0,1,0,1,2,0,0.0,6511,0,0,0,1,21,0,1,17,0,1,8,0,0,0,0,0,0,0,1,118,22,21,22,21,22,1,0
650,706,5,5,0,0,0,0,0,2,0,0.0,6010,0,0,0,1,21,0,1,16,0,1,8,0,0,0,0,0,0,0,1,109,21,20,21,20,21,1,0
651,925,13,1,1,1,0,0,0,4,0,0.0,9512,0,0,0,1,21,0,1,17,0,1,8,0,0,0,0,0,0,0,1,108,21,20,21,20,21,1,0
652,306,60,1,1,0,0,0,0,4,0,0.0,12024,0,0,0,1,17,0,1,13,0,1,8,0,0,0,0,0,0,0,1,106,18,17,18,17,18,1,0
653,662,39,0,0,0,0,0,0,5,0,0.0,6012,0,0,0,1,21,0,1,17,0,1,8,0,0,0,0,0,0,0,1,135,22,21,22,21,22,1,0
654,505,68,2,1,1,0,1,0,3,0,0.0,12515,0,0,0,1,22,0,1,20,0,1,8,0,0,0,0,1,1,0,1,185,33,32,33,32,33,1,0
655,320,94,5,0,1,1,0,0,4,0,0.0,5512,0,0,0,1,21,0,1,17,0,1,8,0,0,0,0,0,0,0,1,121,22,21,22,21,22,1,0
656,856,82,3,0,0,1,1,1,2,0,0.0,8512,0,0,0,1,21,0,1,17,0,1,8,0,0,0,0,0,0,0,1,149,22,21,22,21,22,1,0
657,954,25,2,1,1,1,0,0,3,0,0.0,5512,0,0,0,1,21,0,1,16,0,1,8,0,0,0,0,0,0,0,1,89,21,20,21,20,21,1,0
658,46,2,4,1,1,1,0,1,6,0,0.0,6012,0,0,0,1,21,0,1,17,0,1,8,0,0,0,0,0,0,0,1,126,22,21,22,21,22,1,0
659,888,32,1,1,0,0,1,1,3,0,0.0,11011,0,0,0,1,25,0,1,23,0,1,8,0,0,0,0,1,1,0,1,186,33,32,33,32,33,1,0
660,951,10,5,0,0,1,0,0,2,0,0.0,7013,0,0,0,1,18,0,1,13,0,1,8,0,0,0,0,0,0,0,1,87,18,17,18,17,18,1,0
661,777,61,3,0,0,1,1,0,1,0,0.0,6013,0,0,0,1,21,0,1,17,0,1,8,0,0,0,0,0,0,0,1,127,22,21,22,21,22,1,0
662,740,0,5,1,1,0,1,1,5,0,0.0,6051,0,0,0,1,21,0,1,17,0,1,8,0,0,0,0,0,0,0,1,141,22,21,22,21,22,1,0
663,425,55,0,1,1,1,1,1,1,0,0.0,6013,0,0,0,1,21,0,1,17,0,1,8,0,0,0,0,0,0,0,1,159,22,21,22,21,22,1,0
664,916,60,1,1,0,1,1,1,1,0,0.0,12511,0,0,0,1,21,0,1,16,0,1,8,0,0,0,0,0,0,0,1,112,22,21,22,21,22,1,0
665,450,44,1,1,0,1,0,1,4,0,0.0,12014,0,0,0,1,25,0,1,23,0,2,10,0,1,1,0,2,2,0,1,191,39,38,39,38,39,1,0
666,967,40,0,0,0,0,1,1,1,0,0.0,6513,0,0,0,1,21,0,1,17,0,1,8,0,0,0,0,0,0,0,1,142,22,21,22,21,22,1,0
667,555,95,4,0,0,0,0,1,6,0,0.0,6012,0,0,0,1,20,0,1,16,0,1,8,0,0,0,0,0,0,0,1,104,21,20,21,20,21,1,0
668,50,61,4,1,0,1,1,0,1,0,0.0,6012,0,0,0,1,21,0,1,17,0,1,8,0,0,0,0,0,0,0,1,158,22,21,22,21,22,1,0
669,832,7,1,0,0,1,0,0,2,0,0.0,6015,0,0,0,1,21,0,1,17,0,1,8,0,0,0,0,0,0,0,1,156,22,21,22,21,22,1,0
670,226,9,0,0,1,1,0,1,5,0,0.0,6014,0,0,0,1,21,0,1,16,0,1,8,0,0,0,0,0,0,0,1,106,21,20,21,20,21,1,0
671,701,45,5,0,0,0,1,0,3,0,0.0,10016,0,0,0,1,33,0,1,23,0,1,8,0,0,0,0,2,2,0,1,195,36,35,36,35,36,1,0
672,782,37,5,0,0,0,1,0,1,0,0.0,11013,0,0,0,1,21,0,1,17,0,1,8,0,0,0,0,0,0,0,1,145,22,21,22,21,22,1,0
673,980,48,3,1,1,0,1,0,2,0,0.0,6512,0,0,0,1,21,0,1,17,0,1,8,0,0,0,0,0,0,0,1,158,22,21,22,21,22,1,0
674,987,30,5,1,1,1,0,1,6,0,0.0,11015,0,0,0,1,20,0,1,17,0,1,8,0,0,0,0,0,0,0,1,120,22,21,22,21,22,1,0
675,248,15,3,1,0,0,0,1,1,0,0.0,6034,0,0,0,1,20,0,1,16,0,1,9,0,0,0,0,0,0,0,1,164,21,21,21,24,24,1,0
676,213,3,3,1,1,1,0,0,1,0,0.0,6513,0,0,0,1,21,0,1,16,0,1,8,0,0,0,0,0,0,0,1,105,21,20,21,20,21,1,0
677,223,39,1,0,1,1,1,0,1,0,0.0,5513,0,0,0,1,21,0,1,17,0,1,8,0,0,0,0,0,0,0,1,153,22,21,22,21,22,1,0
678,734,42,0,1,0,0,0,0,6,0,0.0,6012,0,0,0,1,21,0,1,17,0,1,8,0,0,0,0,0,0,0,1,165,22,21,22,21,23,1,0
679,305,42,3,0,1,0,1,1,5,0,0.0,6027,0,0,0,1,21,0,1,17,0,1,8,0,0,0,0,0,0,0,1,165,25,24,25,24,25,1,0
680,43,27,0,1,1,0,0,0,1,0,0.0,6014,0,0,0,1,21,0,1,17,0,1,8,0,0,0,0,0,0,0,1,130,22,21,22,21,22,1,0
681,740,50,3,1,1,0,0,1,6,0,0.0,7543,0,0,0,1,21,0,1,17,0,1,8,0,0,0,0,0,0,0,1,153,22,21,22,21,22,1,0
682,381,31,0,1,0,1,0,1,1,0,0.0,5540,0,0,0,1,21,0,1,17,0,1,8,0,0,0,0,0,0,0,1,135,22,21,22,21,22,1,0
683,466,31,2,0,1,0,0,1,5,0,0.0,11539,0,0,0,1,12,0,1,14,0,1,8,0,0,0,0,0,0,0,1,81,15,14,15,14,15,1,0
684,813,35,0,1,0,1,0,1,6,0,0.0,6548,0,0,0,1,20,0,1,16,0,1,8,0,0,0,0,0,0,0,1,107,21,20,21,20,21,1,0
685,577,50,4,0,0,0,1,0,6,0,0.0,6012,0,0,0,1,21,0,1,16,0,1,8,0,0,0,0,0,0,0,1,89,21,20,21,20,21,1,0
686,651,43,3,1,1,0,0,0,1,0,0.0,6011,0,0,0,1,21,0,1,16,0,1,8,0,0,0,0,0,0,0,1,90,21,20,21,20,21,1,0
687,826,60,1,1,1,1,1,0,6,0,0.0,6055,0,0,0,1,21,0,1,17,0,1,8,0,0,0,0,0,0,0,1,145,22,21,22,21,22,1,0
688,715,40,4,0,1,1,0,0,6,0,0.0,6012,0,0,0,1,20,0,1,17,0,1,8,0,0,0,0,0,0,0,1,136,22,21,22,21,22,1,0
689,349,63,4,0,1,1,1,0,3,0,0.0,6012,0,0,0,1,21,0,1,16,0,1,8,0,0,0,0,0,0,0,1,92,21,20,21,20,21,1,0
690,403,51,1,0,0,1,0,0,3,0,0.0,6012,0,0,0,1,21,0,1,17,0,1,8,0,0,0,0,0,0,0,1,137,22,21,22,21,22,1,0
691,521,38,4,0,1,0,0,0,3,0,0.0,6011,0,0,0,1,21,0,1,17,0,1,8,0,0,0,0,0,0,0,1,165,22,21,22,21,22,1,0
692,473,23,3,0,0,0,0,1,5,0,0.0,6010,0,0,0,1,21,0,1,17,0,1,8,0,0,0,0,0,0,0,1,158,22,21,22,21,22,1,0
693,136,80,1,1,1,1,1,1,2,0,0.0,10590,0,0,0,1,33,0,1,23,0,1,8,0,0,0,0,1,1,0,1,188,36,35,36,35,36,1,0
694,51,50,5,0,0,0,0,1,2,0,0.0,6032,0,0,0,1,57,0,1,38,0,4,20,0,1,9,0,3,3,0,1,235,69,68,69,60,61,1,0
695,360,55,4,1,1,1,1,1,3,0,0.0,6013,0,0,0,1,21,0,1,16,0,1,8,0,0,0,0,0,0,0,1,87,21,20,21,20,21,1,0
696,787,91,2,0,0,0,0,1,1,0,1.0,12510,1,0,0,1,22,0,1,17,0,1,8,0,0,0,0,0,0,0,1,163,22,21,22,21,25,1,0
697,226,18,0,0,1,1,1,0,4,0,0.0,6533,0,0,0,1,20,0,1,16,0,1,8,0,0,0,0,0,0,0,1,89,21,20,21,20,21,1,0
698,106,55,3,1,0,1,0,0,6,0,0.0,6059,0,0,0,1,21,0,1,16,0,1,8,0,0,0,0,0,0,0,1,90,21,20,21,20,21,1,0
699,492,50,5,0,1,0,0,0,2,0,0.0,9519,0,0,0,1,22,0,1,17,0,1,8,0,0,0,0,0,0,0,1,146,22,21,22,21,22,1,0
700,584,65,0,0,1,0,0,1,6,0,0.0,6523,0,0,0,1,11,0,1,15,0,1,9,0,0,0,0,0,0,0,1,106,20,20,20,20,20,1,0
701,434,74,5,1,1,0,0,0,6,0,0.0,11014,0,0,0,1,31,0,1,23,0,1,8,0,0,0,0,1,1,0,1,186,33,32,33,32,33,1,0
702,148,30,2,1,0,1,0,0,4,0,0.0,6017,0,0,0,1,14,0,1,16,0,1,9,0,0,0,0,0,0,0,1,141,21,21,21,21,21,1,0
703,593,56,1,1,0,0,0,1,3,0,0.0,11080,0,0,0,1,21,0,1,16,0,1,8,0,0,0,0,0,0,0,1,142,22,21,22,21,22,1,0
704,91,85,5,0,1,1,1,0,5,0,0.0,6055,0,0,0,1,21,0,1,16,0,1,8,0,0,0,0,0,0,0,1,143,21,20,21,21,22,1,0
705,468,84,5,0,1,0,1,0,6,0,0.0,12151,0,0,0,1,40,0,1,26,0,3,13,0,1,5,0,3,3,0,1,211,49,48,49,46,47,1,0
706,603,19,0,1,1,1,0,0,5,0,0.0,6516,0,0,0,1,21,0,1,16,0,1,8,0,0,0,0,0,0,0,1,103,21,20,21,20,21,1,0
707,629,6,0,0,1,0,0,0,6,0,0.0,6017,0,0,0,1,21,0,1,16,0,1,8,0,0,0,0,0,0,0,1,90,21,20,21,20,21,1,0
708,961,19,0,1,1,1,0,1,3,0,0.0,6013,0,0,0,1,21,0,1,16,0,1,8,0,0,0,0,0,0,0,1,87,21,20,21,20,21,1,0
709,127,58,0,1,1,1,1,1,4,0,0.0,6015,0,0,0,1,21,0,1,16,0,1,8,0,0,0,0,0,0,0,1,114,21,20,21,20,22,1,0
710,981,12,3,0,1,0,1,0,5,0,0.0,6012,0,0,0,1,21,0,1,16,0,1,8,0,0,0,0,0,0,0,1,117,22,21,22,21,22,1,0
711,803,55,4,0,1,1,0,0,1,0,0.0,6013,0,0,0,1,21,0,1,17,0,1,8,0,0,0,0,0,0,0,1,136,22,21,22,21,22,1,0
712,161,40,5,1,0,1,1,0,6,0,0.0,6012,0,0,0,1,21,0,1,16,0,1,8,0,0,0,0,0,0,0,1,88,21,20,21,20,21,1,0
713,305,89,5,1,0,0,0,1,3,0,0.0,10520,0,0,0,1,15,0,1,14,0,1,8,0,0,0,0,0,0,0,1,81,15,14,15,14,15,1,0
714,661,79,2,0,1,0,0,1,3,0,0.0,13510,0,0,0,1,25,0,1,23,0,1,8,0,0,0,0,1,1,0,1,186,33,32,33,32,33,1,0
715,583,19,1,1,1,1,0,0,3,0,0.0,6012,0,0,0,1,21,0,1,17,0,1,8,0,0,0,0,0,0,0,1,137,22,21,22,21,22,1,0
716,807,99,3,1,1,1,1,1,2,0,0.0,9012,0,0,0,1,22,0,1,18,0,1,8,0,0,0,0,0,0,0,1,172,25,24,25,24,25,1,0
717,302,36,2,0,1,0,1,0,6,0,0.0,11060,0,0,0,1,18,0,1,14,0,1,8,0,0,0,0,0,0,0,1,161,21,20,21,20,21,1,0
718,468,13,2,0,1,0,1,0,2,0,0.0,9031,0,0,0,1,22,0,1,18,0,1,8,0,0,0,0,1,1,0,1,186,29,28,29,32,33,1,0
719,774,82,5,1,1,1,1,1,3,0,0.0,12054,0,0,0,1,21,0,1,16,0,1,8,0,0,0,0,0,0,0,1,142,22,21,22,21,22,1,0
720,609,100,4,0,1,1,0,1,3,0,0.0,6013,0,0,0,1,21,0,1,18,0,1,8,0,0,0,0,0,0,0,1,165,25,24,25,24,25,1,0
721,845,61,1,0,1,1,0,1,3,0,0.0,12542,0,0,0,1,12,0,1,11,0,1,8,0,0,0,0,0,0,0,1,78,12,11,12,11,12,1,0
722,271,74,3,1,1,1,1,1,4,0,0.0,6511,0,0,0,1,21,0,1,16,0,1,8,0,0,0,0,0,0,0,1,87,21,20,21,20,21,1,0
723,350,85,0,1,0,0,0,0,1,0,0.0,5555,0,0,0,1,21,0,1,17,0,1,8,0,0,0,0,0,0,0,1,110,22,21,22,21,22,1,0
724,173,64,1,1,1,0,1,0,1,0,0.0,10025,0,0,0,1,24,0,1,23,0,1,8,0,0,0,0,1,1,0,1,186,33,32,33,32,33,1,0
725,314,9,3,1,1,0,1,1,2,0,0.0,6051,0,0,0,1,20,0,1,17,0,1,8,0,0,0,0,0,0,0,1,165,22,21,22,21,22,1,0
726,419,66,2,1,0,1,0,0,4,0,0.0,6014,0,0,0,1,21,0,1,17,0,1,8,0,0,0,0,0,0,0,1,156,22,21,22,21,22,1,0
727,140,51,4,0,1,1,1,1,1,0,0.0,6014,0,0,0,1,21,0,1,16,0,1,8,0,0,0,0,0,0,0,1,105,21,20,21,20,21,1,0
728,745,98,1,0,1,1,1,0,2,0,0.0,6013,0,0,0,1,18,0,1,17,0,1,8,0,0,0,0,0,0,0,1,144,22,21,22,21,22,1,0
729,975,74,2,1,1,0,1,0,3,0,1.0,13554,1,0,0,1,31,0,1,23,0,1,8,0,0,0,0,1,1,0,1,186,33,32,33,32,33,1,0
730,834,25,0,0,0,0,1,1,2,0,0.0,5621,0,0,0,1,21,0,1,16,0,1,8,0,0,0,0,0,0,0,1,103,21,20,21,20,21,1,0
731,69,77,0,1,0,0,0,1,1,0,0.0,6013,0,0,0,1,21,0,1,16,0,1,8,0,0,0,0,0,0,0,1,88,21,20,21,20,21,1,0
732,116,57,5,1,1,0,0,1,6,0,0.0,7023,0,0,0,1,21,0,1,16,0,1,8,0,0,0,0,0,0,0,1,87,21,20,21,20,21,1,0
733,131,12,3,0,1,0,1,1,4,0,0.0,6011,0,0,0,1,21,0,1,16,0,1,8,0,0,0,0,0,0,0,1,107,21,20,21,20,21,1,0
734,946,70,0,0,1,0,0,1,5,0,0.0,6011,0,0,0,1,21,0,1,17,0,1,8,0,0,0,0,0,0,0,1,158,22,21,22,21,22,1,0
735,764,68,5,0,1,1,0,1,1,0,0.0,11537,0,0,0,1,35,0,1,23,0,2,10,0,1,1,0,2,2,0,1,191,39,38,39,38,39,1,0
736,411,62,3,0,1,1,0,0,5,0,0.0,6533,0,0,0,1,21,0,1,16,0,3,17,0,0,0,0,3,3,0,1,237,70,68,70,60,63,1,0
737,137,51,5,1,1,0,0,1,2,0,0.0,7517,0,0,0,1,20,0,1,17,0,1,8,0,0,0,0,0,0,0,1,143,22,21,22,21,22,1,0
738,668,25,5,1,0,1,1,0,2,0,0.0,6012,0,0,0,1,14,0,1,15,0,1,9,0,0,0,0,0,0,0,1,123,20,20,20,21,21,1,0
739,698,29,4,1,1,0,1,1,5,0,0.0,6013,0,0,0,1,14,0,1,15,0,1,9,0,0,0,0,0,0,0,1,102,20,20,20,20,20,1,0
740,178,100,1,1,1,0,1,1,3,0,0.0,12515,0,0,0,1,16,0,1,13,0,1,8,0,0,0,0,0,0,0,1,91,21,20,21,20,21,1,0
741,48,29,3,0,1,0,0,0,5,0,0.0,6519,0,0,0,1,21,0,1,17,0,1,8,0,0,0,0,0,0,0,1,142,22,21,22,21,22,1,0
742,64,25,4,0,1,1,1,1,6,0,0.0,6011,0,0,0,1,21,0,1,17,0,1,8,0,0,0,0,0,0,0,1,116,22,21,22,21,22,1,0
743,175,60,3,1,0,0,0,1,5,0,0.0,6014,0,0,0,1,21,0,1,17,0,1,8,0,0,0,0,0,0,0,1,159,22,21,22,21,22,1,0
744,79,67,4,0,0,1,1,0,4,0,0.0,6013,0,0,0,1,14,0,1,16,0,1,9,0,0,0,0,0,0,0,1,131,21,21,21,21,21,1,0
745,9,79,1,1,0,1,0,1,5,0,0.0,6012,0,0,0,1,21,0,1,17,0,1,8,0,0,0,0,0,0,0,1,161,22,21,22,21,22,1,0
746,673,29,2,1,0,0,1,1,5,0,0.0,11011,0,0,0,1,25,0,1,23,0,1,8,0,0,0,0,1,1,0,1,186,33,33,33,33,33,1,0
747,975,25,3,0,0,0,0,1,5,0,0.0,6011,0,0,0,1,21,0,1,16,0,1,8,0,0,0,0,0,0,0,1,90,21,20,21,20,21,1,0
748,221,88,4,0,0,0,1,1,5,0,0.0,6013,0,0,0,1,21,0,1,17,0,1,8,0,0,0,0,0,0,0,1,144,22,21,22,21,22,1,0
749,976,37,2,1,1,0,0,0,3,0,0.0,13021,0,0,0,1,31,0,1,23,0,1,8,0,0,0,0,1,1,0,1,188,33,32,33,35,36,1,0
750,229,88,0,1,0,1,0,1,2,0,0.0,6012,0,0,0,1,20,0,1,17,0,1,8,0,0,0,0,0,0,0,1,141,22,21,22,21,22,1,0
751,70,99,1,1,0,0,1,1,5,0,0.0,9013,0,0,0,1,12,0,1,16,0,1,8,0,0,0,0,0,0,0,1,103,21,20,21,20,21,1,0
752,719,38,5,0,0,1,0,0,4,0,0.0,7060,0,0,0,1,22,0,1,17,0,1,8,0,0,0,0,0,0,0,1,149,22,21,22,21,22,1,0
753,380,2,2,1,1,1,1,0,6,0,0.0,6016,0,0,0,1,21,0,1,16,0,1,8,0,0,0,0,0,0,0,1,107,21,20,21,20,21,1,0
754,136,24,0,0,1,0,0,0,3,0,0.0,6011,0,0,0,1,18,0,1,16,0,1,8,0,0,0,0,0,0,0,1,103,21,20,21,20,21,1,0
755,705,39,2,0,0,1,1,0,2,0,0.0,6013,0,0,0,1,21,0,1,16,0,1,8,0,0,0,0,0,0,0,1,92,21,20,21,20,21,1,0
756,185,87,4,0,1,0,1,1,6,0,0.0,6013,0,0,0,1,15,0,1,15,0,1,9,0,0,0,0,0,0,0,1,101,20,20,20,20,20,1,0
757,446,97,2,1,0,0,1,1,5,0,0.0,13008,0,0,0,1,22,0,1,17,0,1,8,0,0,0,0,0,0,0,1,158,22,21,22,21,22,1,0
758,27,44,0,0,0,1,0,1,2,0,0.0,6012,0,0,0,1,21,0,1,16,0,1,8,0,0,0,0,0,0,0,1,92,21,20,21,20,21,1,0
759,230,6,2,1,1,0,0,0,5,0,0.0,6011,0,0,0,1,21,0,1,17,0,1,8,0,0,0,0,0,0,0,1,156,22,21,22,21,22,1,0
760,526,30,2,1,0,0,0,1,6,0,0.0,12511,0,0,0,1,22,0,1,23,0,1,8,0,0,0,0,1,1,0,1,188,36,35,36,35,36,1,0
761,269,94,5,0,1,1,1,0,2,0,0.0,6512,0,0,0,1,21,0,1,16,0,1,8,0,0,0,0,0,0,0,1,138,22,21,22,21,22,1,0
762,247,98,5,1,0,1,1,1,3,0,0.0,9513,0,0,0,1,21,0,1,16,0,1,8,0,0,0,0,0,0,0,1,87,21,20,21,20,21,1,0
763,256,43,0,0,0,0,0,1,6,0,0.0,6511,0,0,0,1,21,0,1,17,0,1,8,0,0,0,0,0,0,0,1,129,22,21,22,21,22,1,0
764,551,19,1,0,1,1,1,0,6,0,0.0,6020,0,0,0,1,14,0,1,13,0,1,8,0,0,0,0,0,0,0,1,86,14,14,14,14,14,1,0
765,77,37,4,0,0,1,1,1,2,0,0.0,5512,0,0,0,1,12,0,1,16,0,1,8,0,0,0,0,0,0,0,1,135,22,21,22,21,22,1,0
766,135,6,3,0,1,1,1,0,2,0,0.0,6011,0,0,0,1,21,0,1,17,0,1,8,0,0,0,0,0,0,0,1,158,22,21,22,21,22,1,0
767,574,87,2,1,0,0,1,0,1,0,0.0,19012,0,0,0,1,90,0,1,52,0,10,48,0,1,28,0,19,19,0,1,315,135,133,135,95,98,1,0
768,973,30,3,1,1,1,1,0,6,0,0.0,6013,0,0,0,1,20,0,1,17,0,1,8,0,0,0,0,0,0,0,1,108,22,21,22,21,22,1,0
769,29,2,0,0,1,0,1,0,4,0,0.0,6013,0,0,0,1,21,0,1,17,0,1,8,0,0,0,0,0,0,0,1,141,22,21,22,21,22,1,0
770,386,97,5,1,1,1,1,0,4,0,0.0,6011,0,0,0,1,21,0,1,17,0,1,8,0,0,0,0,0,0,0,1,145,22,21,22,21,22,1,0
771,865,5,1,0,0,0,0,1,4,0,0.0,7537,0,0,0,1,21,0,1,16,0,1,8,0,0,0,0,0,0,0,1,105,21,20,21,20,21,1,0
772,749,24,4,0,0,1,1,0,6,0,0.0,5512,0,0,0,1,21,0,1,17,0,1,8,0,0,0,0,0,0,0,1,143,22,21,22,21,22,1,0
773,162,2,4,0,0,1,1,1,4,0,0.0,6012,0,0,0,1,18,0,1,14,0,1,8,0,0,0,0,0,0,0,1,87,19,19,19,20,21,1,0
774,772,26,0,1,1,1,1,0,2,0,0.0,6011,0,0,0,1,21,0,1,16,0,1,8,0,0,0,0,0,0,0,1,105,21,20,21,20,21,1,0
775,269,47,5,0,0,1,0,1,2,0,0.0,8012,0,0,0,1,21,0,1,16,0,1,8,0,0,0,0,0,0,0,1,92,21,20,21,20,21,1,0
776,35,98,5,1,1,1,1,0,2,0,0.0,6014,0,0,0,1,21,0,1,17,0,1,8,0,0,0,0,0,0,0,1,134,22,21,22,21,22,1,0
777,679,12,1,0,0,1,0,0,5,0,0.0,7036,0,0,0,1,21,0,1,17,0,1,8,0,0,0,0,0,0,0,1,143,22,21,22,21,22,1,0
778,962,2,0,1,1,1,1,0,1,0,0.0,6012,0,0,0,1,20,0,1,16,0,1,8,0,0,0,0,0,0,0,1,105,21,20,21,20,21,1,0
779,34,39,4,0,0,1,1,1,6,0,0.0,6013,0,0,0,1,21,0,1,18,0,1,8,0,0,0,0,0,0,0,1,165,25,24,25,24,25,1,0
780,969,73,3,0,1,1,1,0,1,0,0.0,6012,0,0,0,1,21,0,1,16,0,1,8,0,0,0,0,0,0,0,1,108,21,20,21,20,21,1,0
781,894,90,4,1,0,1,1,1,6,0,0.0,6037,0,0,0,1,21,0,1,16,0,1,8,0,0,0,0,0,0,0,1,103,21,20,21,20,21,1,0
782,828,72,0,0,0,0,1,1,2,0,0.0,6013,0,0,0,1,18,0,1,16,0,1,8,0,0,0,0,0,0,0,1,93,21,20,21,20,21,1,0
783,276,10,1,1,1,0,0,1,2,0,0.0,6516,0,0,0,1,21,0,1,17,0,1,8,0,0,0,0,0,0,0,1,158,22,21,22,21,22,1,0
784,941,84,4,1,0,1,1,1,5,0,0.0,6512,0,0,0,1,21,0,1,17,0,1,8,0,0,0,0,0,0,0,1,165,22,21,22,24,25,1,0
785,614,6,3,1,0,0,0,1,2,0,0.0,6021,0,0,0,1,21,0,1,17,0,1,8,0,0,0,0,0,0,0,1,156,22,21,22,21,22,1,0
786,95,60,3,1,0,0,0,0,4,0,0.0,7068,0,0,0,1,18,0,1,16,0,1,8,0,0,0,0,0,0,0,1,135,22,21,22,21,22,1,0
787,142,10,4,1,1,1,0,1,4,0,0.0,7011,0,0,0,1,21,0,1,16,0,1,8,0,0,0,0,0,0,0,1,91,21,20,21,20,21,1,0
788,417,90,0,0,0,0,0,0,1,0,0.0,6024,0,0,0,1,21,0,1,16,0,1,8,0,0,0,0,0,0,0,1,165,21,20,21,21,22,1,0
789,821,30,1,0,1,1,1,1,3,0,0.0,12526,0,0,0,1,22,0,1,18,0,1,8,0,0,0,0,0,0,0,1,174,27,26,27,26,27,1,0
790,155,40,1,0,1,0,1,1,2,0,0.0,8012,0,0,0,1,14,0,1,14,0,1,8,0,0,0,0,0,0,0,1,87,15,14,15,20,21,1,0
791,96,84,3,0,1,1,1,1,6,0,0.0,6512,0,0,0,1,21,0,1,17,0,1,8,0,0,0,0,0,0,0,1,142,22,21,22,21,22,1,0
792,327,54,0,0,0,1,0,0,6,0,0.0,5510,0,0,0,1,21,0,1,16,0,1,8,0,0,0,0,0,0,0,1,91,21,20,21,20,21,1,0
793,896,5,5,1,1,0,0,1,6,0,0.0,6513,0,0,0,1,21,0,1,17,0,1,8,0,0,0,0,0,0,0,1,156,22,21,22,21,22,1,0
794,764,28,0,1,1,1,1,0,6,0,0.0,5515,0,0,0,1,21,0,1,16,0,1,8,0,0,0,0,0,0,0,1,91,21,20,21,20,21,1,0
795,987,62,2,1,0,1,1,1,5,0,0.0,13513,0,0,0,1,31,0,1,23,0,1,8,0,0,0,0,1,1,0,1,186,33,32,33,32,33,1,0
796,211,89,1,1,1,0,0,1,6,0,0.0,11514,0,0,0,1,12,0,1,14,0,1,8,0,0,0,0,0,0,0,1,81,15,14,15,14,15,1,0
797,849,1,3,1,1,0,1,1,6,0,0.0,6012,0,0,0,1,21,0,1,17,0,1,8,0,0,0,0,0,0,0,1,142,22,21,22,21,22,1,0
798,429,70,0,1,0,0,1,1,3,0,0.0,6012,0,0,0,1,21,0,1,16,0,1,8,0,0,0,0,0,0,0,1,114,21,20,21,20,21,1,0
799,791,88,3,1,0,0,0,0,5,0,0.0,8513,0,0,0,1,21,0,1,17,0,1,8,0,0,0,0,0,0,0,1,142,22,21,22,21,22,1,0
800,533,44,4,0,1,1,1,0,4,0,0.0,6517,0,0,0,1,21,0,1,17,0,1,8,0,0,0,0,0,0,0,1,146,21,20,21,20,22,1,0
801,303,41,5,0,0,1,1,1,2,0,0.0,7513,0,0,0,1,20,0,1,17,0,1,8,0,0,0,0,0,0,0,1,156,22,21,22,21,22,1,0
802,411,12,3,1,1,0,1,0,2,0,0.0,5510,0,0,0,1,21,0,1,17,0,1,8,0,0,0,0,0,0,0,1,114,22,21,22,21,22,1,0
803,710,33,0,0,1,0,1,1,4,0,0.0,6012,0,0,0,1,21,0,1,17,0,1,8,0,0,0,0,0,0,0,1,129,22,21,22,21,22,1,0
804,26,73,2,1,1,1,1,0,5,0,0.0,6013,0,0,0,1,21,0,1,17,0,1,8,0,0,0,0,0,0,0,1,140,22,21,22,21,22,1,0
805,707,41,3,0,1,0,0,1,3,0,0.0,6511,0,0,0,1,21,0,1,16,0,1,8,0,0,0,0,0,0,0,1,96,21,20,21,20,21,1,0
806,556,2,3,0,1,1,1,1,3,0,0.0,5514,0,0,0,1,14,0,1,16,0,1,9,0,0,0,0,0,0,0,1,157,21,21,21,21,21,1,0
807,171,42,0,0,0,0,1,0,3,0,0.0,6015,0,0,0,1,21,0,1,16,0,1,8,0,0,0,0,0,0,0,1,90,21,20,21,20,21,1,0
808,831,97,2,0,0,0,0,1,2,0,1.0,14041,1,0,0,1,31,0,1,23,0,1,8,0,0,0,0,1,1,0,1,186,33,32,33,32,33,1,0
809,261,86,1,1,1,1,1,1,4,0,0.0,10516,0,0,0,1,21,0,1,17,0,1,8,0,0,0,0,0,0,0,1,161,22,21,22,21,22,1,0
810,711,40,2,1,0,0,0,0,2,0,0.0,13103,0,0,0,1,14,0,1,13,0,1,8,0,0,0,0,0,0,0,1,80,14,14,14,14,14,1,0
811,681,99,1,1,0,0,1,0,4,0,0.0,12509,0,0,0,1,19,0,1,15,0,1,8,0,0,0,0,0,0,0,1,92,21,20,21,20,21,1,0
812,522,43,5,1,0,1,0,0,5,0,0.0,6011,0,0,0,1,21,0,1,17,0,1,8,0,0,0,0,0,0,0,1,165,25,24,25,24,25,1,0
813,550,88,5,1,1,1,1,0,3,0,0.0,5512,0,0,0,1,20,0,1,16,0,1,8,0,0,0,0,0,0,0,1,126,21,20,21,20,21,1,0
814,26,96,4,1,1,1,1,0,6,0,0.0,6014,0,0,0,1,14,0,1,15,0,1,9,0,0,0,0,0,0,0,1,123,20,20,20,21,21,1,0
815,835,58,4,0,0,0,1,0,2,0,0.0,6013,0,0,0,1,21,0,1,16,0,1,8,0,0,0,0,0,0,0,1,87,21,20,21,20,21,1,0
816,786,39,4,0,1,0,1,0,1,0,0.0,6014,0,0,0,1,21,0,1,16,0,1,8,0,0,0,0,0,0,0,1,143,22,21,22,21,22,1,0
817,646,22,0,0,0,0,0,1,6,0,0.0,6011,0,0,0,1,21,0,1,17,0,1,8,0,0,0,0,0,0,0,1,163,25,24,25,24,25,1,0
818,921,29,5,0,0,0,0,1,1,0,0.0,10014,0,0,0,1,25,0,1,23,0,1,8,0,0,0,0,1,1,0,1,186,33,32,33,32,33,1,0
819,200,36,2,1,0,0,0,1,3,0,0.0,10015,0,0,0,1,39,0,1,26,0,3,13,0,1,4,0,2,2,0,1,210,46,45,46,44,45,1,0
820,763,17,4,0,0,1,1,0,4,0,0.0,6012,0,0,0,1,21,0,1,16,0,1,8,0,0,0,0,0,0,0,1,90,21,20,21,20,21,1,0
821,517,17,5,1,1,0,0,0,6,0,0.0,7015,0,0,0,1,22,0,1,18,0,1,8,0,0,0,0,0,0,0,1,189,25,24,25,27,28,1,0
822,556,47,2,0,1,1,0,1,6,0,0.0,12012,0,0,0,1,34,0,1,23,0,2,10,0,1,1,0,2,2,0,1,190,37,36,37,36,37,1,0
823,563,74,4,0,0,1,0,0,3,0,0.0,6013,0,0,0,1,21,0,1,17,0,1,8,0,0,0,0,0,0,0,1,158,22,21,22,21,22,1,0
824,435,90,1,1,1,0,1,0,3,0,0.0,12517,0,0,0,1,12,0,1,11,0,1,8,0,0,0,0,0,0,0,1,78,12,12,12,12,12,1,0
825,656,95,2,0,0,0,1,1,3,0,0.0,13008,0,0,0,1,33,0,1,23,0,1,8,0,0,0,0,1,1,0,1,188,36,35,36,35,36,1,0
826,52,73,3,0,1,1,1,1,6,0,0.0,5513,0,0,0,1,21,0,1,17,0,1,8,0,0,0,0,0,0,0,1,165,22,21,22,21,24,1,0
827,165,2,4,1,1,0,0,0,5,0,0.0,6015,0,0,0,1,21,0,1,17,0,1,8,0,0,0,0,0,0,0,1,158,22,21,22,21,22,1,0
828,588,50,2,0,0,1,1,1,3,0,0.0,12512,0,0,0,1,31,0,1,20,0,2,10,0,1,1,0,2,2,0,1,187,34,33,34,33,34,1,0
829,328,32,5,1,0,1,0,1,3,0,0.0,8015,0,0,0,1,22,0,1,17,0,1,8,0,0,0,0,0,0,0,1,143,22,21,22,21,22,1,0
830,675,70,3,0,1,0,0,0,3,0,0.0,6532,0,0,0,1,14,0,1,15,0,1,9,0,0,0,0,0,0,0,1,111,20,20,20,20,20,1,0
831,959,41,0,0,1,0,1,0,2,0,0.0,6011,0,0,0,1,21,0,1,16,0,1,8,0,0,0,0,0,0,0,1,107,21,20,21,20,21,1,0
832,897,39,2,1,1,0,1,0,5,0,0.0,13010,0,0,0,1,33,0,1,23,0,1,8,0,0,0,0,1,1,0,1,188,36,35,36,35,36,1,0
833,327,75,3,0,1,1,1,1,1,0,0.0,6514,0,0,0,1,21,0,1,16,0,1,8,0,0,0,0,0,0,0,1,88,21,20,21,20,21,1,0
834,212,55,3,0,1,1,0,1,1,0,0.0,6534,0,0,0,1,21,0,1,16,0,1,8,0,0,0,0,0,0,0,1,103,21,20,21,20,21,1,0
835,75,27,5,0,0,1,0,1,1,0,0.0,6011,0,0,0,1,21,0,1,16,0,1,8,0,0,0,0,0,0,0,1,88,21,20,21,20,21,1,0
836,988,7,4,1,1,0,0,0,5,0,0.0,6012,0,0,0,1,21,0,1,16,0,1,8,0,0,0,0,0,0,0,1,104,21,20,21,20,21,1,0
837,899,91,3,1,0,0,0,0,4,0,0.0,9013,0,0,0,1,21,0,1,18,0,1,8,0,0,0,0,0,0,0,1,165,25,24,25,24,25,1,0
838,30,4,1,0,0,1,0,0,3,0,0.0,6017,0,0,0,1,21,0,1,17,0,1,8,0,0,0,0,0,0,0,1,124,22,21,22,21,22,1,0
839,524,51,1,1,0,0,0,0,5,0,0.0,11012,0,0,0,1,20,0,1,18,0,1,8,0,0,0,0,0,0,0,1,167,25,24,25,24,25,1,0
840,606,20,1,1,0,1,0,1,1,0,0.0,10016,0,0,0,1,20,0,1,16,0,1,8,0,0,0,0,0,0,0,1,103,21,20,21,20,21,1,0
841,763,53,2,0,1,0,1,0,4,0,0.0,13010,0,0,0,1,12,0,1,11,0,1,8,0,0,0,0,0,0,0,1,100,12,11,12,17,18,1,0
842,563,77,0,0,0,0,0,0,1,0,0.0,6013,0,0,0,1,21,0,1,17,0,1,8,0,0,0,0,0,0,0,1,143,22,21,22,21,22,1,0
843,14,95,4,1,1,0,0,0,4,0,0.0,5533,0,0,0,1,20,0,1,17,0,1,8,0,0,0,0,0,0,0,1,144,22,21,22,21,22,1,0
844,555,19,1,0,0,0,0,1,1,0,0.0,10027,0,0,0,1,18,0,1,17,0,1,8,0,0,0,0,0,0,0,1,156,22,21,22,21,22,1,0
845,819,68,0,1,1,1,0,1,4,0,0.0,6014,0,0,0,1,21,0,1,17,0,1,8,0,0,0,0,0,0,0,1,165,22,21,22,22,25,1,0
846,527,42,2,0,0,1,1,1,1,0,0.0,11518,0,0,0,1,12,0,1,11,0,1,8,0,0,0,0,0,0,0,1,78,12,11,12,11,12,1,0
847,735,88,0,0,0,1,1,1,1,0,0.0,5517,0,0,0,1,21,0,1,17,0,1,8,0,0,0,0,0,0,0,1,126,22,21,22,21,22,1,0
848,788,76,4,1,0,1,0,1,3,0,0.0,6037,0,0,0,1,21,0,1,17,0,1,8,0,0,0,0,0,0,0,1,158,22,21,22,21,22,1,0
849,67,51,5,1,1,0,0,1,1,0,0.0,6568,0,0,0,1,21,0,1,16,0,1,8,0,0,0,0,0,0,0,1,87,21,20,21,20,21,1,0
850,438,94,2,1,0,0,1,1,6,0,0.0,13510,0,0,0,1,11,0,1,10,0,1,8,0,0,0,0,0,0,0,1,77,11,10,11,10,11,1,0
851,925,82,2,1,0,1,1,0,6,0,0.0,6021,0,0,0,1,21,0,1,16,0,1,8,0,0,0,0,0,0,0,1,87,21,20,21,20,21,1,0
852,521,49,4,0,0,0,1,0,6,0,0.0,6045,0,0,0,1,21,0,1,17,0,1,8,0,0,0,0,0,0,0,1,158,22,21,22,21,22,1,0
853,757,68,5,1,1,0,0,0,1,0,0.0,10036,0,0,0,1,15,0,1,14,0,1,8,0,0,0,0,0,0,0,1,81,15,14,15,14,15,1,0
854,783,3,5,0,0,1,1,1,1,0,0.0,6011,0,0,0,1,15,0,1,17,0,1,8,0,0,0,0,0,0,0,1,158,22,21,22,21,22,1,0
855,931,58,5,0,0,0,0,0,5,0,0.0,10554,0,0,0,1,21,0,1,16,0,1,8,0,0,0,0,0,0,0,1,158,22,21,22,21,22,1,0
856,347,68,2,1,0,1,1,0,4,0,0.0,6517,0,0,0,1,19,0,1,16,0,1,8,0,0,0,0,0,0,0,1,107,21,20,21,20,21,1,0
857,560,96,1,0,0,0,0,1,2,0,0.0,12510,0,0,0,1,17,0,1,13,0,1,8,0,0,0,0,0,0,0,1,104,18,17,18,17,18,1,0
858,103,47,3,1,0,0,1,0,6,0,0.0,6518,0,0,0,1,21,0,1,16,0,1,8,0,0,0,0,0,0,0,1,110,21,20,21,20,21,1,0
859,601,20,0,0,0,0,1,0,3,0,0.0,6011,0,0,0,1,21,0,1,16,0,1,8,0,0,0,0,0,0,0,1,107,21,20,21,20,21,1,0
860,777,80,1,1,0,1,0,0,6,0,0.0,6057,0,0,0,1,21,0,1,16,0,1,8,0,0,0,0,0,0,0,1,88,21,20,21,20,21,1,0
861,390,46,0,0,0,0,1,0,1,0,0.0,5511,0,0,0,1,21,0,1,17,0,1,8,0,0,0,0,0,0,0,1,158,22,21,22,21,22,1,0
862,57,8,5,1,1,1,1,1,4,0,0.0,6022,0,0,0,1,21,0,1,19,0,1,8,0,0,0,0,1,1,0,1,194,33,32,33,32,33,1,0
863,4,75,5,1,1,1,1,1,4,0,0.0,6059,0,0,0,1,21,0,1,17,0,1,8,0,0,0,0,0,0,0,1,119,22,21,22,21,22,1,0
864,503,27,3,1,0,1,1,1,2,0,0.0,6011,0,0,0,1,21,0,1,17,0,1,8,0,0,0,0,0,0,0,1,129,22,21,22,21,22,1,0
865,106,80,2,1,0,0,1,0,2,0,0.0,10017,0,0,0,1,89,0,1,60,0,11,48,0,1,24,0,20,20,0,1,296,130,129,130,97,103,1,0
866,112,94,3,0,0,0,1,1,4,0,0.0,6515,0,0,0,1,21,0,1,17,0,1,8,0,0,0,0,0,0,0,1,136,22,22,22,22,22,1,0
867,458,86,1,1,1,1,1,0,2,0,0.0,6593,0,0,0,1,17,0,1,12,0,1,8,0,0,0,0,0,0,0,1,87,17,17,17,20,21,1,0
868,598,98,3,1,1,1,0,1,5,0,0.0,8513,0,0,0,1,18,0,1,17,0,1,8,0,0,0,0,0,0,0,1,138,22,21,22,21,22,1,0
869,145,23,1,1,0,0,1,1,4,0,0.0,7514,0,0,0,1,21,0,1,16,0,1,8,0,0,0,0,0,0,0,1,87,21,20,21,20,21,1,0
870,40,70,3,0,0,1,0,1,3,0,0.0,6024,0,0,0,1,21,0,1,17,0,1,8,0,0,0,0,0,0,0,1,147,22,21,22,21,22,1,0
871,955,72,5,1,1,0,1,0,4,0,0.0,11514,0,0,0,1,31,0,1,23,0,1,8,0,0,0,0,0,0,0,1,186,33,32,33,32,33,1,0
872,892,53,0,1,0,1,1,1,1,0,0.0,5512,0,0,0,1,21,0,1,16,0,1,8,0,0,0,0,0,0,0,1,108,21,20,21,20,21,1,0
873,656,10,3,0,0,1,0,1,3,0,0.0,6011,0,0,0,1,21,0,1,17,0,1,8,0,0,0,0,0,0,0,1,142,22,21,22,21,22,1,0
874,219,47,2,0,1,1,1,0,6,0,0.0,6013,0,0,0,1,21,0,1,18,0,1,8,0,0,0,0,0,0,0,1,165,25,24,25,24,25,1,0
875,95,47,5,0,1,0,1,1,5,0,0.0,6511,0,0,0,1,25,0,1,23,0,2,10,0,0,0,0,2,2,0,1,209,38,37,38,41,46,1,0
876,910,98,4,1,1,0,0,1,1,0,0.0,5515,0,0,0,1,21,0,1,17,0,1,8,0,0,0,0,0,0,0,1,124,22,21,22,21,22,1,0
877,637,92,1,0,0,0,0,0,1,0,0.0,12509,0,0,0,1,31,0,1,23,0,1,8,0,0,0,0,1,1,0,1,186,33,32,33,32,33,1,0
878,793,11,3,0,0,0,1,1,2,0,0.0,6512,0,0,0,1,21,0,1,16,0,1,8,0,0,0,0,0,0,0,1,87,21,20,21,20,21,1,0
879,756,50,4,0,1,1,0,1,4,0,0.0,6015,0,0,0,1,21,0,1,16,0,1,8,0,0,0,0,0,0,0,1,87,21,20,21,20,21,1,0
880,12,94,4,1,1,1,0,1,3,0,0.0,5521,0,0,0,1,17,0,1,15,0,1,8,0,0,0,0,0,0,0,1,87,21,20,21,20,21,1,0
881,826,15,0,0,0,1,0,0,6,0,0.0,6013,0,0,0,1,18,0,1,13,0,1,8,0,0,0,0,0,0,0,1,84,18,17,18,17,18,1,0
882,269,43,4,0,0,1,1,0,6,0,0.0,6011,0,0,0,1,21,0,1,18,0,1,8,0,0,0,0,0,0,0,1,166,25,24,25,24,25,1,0
883,729,20,1,1,0,0,0,1,4,0,0.0,11020,0,0,0,1,12,0,1,16,0,1,8,0,0,0,0,0,0,0,1,105,21,20,21,20,21,1,0
884,463,91,1,0,1,0,1,1,1,0,0.0,12019,0,0,0,1,25,0,1,18,0,1,8,0,0,0,0,0,0,0,1,165,25,24,25,24,25,1,0
885,257,67,4,1,0,1,0,0,6,0,0.0,6049,0,0,0,1,16,0,1,15,0,1,9,0,0,0,0,0,0,0,1,94,20,20,20,20,20,1,0
886,589,34,4,0,1,0,1,1,6,0,0.0,6014,0,0,0,1,21,0,1,16,0,1,8,0,0,0,0,0,0,0,1,108,21,20,21,20,21,1,0
887,982,7,1,0,1,1,1,1,4,0,0.0,8012,0,0,0,1,21,0,1,16,0,1,8,0,0,0,0,0,0,0,1,103,21,20,21,20,21,1,0
888,85,53,4,1,1,0,1,1,4,0,0.0,6013,0,0,0,1,21,0,1,16,0,1,8,0,0,0,0,0,0,0,1,87,21,20,21,20,21,1,0
889,889,58,3,0,0,1,1,0,5,0,0.0,6012,0,0,0,1,21,0,1,16,0,1,8,0,0,0,0,0,0,0,1,87,21,20,21,20,21,1,0
890,695,54,5,0,1,1,0,1,5,0,0.0,12018,0,0,0,1,22,0,1,18,0,1,8,0,0,0,0,2,2,0,1,190,36,35,36,36,37,1,0
891,262,10,5,0,1,0,0,1,6,0,0.0,6013,0,0,0,1,15,0,1,16,0,1,9,0,0,0,0,0,0,0,1,157,21,21,21,21,21,1,0
892,505,77,4,0,0,1,0,0,4,0,0.0,6012,0,0,0,1,21,0,1,16,0,1,8,0,0,0,0,0,0,0,1,90,21,20,21,20,21,1,0
893,222,62,3,0,1,1,0,1,6,0,0.0,6023,0,0,0,1,21,0,1,16,0,1,8,0,0,0,0,0,0,0,1,103,21,20,21,20,21,1,0
894,119,0,0,0,0,0,0,0,3,0,0.0,6014,0,0,0,1,21,0,1,16,0,1,8,0,0,0,0,0,0,0,1,90,21,20,21,20,21,1,0
895,477,47,2,1,0,0,1,1,4,0,0.0,11011,0,0,0,1,33,0,1,23,0,1,8,0,0,0,0,1,1,0,1,188,36,35,36,35,36,1,0
896,285,19,1,0,1,1,0,1,4,0,0.0,7536,0,0,0,1,21,0,1,16,0,1,8,0,0,0,0,0,0,0,1,104,21,20,21,20,21,1,0
897,48,45,5,1,1,0,0,1,2,0,0.0,6519,0,0,0,1,20,0,1,16,0,1,8,0,0,0,0,0,0,0,1,165,22,21,22,21,22,1,0
898,70,59,0,0,0,1,0,1,1,0,0.0,7017,0,0,0,1,21,0,1,17,0,1,8,0,0,0,0,0,0,0,1,140,22,21,22,21,22,1,0
899,720,85,0,1,0,0,1,0,2,0,0.0,6013,0,0,0,1,19,0,1,16,0,1,8,0,0,0,0,0,0,0,1,120,21,20,21,21,22,1,0
900,169,95,4,1,0,1,1,0,3,0,0.0,6019,0,0,0,1,21,0,1,16,0,1,8,0,0,0,0,0,0,0,1,88,21,20,21,20,21,1,0
901,533,39,2,1,0,1,1,1,1,0,0.0,10527,0,0,0,1,33,0,1,23,0,2,10,0,1,1,0,2,2,0,1,190,37,36,37,36,37,1,0
902,622,71,1,1,1,1,0,1,4,0,0.0,12512,0,0,0,1,21,0,1,16,0,1,8,0,0,0,0,0,0,0,1,91,21,20,21,20,21,1,0
903,295,26,2,1,0,0,0,0,2,0,0.0,10556,0,0,0,1,21,0,1,16,0,1,8,0,0,0,0,0,0,0,1,89,21,20,21,20,21,1,0
904,595,4,1,1,0,1,1,1,3,0,0.0,6512,0,0,0,1,21,0,1,16,0,1,8,0,0,0,0,0,0,0,1,90,21,20,21,20,21,1,0
905,383,61,5,1,0,1,0,0,2,0,0.0,7015,0,0,0,1,17,0,1,13,0,1,8,0,0,0,0,0,0,0,1,87,18,17,18,20,21,1,0
906,451,69,3,0,1,0,0,0,4,0,0.0,6512,0,0,0,1,21,0,1,16,0,1,8,0,0,0,0,0,0,0,1,140,22,22,22,22,22,1,0
907,322,0,1,1,0,1,1,0,3,0,0.0,6013,0,0,0,1,21,0,1,16,0,1,8,0,0,0,0,0,0,0,1,101,21,20,21,20,21,1,0
908,7,84,3,1,0,0,1,0,1,0,0.0,7028,0,0,0,1,14,0,1,13,0,1,8,0,0,0,0,0,0,0,1,87,19,19,19,20,20,1,0
909,55,66,3,0,0,0,1,1,3,0,0.0,6013,0,0,0,1,20,0,1,16,0,1,8,0,0,0,0,0,0,0,1,103,21,20,21,20,21,1,0
910,483,73,4,0,1,1,1,1,2,0,0.0,7080,0,0,0,1,21,0,1,16,0,1,8,0,0,0,0,0,0,0,1,120,21,20,21,21,22,1,0
911,484,97,3,0,1,1,1,0,3,0,0.0,6031,0,0,0,1,21,0,1,16,0,1,8,0,0,0,0,0,0,0,1,138,22,21,22,21,22,1,0
912,668,8,0,1,0,0,0,0,6,0,0.0,6014,0,0,0,1,21,0,1,16,0,1,8,0,0,0,0,0,0,0,1,95,21,20,21,20,21,1,0
913,546,62,4,1,0,0,0,0,3,0,0.0,6013,0,0,0,1,21,0,1,16,0,1,8,0,0,0,0,0,0,0,1,105,21,20,21,20,21,1,0
914,439,9,0,1,1,1,1,0,2,0,0.0,6075,0,0,0,1,21,0,1,16,0,1,8,0,0,0,0,0,0,0,1,146,21,20,21,21,22,1,0
915,216,37,3,0,0,0,0,0,3,0,0.0,6012,0,0,0,1,18,0,1,16,0,1,8,0,0,0,0,0,0,0,1,87,21,20,21,20,21,1,0
916,106,95,5,1,0,1,0,0,4,0,0.0,6015,0,0,0,1,21,0,1,17,0,1,8,0,0,0,0,0,0,0,1,165,22,21,22,24,25,1,0
917,871,50,2,0,1,0,1,0,6,0,0.0,13516,0,0,0,1,25,0,1,23,0,1,8,0,0,0,0,1,1,0,1,186,33,33,33,33,33,1,0
918,695,73,4,1,0,1,0,0,6,0,0.0,6558,0,0,0,1,20,0,1,17,0,1,8,0,0,0,0,0,0,0,1,147,22,21,22,21,22,1,0
919,293,46,2,1,1,1,1,1,3,0,0.0,12514,0,0,0,1,38,0,1,25,0,3,12,0,1,2,0,2,2,0,1,196,44,43,44,43,44,1,0
920,714,38,3,0,0,1,0,1,4,0,0.0,6513,0,0,0,1,21,0,1,17,0,1,8,0,0,0,0,0,0,0,1,158,22,21,22,21,22,1,0
921,865,22,0,0,0,1,1,1,5,0,0.0,7048,0,0,0,1,21,0,1,16,0,1,8,0,0,0,0,0,0,0,1,145,22,21,22,21,22,1,0
922,107,23,4,1,0,1,1,0,5,0,0.0,6536,0,0,0,1,21,0,1,16,0,1,8,0,0,0,0,0,0,0,1,91,21,20,21,20,21,1,0
923,630,32,1,1,0,0,0,0,4,0,0.0,13013,0,0,0,1,22,0,1,18,0,1,8,0,0,0,0,0,0,0,1,165,25,24,25,24,25,1,0
924,326,56,3,0,1,1,1,1,5,0,0.0,6552,0,0,0,1,22,0,1,17,0,1,8,0,0,0,0,0,0,0,1,164,25,24,25,24,25,1,0
925,334,69,0,0,1,0,1,0,2,0,0.0,6514,0,0,0,1,21,0,1,16,0,1,8,0,0,0,0,0,0,0,1,105,21,20,21,20,21,1,0
926,482,27,5,0,0,0,0,0,1,0,0.0,8026,0,0,0,1,21,0,1,16,0,1,8,0,0,0,0,0,0,0,1,87,21,20,21,20,21,1,0
927,123,36,1,0,1,1,1,0,5,0,0.0,6013,0,0,0,1,21,0,1,16,0,1,8,0,0,0,0,0,0,0,1,87,21,20,21,20,21,1,0
928,770,52,3,0,0,0,0,1,1,0,0.0,7018,0,0,0,1,21,0,1,17,0,1,8,0,0,0,0,0,0,0,1,143,22,21,22,21,22,1,0
929,645,55,0,1,0,0,1,1,3,0,0.0,6016,0,0,0,1,21,0,1,16,0,1,8,0,0,0,0,0,0,0,1,120,21,20,21,21,22,1,0
930,741,77,3,1,0,1,0,1,3,0,0.0,8033,0,0,0,1,21,0,1,17,0,1,8,0,0,0,0,0,0,0,1,161,22,21,22,21,22,1,0
931,605,39,2,1,1,0,0,1,6,0,0.0,12010,0,0,0,1,15,0,1,14,0,1,8,0,0,0,0,0,0,0,1,92,21,20,21,20,21,1,0
932,260,73,5,0,1,1,0,0,6,0,0.0,7013,0,0,0,1,20,0,1,16,0,1,8,0,0,0,0,0,0,0,1,87,21,20,21,20,21,1,0
933,284,14,5,1,0,0,0,1,3,0,0.0,6511,0,0,0,1,22,0,1,18,0,1,8,0,0,0,0,0,0,0,1,165,25,24,25,24,25,1,0
934,380,88,1,0,0,1,0,0,5,0,0.0,5511,0,0,0,1,17,0,1,15,0,1,9,0,0,0,0,0,0,0,1,102,20,20,20,20,20,1,0
935,229,50,1,1,0,0,0,0,6,0,0.0,9512,0,0,0,1,12,0,1,11,0,1,8,0,0,0,0,0,0,0,1,82,12,11,12,11,12,1,0
936,919,17,2,0,1,0,0,0,5,0,0.0,9511,0,0,0,1,25,0,1,23,0,1,8,0,0,0,0,1,1,0,1,186,33,32,33,32,33,1,0
937,753,99,2,1,0,0,1,0,3,0,1.0,14007,1,0,0,1,34,0,1,23,0,2,10,0,1,1,0,2,2,0,1,190,37,36,37,36,37,1,0
938,791,14,2,1,1,0,1,1,5,0,0.0,11515,0,0,0,1,22,0,1,17,0,1,8,0,0,0,0,0,0,0,1,158,22,21,22,21,22,1,0
939,595,78,2,1,1,1,1,0,3,0,0.0,6563,0,0,0,1,20,0,1,17,0,1,8,0,0,0,0,0,0,0,1,131,22,21,22,21,22,1,0
940,51,64,3,1,0,0,0,0,3,0,0.0,6015,0,0,0,1,20,0,1,17,0,1,8,0,0,0,0,0,0,0,1,153,22,22,22,22,22,1,0
941,429,4,1,0,1,1,0,1,1,0,0.0,6010,0,0,0,1,12,0,1,17,0,1,8,0,0,0,0,0,0,0,1,143,22,21,22,21,22,1,0
942,521,30,1,1,0,0,0,0,2,0,0.0,11014,0,0,0,1,19,0,1,16,0,1,8,0,0,0,0,0,0,0,1,167,25,24,25,24,25,1,0
943,757,67,0,1,1,1,1,0,3,0,0.0,6527,0,0,0,1,20,0,1,16,0,1,8,0,0,0,0,0,0,0,1,87,21,20,21,20,21,1,0
944,526,24,5,0,1,1,0,1,3,0,0.0,8013,0,0,0,1,22,0,1,17,0,1,8,0,0,0,0,0,0,0,1,158,22,21,22,21,22,1,0
945,977,55,5,0,0,1,0,1,6,0,0.0,11013,0,0,0,1,31,0,1,23,0,1,8,0,0,0,0,1,1,0,1,188,33,32,33,32,33,1,0
946,702,99,4,1,1,1,0,1,1,0,0.0,6018,0,0,0,1,21,0,1,16,0,1,8,0,0,0,0,0,0,0,1,145,22,21,22,21,22,1,0
947,719,86,4,1,0,1,1,1,1,0,0.0,6017,0,0,0,1,16,0,1,16,0,1,8,0,0,0,0,0,0,0,1,103,21,20,21,20,21,1,0
948,665,53,1,0,1,1,1,0,4,0,0.0,6012,0,0,0,1,21,0,1,17,0,1,8,0,0,0,0,0,0,0,1,144,22,21,22,21,22,1,0
949,354,28,2,0,0,1,1,0,3,0,0.0,6011,0,0,0,1,21,0,1,17,0,1,8,0,0,0,0,0,0,0,1,156,22,21,22,21,22,1,0
950,158,48,3,0,0,1,0,1,2,0,0.0,6012,0,0,0,1,12,0,1,17,0,1,8,0,0,0,0,0,0,0,1,163,22,21,22,21,22,1,0
951,923,86,5,0,0,0,1,0,6,0,0.0,12544,0,0,0,1,35,0,1,23,0,2,10,0,1,1,0,2,2,0,1,191,39,38,39,38,39,1,0
952,625,56,1,0,0,0,1,1,1,0,0.0,12037,0,0,0,1,31,0,1,23,0,1,8,0,0,0,0,1,1,0,1,188,36,35,36,35,36,1,0
953,865,50,3,0,0,1,1,0,3,0,0.0,5514,0,0,0,1,21,0,1,16,0,1,8,0,0,0,0,0,0,0,1,87,21,20,21,20,21,1,0
954,677,41,1,0,0,1,0,0,3,0,0.0,6014,0,0,0,1,14,0,1,16,0,1,9,0,0,0,0,0,0,0,1,137,21,21,21,21,21,1,0
955,579,65,5,1,1,1,1,0,3,0,0.0,6012,0,0,0,1,16,0,1,17,0,1,8,0,0,0,0,0,0,0,1,156,22,21,22,21,22,1,0
956,819,40,2,1,1,1,1,0,6,0,0.0,6019,0,0,0,1,19,0,1,17,0,1,8,0,0,0,0,0,0,0,1,140,22,21,22,21,22,1,0
957,924,85,1,1,0,1,1,1,4,0,0.0,14039,0,0,0,1,33,0,1,23,0,1,8,0,0,0,0,1,1,0,1,188,36,35,36,35,36,1,0
958,957,56,5,0,0,1,1,1,5,0,0.0,11011,0,0,0,1,20,0,1,16,0,1,8,0,0,0,0,0,0,0,1,120,21,20,21,20,22,1,0
959,455,95,4,1,1,1,0,1,6,0,0.0,7032,0,0,0,1,21,0,1,16,0,1,8,0,0,0,0,0,0,0,1,103,21,20,21,20,21,1,0
960,738,52,0,0,0,1,0,1,5,0,0.0,5513,0,0,0,1,21,0,1,17,0,1,8,0,0,0,0,0,0,0,1,112,22,21,22,21,22,1,0
961,5,0,2,1,1,0,0,0,6,0,0.0,6022,0,0,0,1,22,0,1,17,0,1,8,0,0,0,0,0,0,0,1,158,22,21,22,21,22,1,0
962,932,52,3,0,0,1,1,0,4,0,0.0,6010,0,0,0,1,20,0,1,16,0,1,8,0,0,0,0,0,0,0,1,108,21,20,21,21,22,1,0
963,845,94,2,1,0,0,1,1,4,0,1.0,13508,1,0,0,1,35,0,1,23,0,2,10,0,1,1,0,2,2,0,1,191,39,38,39,38,39,1,0
964,699,80,1,0,0,1,1,0,5,0,0.0,5511,0,0,0,1,21,0,1,16,0,1,8,0,0,0,0,0,0,0,1,102,21,20,21,20,21,1,0
965,753,49,5,0,0,1,0,1,2,0,0.0,11014,0,0,0,1,21,0,1,18,0,1,8,0,0,0,0,0,0,0,1,185,25,24,25,24,27,1,0
966,921,15,1,0,0,1,1,1,6,0,0.0,11028,0,0,0,1,21,0,1,18,0,1,8,0,0,0,0,0,0,0,1,175,27,26,27,26,27,1,0
967,614,59,3,1,0,0,1,0,1,0,0.0,7539,0,0,0,1,21,0,1,17,0,1,8,0,0,0,0,0,0,0,1,158,22,21,22,21,22,1,0
968,116,32,4,1,0,1,0,1,1,0,0.0,5512,0,0,0,1,21,0,1,16,0,1,8,0,0,0,0,0,0,0,1,108,21,20,21,20,21,1,0
969,112,47,0,1,1,1,0,1,5,0,0.0,6012,0,0,0,1,21,0,1,16,0,1,8,0,0,0,0,0,0,0,1,105,21,20,21,20,21,1,0
970,114,11,1,0,0,0,0,1,6,0,0.0,6010,0,0,0,1,21,0,1,17,0,1,8,0,0,0,0,0,0,0,1,158,22,21,22,21,22,1,0
971,126,100,2,1,1,0,0,1,1,0,0.0,11014,0,0,0,1,21,0,1,18,0,1,8,0,0,0,0,0,0,0,1,165,25,24,25,24,25,1,0
972,245,64,5,0,1,1,0,0,2,0,0.0,6011,0,0,0,1,20,0,1,15,0,1,8,0,0,0,0,0,0,0,1,90,21,20,21,20,21,1,0
973,133,39,2,0,1,1,0,1,5,0,0.0,8015,0,0,0,1,21,0,1,16,0,1,8,0,0,0,0,0,0,0,1,107,21,20,21,20,21,1,0
974,209,47,0,1,1,0,1,0,3,0,0.0,6017,0,0,0,1,15,0,1,13,0,1,9,0,0,0,0,0,0,0,1,86,16,16,16,16,16,1,0
975,474,94,0,1,0,0,1,0,4,0,0.0,6011,0,0,0,1,21,0,1,16,0,1,8,0,0,0,0,0,0,0,1,87,21,20,21,20,21,1,0
976,304,70,3,1,0,1,0,0,3,0,0.0,6012,0,0,0,1,21,0,1,17,0,1,8,0,0,0,0,0,0,0,1,150,22,21,22,21,22,1,0
977,601,63,5,1,1,0,0,0,3,0,0.0,12013,0,0,0,1,35,0,1,23,0,2,10,0,1,1,0,2,2,0,1,191,39,38,39,38,39,1,0
978,498,37,3,1,1,1,1,0,2,0,0.0,6014,0,0,0,1,21,0,1,17,0,1,8,0,0,0,0,0,0,0,1,164,22,21,22,21,22,1,0
979,995,33,2,0,1,1,0,1,3,0,0.0,13009,0,0,0,1,25,0,1,18,0,1,8,0,0,0,0,0,0,0,1,163,25,24,25,24,25,1,0
980,804,85,1,1,1,0,0,0,3,0,0.0,13037,0,0,0,1,21,0,1,17,0,1,8,0,0,0,0,0,0,0,1,165,24,23,24,23,24,1,0
981,553,77,2,0,0,1,1,0,2,0,0.0,6040,0,0,0,1,21,0,1,16,0,1,8,0,0,0,0,0,0,0,1,87,21,20,21,20,21,1,0
982,737,2,5,1,0,1,1,0,1,0,0.0,6022,0,0,0,1,19,0,1,17,0,1,8,0,0,0,0,0,0,0,1,138,22,21,22,21,22,1,0
983,650,8,3,1,0,0,1,0,4,0,0.0,6014,0,0,0,1,14,0,1,15,0,1,9,0,0,0,0,0,0,0,1,86,20,20,20,20,20,1,0
984,369,22,1,0,1,1,1,1,6,0,0.0,8514,0,0,0,1,22,0,1,17,0,1,8,0,0,0,0,0,0,0,1,165,22,21,22,24,25,1,0
985,347,6,5,0,0,0,0,0,6,0,0.0,6513,0,0,0,1,21,0,1,16,0,1,8,0,0,0,0,0,0,0,1,104,21,20,21,20,21,1,0
986,77,73,3,1,1,1,1,0,1,0,0.0,6012,0,0,0,1,21,0,1,17,0,1,8,0,0,0,0,0,0,0,1,158,22,21,22,21,22,1,0
987,80,54,3,1,1,0,1,0,3,0,0.0,6011,0,0,0,1,17,0,1,17,0,1,8,0,0,0,0,0,0,0,1,153,22,21,22,21,22,1,0
988,64,49,2,1,1,0,0,0,1,0,0.0,7014,0,0,0,1,21,0,1,16,0,1,8,0,0,0,0,0,0,0,1,105,21,20,21,20,21,1,0
989,622,80,5,1,0,0,1,1,3,0,0.0,10513,0,0,0,1,18,0,1,13,0,1,8,0,0,0,0,0,0,0,1,104,18,17,18,17,18,1,0
990,624,43,0,1,0,1,0,0,2,0,0.0,6012,0,0,0,1,21,0,1,17,0,1,8,0,0,0,0,0,0,0,1,143,22,21,22,21,22,1,0
991,419,44,2,1,0,1,1,0,2,0,0.0,6012,0,0,0,1,21,0,1,16,0,1,8,0,0,0,0,0,0,0,1,90,21,20,21,20,21,1,0
992,444,49,4,0,0,1,1,1,5,0,0.0,6012,0,0,0,1,21,0,1,17,0,1,8,0,0,0,0,0,0,0,1,133,22,21,22,21,22,1,0
993,962,80,4,0,1,0,0,0,3,0,0.0,6014,0,0,0,1,21,0,1,16,0,1,8,0,0,0,0,0,0,0,1,108,21,20,21,20,21,1,0
994,481,69,2,1,0,0,1,0,1,0,0.0,13010,0,0,0,1,31,0,1,23,0,1,8,0,0,0,0,1,1,0,1,186,33,32,33,32,33,1,0
995,651,7,0,0,0,0,0,0,5,0,0.0,6013,0,0,0,1,21,0,1,16,0,1,8,0,0,0,0,0,0,0,1,87,21,20,21,20,21,1,0
996,397,66,1,1,1,0,1,0,1,0,0.0,11023,0,0,0,1,20,0,1,16,0,1,8,0,0,0,0,0,0,0,1,144,21,20,21,20,21,1,0
997,423,39,3,1,1,0,1,1,2,0,0.0,6512,0,0,0,1,19,0,1,16,0,1,8,0,0,0,0,0,0,0,1,107,21,20,21,20,21,1,0
998,784,42,5,0,1,1,0,1,1,0,0.0,10512,0,0,0,1,19,0,1,15,0,1,8,0,0,0,0,0,0,0,1,175,22,21,22,21,23,1,0
999,335,71,2,1,0,0,0,1,1,0,0.0,15012,0,0,0,1,25,0,1,23,0,2,10,0,1,1,0,2,2,0,1,190,37,36,37,36,37,1,0
1000,823,20,2,0,0,0,1,1,5,0,0.0,10518,0,0,0,1,22,0,1,18,0,1,8,0,0,0,0,0,0,0,1,166,25,24,25,24,25,1,0
